<?xml version="1.0" encoding="UTF-8" standalone="no"?>
<svg
   xmlns:dc="http://purl.org/dc/elements/1.1/"
   xmlns:cc="http://creativecommons.org/ns#"
   xmlns:rdf="http://www.w3.org/1999/02/22-rdf-syntax-ns#"
   xmlns:svg="http://www.w3.org/2000/svg"
   xmlns="http://www.w3.org/2000/svg"
   xmlns:sodipodi="http://sodipodi.sourceforge.net/DTD/sodipodi-0.dtd"
   xmlns:inkscape="http://www.inkscape.org/namespaces/inkscape"
   inkscape:version="1.0.1 (3bc2e813f5, 2020-09-07)"
   sodipodi:docname="debconf20.svg"
   width="1280mm"
   height="720mm"
   viewBox="0 0 1280 719.99997"
   version="1.1"
   id="svg8"
   inkscape:export-filename="/home/stefanor/git/debian/debconf-video/peertube/brand-art/thumbnails/debconf20.png"
   inkscape:export-xdpi="25.4"
   inkscape:export-ydpi="25.4">
  <defs
     id="defs2">
    <inkscape:path-effect
       hide_knots="false"
       only_selected="false"
       apply_with_radius="true"
       apply_no_radius="true"
       use_knot_distance="true"
       flexible="true"
       chamfer_steps="1"
       radius="14"
       mode="F"
       method="auto"
       unit="px"
       satellites_param="F,0,0,1,0,0.14,0,1 @ F,0,0,1,0,0.14,0,1 @ F,0,0,1,0,0.14,0,1 @ F,0,0,1,0,0.14,0,1 @ F,0,0,1,0,0.14,0,1 @ F,0,0,1,0,0.14,0,1 @ F,0,0,1,0,0.14,0,1 @ F,0,0,1,0,0.14,0,1 @ F,0,0,1,0,0.14,0,1 | F,0,0,1,0,0.14,0,1 @ F,0,0,1,0,0.14,0,1 @ F,0,0,1,0,0.14,0,1 @ F,0,0,1,0,0.14,0,1 @ F,0,0,1,0,0.14,0,1 | F,0,0,1,0,0.14,0,1 @ F,0,0,1,0,0.14,0,1 @ F,0,0,1,0,0.14,0,1 @ F,0,0,1,0,0.14,0,1 @ F,0,0,1,0,0.14,0,1 @ F,0,0,1,0,0.14,0,1 @ F,0,0,1,0,0.14,0,1 @ F,0,0,1,0,0.14,0,1 @ F,0,0,1,0,0.14,0,1 @ F,0,0,1,0,0.14,0,1 @ F,0,0,1,0,0.14,0,1 @ F,0,0,1,0,0.14,0,1 @ F,0,0,1,0,0.14,0,1 @ F,0,0,1,0,0.14,0,1 @ F,0,0,1,0,0.14,0,1 @ F,0,0,1,0,0.14,0,1 @ F,0,0,1,0,0.14,0,1 @ F,0,0,1,0,0.14,0,1 @ F,0,0,1,0,0.14,0,1 @ F,0,0,1,0,0.14,0,1 @ F,0,0,1,0,0.14,0,1 @ F,0,0,1,0,0.14,0,1 @ F,0,0,1,0,0.14,0,1 @ F,0,0,1,0,0.14,0,1 @ F,0,0,1,0,0.14,0,1 @ F,0,0,1,0,0.14,0,1 @ F,0,0,1,0,0.14,0,1 @ F,0,0,1,0,0.14,0,1 @ F,0,0,1,0,0.14,0,1 @ F,0,0,1,0,0.14,0,1 @ F,0,0,1,0,0.14,0,1 @ F,0,0,1,0,0.14,0,1 @ F,0,0,1,0,0.14,0,1 @ F,0,0,1,0,0.14,0,1 @ F,0,0,1,0,0.14,0,1 @ F,0,0,1,0,0.14,0,1 @ F,0,0,1,0,0.14,0,1 @ F,0,0,1,0,0.14,0,1 @ F,0,0,1,0,0.14,0,1 @ F,0,0,1,0,0.14,0,1 @ F,0,0,1,0,0.14,0,1 @ F,0,0,1,0,0.14,0,1 @ F,0,0,1,0,0.14,0,1 @ F,0,0,1,0,0.14,0,1 @ F,0,0,1,0,0.14,0,1 @ F,0,0,1,0,0.14,0,1 @ F,0,0,1,0,0.14,0,1 @ F,0,0,1,0,0.14,0,1 @ F,0,0,1,0,0.14,0,1 @ F,0,0,1,0,0.14,0,1 @ F,0,0,1,0,0.14,0,1 @ F,0,0,1,0,0.14,0,1 @ F,0,0,1,0,0.14,0,1 @ F,0,0,1,0,0.14,0,1 @ F,0,0,1,0,0.14,0,1 @ F,0,0,1,0,0.14,0,1 @ F,0,0,1,0,0.14,0,1 @ F,0,0,1,0,0.14,0,1 @ F,0,0,1,0,0.14,0,1 @ F,0,0,1,0,0.14,0,1 @ F,0,0,1,0,0.14,0,1 @ F,0,0,1,0,0.14,0,1 @ F,0,0,1,0,0.14,0,1 @ F,0,0,1,0,0.14,0,1 @ F,0,0,1,0,0.14,0,1 @ F,0,0,1,0,0.14,0,1 @ F,0,0,1,0,0.14,0,1 @ F,0,0,1,0,0.14,0,1 @ F,0,0,1,0,0.14,0,1 @ F,0,0,1,0,0.14,0,1 @ F,0,0,1,0,0.14,0,1 @ F,0,0,1,0,0.14,0,1 @ F,0,0,1,0,0.14,0,1 @ F,0,0,1,0,0.14,0,1 @ F,0,0,1,0,0.14,0,1 @ F,0,0,1,0,0.14,0,1 @ F,0,0,1,0,0.14,0,1 @ F,0,0,1,0,0.14,0,1 @ F,0,0,1,0,0.14,0,1 @ F,0,0,1,0,0.14,0,1 @ F,0,0,1,0,0.14,0,1 @ F,0,0,1,0,0.14,0,1 @ F,0,0,1,0,0.14,0,1 @ F,0,0,1,0,0.14,0,1 @ F,0,0,1,0,0.14,0,1 @ F,0,0,1,0,0.14,0,1 @ F,0,0,1,0,0.14,0,1 @ F,0,0,1,0,0.14,0,1 @ F,0,0,1,0,0.14,0,1 @ F,0,0,1,0,0.14,0,1 @ F,0,0,1,0,0.14,0,1 @ F,0,0,1,0,0.14,0,1 @ F,0,0,1,0,0.14,0,1 @ F,0,0,1,0,0.14,0,1 @ F,0,0,1,0,0.14,0,1 @ F,0,0,1,0,0.14,0,1 @ F,0,0,1,0,0.14,0,1 @ F,0,0,1,0,0.14,0,1 @ F,0,0,1,0,0.14,0,1 @ F,0,0,1,0,0.14,0,1 @ F,0,0,1,0,0.14,0,1 @ F,0,0,1,0,0.14,0,1 @ F,0,0,1,0,0.14,0,1 | F,0,0,1,0,0.14,0,1 @ F,0,0,1,0,0.14,0,1 @ F,0,0,1,0,0.14,0,1 @ F,0,0,1,0,0.14,0,1 @ F,0,0,1,0,0.14,0,1 @ F,0,0,1,0,0.14,0,1 | F,0,0,1,0,0.14,0,1 @ F,0,0,1,0,0.14,0,1 | F,0,0,1,0,0.14,0,1 @ F,0,0,1,0,0.14,0,1 | F,0,0,1,0,0.14,0,1 @ F,0,0,1,0,0.14,0,1 @ F,0,0,1,0,0.14,0,1 | F,0,0,1,0,0.14,0,1 @ F,0,0,1,0,0.14,0,1 @ F,0,0,1,0,0.14,0,1 | F,0,0,1,0,0.14,0,1 @ F,0,0,1,0,0.14,0,1 @ F,0,0,1,0,0.14,0,1 @ F,0,0,1,0,0.14,0,1 @ F,0,0,1,0,0.14,0,1 @ F,0,0,1,0,0.14,0,1 @ F,0,0,1,0,0.14,0,1 @ F,0,0,1,0,0.14,0,1 | F,0,0,1,0,0.14,0,1 @ F,0,0,1,0,0.14,0,1 @ F,0,0,1,0,0.14,0,1 | F,0,0,1,0,0.14,0,1 @ F,0,0,1,0,0.14,0,1 @ F,0,0,1,0,0.14,0,1 @ F,0,0,1,0,0.14,0,1 @ F,0,0,1,0,0.14,0,1 | F,0,0,1,0,0.14,0,1 @ F,0,0,1,0,0.14,0,1 @ F,0,0,1,0,0.14,0,1"
       lpeversion="1"
       is_visible="true"
       id="path-effect964"
       effect="fillet_chamfer" />
    <inkscape:path-effect
       hide_knots="false"
       only_selected="false"
       apply_with_radius="true"
       apply_no_radius="true"
       use_knot_distance="true"
       flexible="false"
       chamfer_steps="1"
       radius="12"
       mode="F"
       method="auto"
       unit="px"
       satellites_param="F,0,0,1,0,3.175,0,1 @ F,0,0,1,0,3.175,0,1 @ F,0,0,1,0,3.175,0,1 @ F,0,0,1,0,3.175,0,1 @ F,0,0,1,0,3.175,0,1 @ F,0,0,1,0,3.175,0,1 @ F,0,0,1,0,3.175,0,1 @ F,0,0,1,0,3.175,0,1 @ F,0,0,1,0,3.175,0,1"
       lpeversion="1"
       is_visible="true"
       id="path-effect962"
       effect="fillet_chamfer" />
    <clipPath
       clipPathUnits="userSpaceOnUse"
       id="clipPath1519-6">
      <path
         id="path1521-6"
         style="fill:#a80030;fill-opacity:1;stroke-width:5.04592"
         d="m -229.14181,326.27877 83.70352,-56.87692 v -89.07791 h -167.4051 v 89.07791 l 15.54878,10.56543 v 46.19911 h 38.04825 v -20.34392 z m -6.855,-41.67162 v 0 c 1.39804,-0.24189 3.31826,-0.0751 4.63641,-0.4432 l 0.78914,0.0849 c -1.79101,0.17539 -3.60332,0.24272 -5.42555,0.35866 z m 7.95953,-0.63663 v -0.0104 c 0.009,0 0.0182,0 0.0273,0 0.92473,-0.39119 1.83975,-0.70072 2.70657,-1.16323 -3.55558,0.64445 -3.38615,-0.2619 -7.02003,0.1032 1.27463,-0.14129 2.82517,-0.525 2.57769,-0.67234 -4.06237,-0.35756 -4.68521,0.95458 -8.44363,0 l 0.23792,0.84399 c -5.22101,-1.43299 -6.31219,-1.19123 -11.98516,-3.47851 -1.99378,-0.0741 -2.19343,0.93389 -5.20362,0 -0.52943,-0.70674 0.1216,-0.83661 -3.57327,-2.50886 -0.41226,0.12429 0.73667,0.9176 1.64592,1.55008 -7.42956,-3.01946 -15.508,-9.45387 -17.97043,-16.34063 2.30505,3.23067 0.23929,-1.64882 1.03095,-1.39567 -1.0273,-2.10674 -1.87049,-4.28241 -2.39112,-6.53033 0.68226,1.84377 2.17086,6.29349 4.77847,9.16538 0.21285,-1.85373 3.3589,1.27812 1.63878,-2.80093 -1.31168,-1.44473 -0.2642,1.46704 -1.88041,-1.10051 -0.0249,-1.22033 -0.64007,-2.43403 -0.99549,-4.02451 0.55334,0.0692 1.23508,1.75717 1.64188,1.28715 -0.56093,-2.00049 -1.48459,-3.0421 -1.83601,-3.19553 0.18047,-0.33495 0.64654,0.31137 0.67816,-1.04932 -0.21519,-3.13252 -1.15539,-1.81037 -1.59812,-1.9595 0.44904,-1.54095 2.2646,-3.35369 1.36852,-6.00563 0.25694,0.8031 0.76046,1.61166 1.14204,2.3727 0.35387,-2.26411 -0.66165,-2.70682 0.7136,-5.45102 -0.99137,2.47366 -0.88206,4.70513 0.0546,3.62995 -0.41272,-3.5159 3.661,-6.21506 3.2204,-8.43811 l 1.18197,1.2418 c 3.20741,-3.5348 0.077,-1.94681 2.26041,-4.62495 -0.80061,1.05221 0.41976,0.43366 -0.62232,1.62524 0.69212,-0.0358 3.08627,-2.23844 5.27843,-3.5365 8.61845,-5.25151 18.90553,-5.93928 28.86546,-3.11106 0.008,0 0.008,-0.006 0.0115,-0.01 0.008,-0.0224 0.0182,-0.0444 0.0297,-0.0664 0.009,-0.36397 -1.94168,-1.50418 -3.41119,-2.07906 -3.79459,-1.06625 -8.08562,-1.10812 -11.4624,-1.01326 7.29782,-2.3204 21.23646,2.35767 25.79549,8.56258 -1.03143,-0.17089 -4.56586,-4.36287 -7.21031,-5.04396 1.56341,0.95237 2.77431,2.16578 3.89474,3.41249 -2.11213,-1.84538 -4.68336,-3.35156 -7.48822,-4.35009 0.0763,0.22002 -0.0477,0.36512 -0.11811,0.5113 0,0.0259 -0.008,0.0484 -0.0297,0.0664 -0.0584,0.17901 0.0212,0.3756 0.70232,0.72441 8.44226,4.9184 13.43179,9.09864 11.69956,18.77655 -1.28752,0.73876 -1.62971,4.77524 -4.58437,6.18939 -1.80077,3.02446 -7.194,5.81238 -12.96144,5.88168 -5.888,0.24623 -10.85765,-2.38951 -13.35358,-4.87476 4.54397,3.21897 11.97966,4.19902 18.32308,1.81193 6.48562,-2.21726 10.33353,-7.64782 9.77281,-13.05443 -0.24101,0.26939 -0.45498,0.10454 -0.571,0.77197 0.19853,-10.50818 -14.89736,-18.20979 -25.76436,-14.32371 l -0.13076,-0.21938 c -4.40605,0.91361 -3.83316,1.66729 -6.71413,3.17134 0.22481,-0.3529 1.93852,-1.25143 0.91547,-1.26877 -1.40136,0.2824 -5.77952,3.37814 -7.93168,4.8327 -0.98715,1.61862 0.52573,0.87693 -0.85271,2.91193 l -1.6858,0.63952 c -0.93607,2.05809 -1.97588,3.22047 -1.8601,5.61644 l 0.98775,-1.57645 c -1.44702,3.33037 -0.61336,6.9552 -0.81711,10.09042 l 0.40425,0.0814 c 0.35378,7.88685 9.32174,16.26932 17.30409,19.10499 6.87956,2.41595 17.47146,2.83245 22.36513,1.01269 -0.67413,0.45329 -3.35857,0.64291 -2.55035,0.99207 7.66132,-0.57869 5.94979,-2.03138 11.82262,-3.17187 1.61093,-1.18242 -4.70156,0.94813 -1.30439,-0.58496 3.1503,-0.66053 4.61662,0.41913 9.28432,-3.2529 -0.41548,-0.51108 -2.96194,1.51045 -0.8369,-0.51897 4.38681,0.41412 13.85746,-7.62874 15.86854,-10.29537 l -1.05127,-0.13885 c 1.72691,-3.2884 3.99788,-5.38617 4.30718,-7.35603 0.44576,-4.84428 2.66981,-13.67561 -0.42061,-16.39165 l 0.30134,-2.26723 c -0.42434,-0.64333 -0.74598,-1.29897 -1.27335,-1.90252 l 0.69036,-0.0455 c -3.25099,-7.79446 -3.49285,-0.14406 -7.78525,-8.23951 0.62253,0.15942 1.25098,0.33257 2.15783,1.26307 0.10701,-0.70985 -1.31911,-2.84206 -3.01868,-4.50435 l 0.7174,-0.62356 c -0.94564,-1.30614 -1.81814,-1.59131 -2.47418,-2.04725 3.53173,1.46517 -3.27599,-4.83254 -3.89097,-5.63476 l -0.54311,0.73592 c 0.0777,-1.05629 -0.9965,-2.41917 -3.01414,-4.31143 l -1.67805,0.0461 c -0.69249,-1.03986 -3.22408,-2.91744 -4.75902,-3.00547 l 1.02278,-1.01332 c -3.85292,-0.92766 -1.87097,-1.2281 -6.60698,-2.50194 l 0.95538,1.28092 c -2.41469,-1.5931 -3.1621,-2.98513 -6.57138,-4.20541 -4.72627,-1.25257 -5.3529,-0.75735 -10.20496,-1.81186 4.1123,0.091 8.94487,0.0576 12.19571,0.9404 22.17933,4.56645 42.47341,24.34566 40.98954,44.71566 0.34055,4.12438 -0.5429,9.27803 0.36031,10.30458 -1.2678,3.13837 -2.73209,6.96293 -5.68699,11.51708 0.21307,0.3051 -0.4887,-0.89079 -1.99081,1.05514 -0.91116,1.52134 -1.65553,3.1975 -2.80425,4.67598 l -0.58694,0.1027 c -0.59085,2.60886 -8.00945,6.611 -10.21685,8.62538 l -0.15471,-0.76877 c -4.81727,3.43364 -13.40277,5.73561 -18.23626,7.37485 1.26525,-1.06459 -2.81257,0.0988 -5.77396,0.24162 -0.0103,0.006 -0.0197,0.008 -0.0311,0.0122 z m -2.9386,-0.51504 c -3.47437,-0.0752 -3.21582,-0.2502 -2.07781,-0.43975 l 0.0546,-0.0695 0.68642,-0.0461 -0.7371,0.11521 c -0.16891,0.18897 1.03732,0.29813 2.07766,0.43981 z m 45.88351,-17.99235 c 0.0249,-0.88552 -1.95636,0.87467 -0.53556,-1.55867 2.65113,-1.40919 0.23188,-0.57869 0.53556,1.55867 z m 2.16154,-6.78644 c 0.23331,-0.82462 0.34568,-1.68053 0.95611,-3.10527 -0.17799,1.11567 0.73178,1.46517 -0.95611,3.10527 z m -69.46174,-9.90674 c -0.24086,0 -0.41515,-0.45101 -0.29749,-1.78481 0.35151,-1.07437 0.63989,0.66123 1.00299,0.80487 -0.1548,0.5093 -0.4647,0.97544 -0.7055,0.97994 z m -21.31758,-4.49513 c 0.52048,-3.041 1.76412,-6.04375 3.6841,-8.78785 -1.73784,2.60054 -2.86956,5.40759 -3.3949,8.24241 z m 22.57509,-1.00076 v 0 c 0,-0.006 0,-0.006 0,-0.0104 0.30052,-1.37482 1.14741,-2.70319 2.30499,-3.91794 -0.14057,1.04718 3.23551,-0.45313 -0.68262,3.29535 0.34064,-1.05622 3.64377,-3.83595 0,-2.09212 -0.65841,0.89214 -1.35966,1.73634 -1.62237,2.71471 0,0.006 0,0.006 0,0.0104 z m 7.94749,-5.72249 c 0.56882,-0.4101 1.20501,-0.8335 1.90778,-1.25057 2.54473,0.29744 4.8644,1.04051 2.91517,1.06102 -1.62471,-0.11278 -3.23803,-0.10459 -4.82295,0.18955 z m 24.59837,-0.19296 v 0 c -0.44904,-0.68367 -0.8529,-1.36887 -1.53091,-1.93869 l -0.59813,-1.34405 c 0.81915,1.04967 1.70015,2.08137 2.1298,3.28274 z m 1.49852,-2.02882 c -1.6088,-2.36077 -2.48373,-3.08352 -3.66076,-4.82994 1.63605,1.03406 2.65398,2.46709 3.93482,3.78966 z" />
    </clipPath>
    <clipPath
       clipPathUnits="userSpaceOnUse"
       id="clipPath1221">
      <path
         d="m -262.88793,326.1663 c 2.01121,0 3.64162,-1.23934 3.64162,-2.76818 v -14.80729 c 0,-1.07055 1.66537,-1.63724 2.71519,-0.92362 l 24.67454,16.76674 c 1.54613,1.05054 3.88372,1.05054 5.42982,0 l 78.27336,-53.18734 c 1.72746,-1.17375 2.71507,-2.85148 2.71522,-4.61273 v -83.54177 c 0,-1.52881 -1.63041,-2.76817 -3.64162,-2.76817 h -160.12195 c -2.01121,0 -3.64162,1.23936 -3.64162,2.76817 v 83.54177 c 2.2e-4,1.76125 0.98776,3.43898 2.71519,4.61273 l 10.1188,6.87582 c 1.7274,1.17393 2.71476,2.85184 2.71461,4.61318 v 40.66251 c 0,1.52884 1.63041,2.76818 3.64161,2.76818 z m 26.89247,-41.15453 v 0 c 1.39808,-0.24192 3.31806,-0.0752 4.63617,-0.44335 l 0.78889,0.0852 c -1.791,0.17537 -3.60283,0.24266 -5.42506,0.35863 z m 7.95653,-0.63571 0.003,-0.003 v -0.0104 h 0.0273 c 0.9247,-0.39119 1.8395,-0.70079 2.7063,-1.16331 -3.55558,0.64449 -3.38619,-0.26196 -7.02009,0.10317 1.27465,-0.14129 2.82522,-0.52487 2.57774,-0.67221 -4.06234,-0.35755 -4.68536,0.95458 -8.44374,0 l 0.23825,0.84388 c -5.22098,-1.43297 -6.31222,-1.19099 -11.98519,-3.47823 -1.99378,-0.0741 -2.19386,0.93388 -5.20402,0 -0.52937,-0.70674 0.122,-0.83687 -3.57284,-2.50913 -0.41233,0.12432 0.73666,0.91786 1.64591,1.55035 -7.42952,-3.01946 -15.50796,-9.45376 -17.97036,-16.34052 2.30502,3.23067 0.23904,-1.64893 1.03073,-1.3958 -1.02733,-2.10677 -1.87036,-4.28232 -2.39099,-6.53027 0.68222,1.84377 2.17083,6.29315 4.77843,9.16508 0.21282,-1.85375 3.35891,1.27842 1.63885,-2.80062 -1.31174,-1.44474 -0.26447,1.46685 -1.88068,-1.10068 -0.0249,-1.22033 -0.63971,-2.43385 -0.99516,-4.02433 0.55337,0.0691 1.23499,1.75678 1.64182,1.28679 -0.56096,-2.00049 -1.48484,-3.04185 -1.83622,-3.1953 0.18044,-0.33493 0.64644,0.31137 0.67803,-1.04933 -0.21515,-3.13253 -1.15515,-1.81034 -1.59794,-1.95945 0.44905,-1.54099 2.26466,-3.35387 1.36858,-6.00581 0.25692,0.80309 0.76052,1.61154 1.14216,2.37258 0.35385,-2.26411 -0.66168,-2.70653 0.71361,-5.45074 -0.99137,2.47366 -0.88215,4.70527 0.0546,3.63009 -0.41268,-3.5159 3.66086,-6.21529 3.22022,-8.43834 l 1.18186,1.24171 c 3.20741,-3.5348 0.0772,-1.94674 2.26059,-4.62488 -0.80061,1.0522 0.41976,0.43354 -0.62235,1.62512 0.69212,-0.0358 3.08651,-2.23828 5.2787,-3.53637 8.61845,-5.25148 18.90507,-5.93928 28.865,-3.11103 0.008,0 0.008,-0.006 0.0118,-0.01 0.008,-0.0226 0.0182,-0.0441 0.0297,-0.0662 0.009,-0.36397 -1.9415,-1.50441 -3.41107,-2.07932 -3.79456,-1.06621 -8.08563,-1.10812 -11.4624,-1.01324 7.29782,-2.32042 21.23631,2.35777 25.79534,8.56268 -1.03143,-0.17091 -4.56586,-4.36281 -7.21034,-5.04389 1.56341,0.95239 2.77427,2.1657 3.89471,3.41242 -2.11214,-1.84538 -4.68345,-3.35152 -7.48831,-4.35003 0.0763,0.22003 -0.0475,0.36519 -0.11793,0.51138 0,0.0259 -0.008,0.0482 -0.0297,0.0662 -0.0584,0.17903 0.0212,0.37566 0.70238,0.72448 8.44229,4.9184 13.43172,9.09872 11.6995,18.77665 -1.28752,0.73873 -1.62999,4.77505 -4.58461,6.1892 -1.80081,3.02448 -7.19395,5.81263 -12.96138,5.88191 -5.88801,0.24625 -10.85784,-2.3897 -13.35377,-4.87494 4.54398,3.21897 11.98021,4.19921 18.32366,1.81212 6.48559,-2.21722 10.33329,-7.64806 9.77257,-13.05467 -0.24101,0.26939 -0.45535,0.10482 -0.57137,0.77225 0.19853,-10.50818 -14.89693,-18.20996 -25.76393,-14.32388 l -0.131,-0.21942 c -4.40602,0.91361 -3.83323,1.66736 -6.71423,3.17142 0.22484,-0.35289 1.9388,-1.2514 0.91575,-1.26874 -1.40133,0.2824 -5.77952,3.378 -7.93162,4.83258 -0.98718,1.61863 0.52551,0.87692 -0.85296,2.91192 l -1.68564,0.63978 c -0.93608,2.05809 -1.97573,3.22056 -1.85992,5.61653 l 0.98748,-1.57645 c -1.44702,3.33036 -0.61303,6.9548 -0.81681,10.09004 l 0.40425,0.0815 c 0.35378,7.88685 9.32122,16.26942 17.30358,19.10509 6.87955,2.41595 17.4717,2.83258 22.36533,1.01283 -0.67409,0.45328 -3.35869,0.64251 -2.55043,0.99167 7.66134,-0.57868 5.94997,-2.03135 11.8228,-3.17187 1.6109,-1.18242 -4.70169,0.94827 -1.30455,-0.58482 3.1503,-0.66055 4.6165,0.41911 9.28423,-3.25295 -0.41544,-0.51107 -2.96193,1.51036 -0.83693,-0.51903 4.38681,0.41412 13.85758,-7.62847 15.86866,-10.29506 l -1.05084,-0.13877 c 1.72688,-3.28838 3.9973,-5.38626 4.3066,-7.35613 0.44576,-4.84427 2.67018,-13.67586 -0.42024,-16.39188 l 0.3011,-2.26716 c -0.42434,-0.6433 -0.74574,-1.2991 -1.27314,-1.90266 l 0.69054,-0.0455 c -3.25102,-7.79444 -3.49288,-0.14374 -7.78525,-8.2392 0.62253,0.15943 1.25059,0.33241 2.15741,1.26289 0.10703,-0.70983 -1.31908,-2.84183 -3.01866,-4.50414 l 0.71777,-0.62356 c -0.94564,-1.30612 -1.81853,-1.59133 -2.47454,-2.04727 3.5317,1.46515 -3.27563,-4.83284 -3.89058,-5.63504 l -0.54351,0.7362 c 0.0779,-1.05631 -0.99625,-2.4195 -3.01392,-4.31176 l -1.67796,0.0464 c -0.69249,-1.03988 -3.22399,-2.91761 -4.75887,-3.00561 l 1.02239,-1.01329 c -3.85292,-0.92769 -1.87085,-1.22803 -6.60692,-2.5019 l 0.95544,1.28093 c -2.41473,-1.59311 -3.16208,-2.98516 -6.57139,-4.20544 -4.72626,-1.25257 -5.35323,-0.75714 -10.20525,-1.81165 4.11226,0.091 8.94535,0.0575 12.19616,0.9403 22.17939,4.56643 42.47338,24.34566 40.98957,44.71567 0.34052,4.12432 -0.54284,9.27793 0.36037,10.3045 -1.2678,3.13836 -2.73221,6.9628 -5.68708,11.51695 0.21304,0.3051 -0.48882,-0.89077 -1.9909,1.05519 -0.91116,1.52133 -1.65542,3.19777 -2.80413,4.67625 l -0.58736,0.10226 c -0.59089,2.60885 -8.00922,6.61142 -10.21655,8.62578 l -0.15474,-0.7691 c -4.81725,3.43362 -13.40296,5.73579 -18.2365,7.37504 1.26528,-1.06459 -2.81221,0.0987 -5.77357,0.2415 -0.0103,0.006 -0.0197,0.008 -0.0309,0.0118 z m -2.93568,-0.51633 c -3.47438,-0.0752 -3.2161,-0.25016 -2.07806,-0.43975 l 0.0545,-0.0694 0.68638,-0.0459 -0.73672,0.1149 c -0.16888,0.18898 1.03707,0.29804 2.07745,0.43973 z m 45.88348,-17.99224 c 0.0249,-0.88552 -1.95661,0.87444 -0.53581,-1.5589 2.6511,-1.40919 0.23212,-0.57846 0.53581,1.5589 z m 2.16163,-6.78662 c 0.2333,-0.82464 0.34562,-1.68045 0.95604,-3.1052 -0.17798,1.11569 0.73187,1.46507 -0.95604,3.1052 z m -69.46211,-9.90668 c -0.24089,0 -0.41521,-0.45084 -0.29755,-1.78464 0.35151,-1.07437 0.64032,0.66104 1.00344,0.80469 -0.15482,0.50927 -0.46509,0.97543 -0.70589,0.97995 z m -21.31743,-4.49514 c 0.52048,-3.04101 1.7643,-6.04386 3.68428,-8.78797 -1.73784,2.60056 -2.86971,5.40756 -3.39505,8.24236 z m 22.57454,-1.01103 c 0.3005,-1.3748 1.14751,-2.70322 2.30505,-3.91796 -0.14056,1.04717 3.23537,-0.45318 -0.6828,3.2953 0.34067,-1.05624 3.6438,-3.83618 0,-2.09234 -0.65837,0.89213 -1.35953,1.73666 -1.62225,2.715 z m 7.94828,-5.71206 c 0.56882,-0.41011 1.20456,-0.83364 1.90733,-1.25073 2.54473,0.29746 4.86474,1.04058 2.91553,1.06104 -1.6247,-0.11276 -3.23794,-0.10448 -4.82286,0.18969 z m 24.59925,-0.19329 v 0 c -0.44898,-0.68369 -0.85296,-1.36889 -1.53096,-1.93872 l -0.59805,-1.34397 c 0.81918,1.04969 1.69997,2.0813 2.12962,3.28269 z m 1.49719,-2.02882 c -1.60877,-2.36077 -2.48355,-3.08347 -3.66058,-4.82989 1.63609,1.03405 2.65416,2.46744 3.93501,3.79002 z"
         style="fill:#a80030;fill-opacity:1;stroke:none;stroke-width:5.54601;stroke-linejoin:round;stroke-miterlimit:4;stroke-dasharray:none;stroke-opacity:1"
         id="path1223" />
    </clipPath>
    <clipPath
       id="clipPath1525"
       clipPathUnits="userSpaceOnUse">
      <path
         d="m 594.95563,30.321274 c -0.97204,0 -1.76003,0.787987 -1.76003,1.760033 v 8.823351 c 0,0.680674 -0.80491,1.040971 -1.31229,0.587246 L 579.95783,30.831445 c -0.74727,-0.667938 -1.87705,-0.667938 -2.62429,0 l -37.8304,33.817034 c -0.8349,0.746285 -1.31222,1.812997 -1.31229,2.93282 v 53.116671 c 0,0.97202 0.78799,1.76002 1.76003,1.76002 h 77.38873 c 0.97204,0 1.76003,-0.788 1.76003,-1.76002 V 67.581299 c -9e-5,-1.119823 -0.47738,-2.186535 -1.3123,-2.93282 l -4.8905,-4.371716 c -0.83487,-0.746399 -1.31207,-1.813226 -1.312,-2.933105 V 32.081307 c 0,-0.972046 -0.788,-1.760033 -1.76004,-1.760033 z m -12.99744,25.575183 v 0 c -0.67571,0.15381 -1.60364,0.04777 -2.24071,0.281879 l -0.38128,-0.05416 c 0.86562,-0.111497 1.74129,-0.154284 2.62199,-0.228018 z m -3.84548,0.404189 -0.002,0.0016 v 0.0066 h -0.0133 c -0.44691,0.248723 -0.88905,0.445573 -1.30796,0.739642 1.71844,-0.409771 1.63654,0.166556 3.39286,-0.06559 -0.61606,0.08983 -1.36545,0.333718 -1.24584,0.427394 1.96336,0.227335 2.26448,-0.606929 4.08095,0 l -0.11514,-0.536545 c 2.52336,0.911102 3.05076,0.757236 5.79257,2.211499 0.96362,0.04711 1.0603,-0.593779 2.51517,0 0.25585,0.449348 -0.059,0.532082 1.72678,1.595321 0.19928,-0.07905 -0.35603,-0.583587 -0.79549,-0.985717 3.59079,1.919791 7.49517,6.010778 8.68528,10.389457 -1.11405,-2.054091 -0.11552,1.0484 -0.49816,0.887457 0.49652,1.339514 0.90397,2.722744 1.1556,4.152008 -0.32975,-1.172285 -1.04919,-4.001237 -2.30947,-5.827243 -0.10287,1.178631 -1.62341,-0.812832 -0.79209,1.780667 0.63397,0.918569 0.12783,-0.932644 0.90896,0.69982 0.0121,0.775895 0.30919,1.547465 0.48098,2.558703 -0.26745,-0.04398 -0.59689,-1.116978 -0.79351,-0.818153 0.27112,1.271926 0.71762,1.934047 0.88746,2.031602 -0.0872,0.212949 -0.31243,-0.197967 -0.32771,0.667172 0.10399,1.991701 0.5583,1.15103 0.77231,1.245839 -0.21702,0.979784 -1.09454,2.132422 -0.66144,3.818554 -0.12418,-0.510611 -0.36758,-1.024629 -0.55203,-1.508508 -0.17102,1.439546 0.31979,1.720841 -0.34489,3.465633 0.47914,-1.572777 0.42634,-2.991655 -0.0264,-2.308047 0.19946,2.235446 -1.76933,3.951745 -1.55637,5.365176 l -0.5712,-0.789491 c -1.55018,2.247456 -0.0373,1.237758 -1.09256,2.940544 0.38693,-0.669002 -0.20288,-0.275648 0.30078,-1.033275 -0.33451,0.02279 -1.49175,1.423133 -2.55126,2.24846 -4.1654,3.338948 -9.13703,3.776251 -13.95078,1.978039 -0.004,0 -0.004,0.0038 -0.006,0.0063 -0.004,0.01442 -0.009,0.02808 -0.0144,0.04211 -0.004,0.231408 0.93835,0.956517 1.64862,1.322028 1.83394,0.677928 3.90786,0.704577 5.5399,0.644245 -3.52713,1.475339 -10.26374,-1.499089 -12.46718,-5.444232 0.4985,0.108648 2.20673,2.773921 3.48484,3.206957 -0.75561,-0.60554 -1.34085,-1.376986 -1.88236,-2.169678 1.02081,1.173333 2.26356,2.130942 3.61919,2.76581 -0.0369,-0.139885 0.023,-0.232194 0.057,-0.32513 0,-0.01647 0.004,-0.03067 0.0144,-0.04211 0.0282,-0.113832 -0.0102,-0.238849 -0.33947,-0.460631 -4.08024,-3.127171 -6.49169,-5.785047 -5.6545,-11.938369 0.62229,-0.469702 0.7878,-3.036028 2.2158,-3.935154 0.87035,-1.923 3.47691,-3.695731 6.2644,-3.739777 2.84571,-0.156562 5.2477,1.519395 6.45402,3.09954 -2.19615,-2.046655 -5.79019,-2.669908 -8.85602,-1.152168 -3.13459,1.409725 -4.99422,4.86271 -4.72322,8.300284 0.11649,-0.171279 0.22008,-0.06664 0.27615,-0.491006 -0.0959,6.681206 7.19986,11.578075 12.452,9.107266 l 0.0633,0.139505 c 2.12947,-0.580885 1.85263,-1.060127 3.24505,-2.016425 -0.10865,0.224374 -0.93703,0.795648 -0.44259,0.806686 0.67727,-0.179551 2.79331,-2.147762 3.83345,-3.072606 0.47712,-1.029136 -0.25401,-0.557557 0.41223,-1.851423 l 0.81469,-0.406777 c 0.45242,-1.308553 0.95491,-2.047661 0.89893,-3.571041 l -0.47725,1.002321 c 0.69935,-2.117482 0.29627,-4.421931 0.39475,-6.415348 l -0.19536,-0.05185 c -0.17098,-5.014528 -4.50506,-10.344254 -8.36302,-12.147195 -3.32497,-1.536094 -8.44426,-1.800981 -10.80942,-0.643974 0.3258,-0.288201 1.6233,-0.408515 1.23266,-0.630512 -3.7028,0.36793 -2.87568,1.29156 -5.7141,2.016709 -0.77855,0.751794 2.2724,-0.602926 0.63051,0.371833 -1.52256,0.419985 -2.23122,-0.266473 -4.48716,2.068257 0.20078,0.324945 1.43152,-0.9603 0.40448,0.330004 -2.1202,-0.263303 -6.69753,4.850256 -7.6695,6.545696 l 0.5079,0.08823 c -0.83464,2.09079 -1.93196,3.424645 -2.08144,4.677101 -0.21545,3.08004 -1.29053,8.695246 0.20311,10.422117 l -0.14553,1.441481 c 0.20509,0.409008 0.36043,0.825982 0.61532,1.209725 l -0.33373,0.02895 c 1.57124,4.955774 1.68813,0.09138 3.7627,5.238557 -0.30089,-0.101368 -0.60444,-0.211356 -1.04271,-0.802959 -0.0517,0.451326 0.63752,1.80689 1.45894,2.863784 l -0.3469,0.396456 c 0.45704,0.830467 0.87892,1.011795 1.19598,1.301684 -1.70692,-0.931557 1.58314,3.072775 1.88034,3.582815 l 0.26269,-0.46809 c -0.0376,0.67162 0.4815,1.53835 1.45669,2.74146 l 0.81096,-0.0295 c 0.33469,0.66118 1.55819,1.85505 2.30001,1.91099 l -0.49414,0.64426 c 1.86217,0.58985 0.90421,0.7808 3.19322,1.59075 l -0.46179,-0.81444 c 1.16706,1.01292 1.52829,1.898 3.17603,2.67385 2.28425,0.79641 2.58726,0.48142 4.93233,1.15187 -1.98752,-0.0579 -4.32341,-0.0366 -5.89455,-0.59785 -10.71955,-2.90336 -20.52785,-15.47921 -19.81071,-28.430649 -0.16458,-2.622288 0.26237,-5.899008 -0.17416,-6.551706 0.61275,-1.995397 1.3205,-4.427011 2.74863,-7.322592 -0.10299,-0.193982 0.23625,0.566371 0.96222,-0.670893 0.44038,-0.96728 0.80006,-2.033171 1.35528,-2.973206 l 0.28387,-0.06502 c 0.28558,-1.65873 3.87092,-4.203596 4.93776,-5.484346 l 0.0748,0.488993 c 2.32824,-2.183128 6.47781,-3.646874 8.81391,-4.689121 -0.61151,0.676876 1.35917,-0.06273 2.79043,-0.153545 0.005,-0.0039 0.009,-0.005 0.0149,-0.0075 z m 1.41886,0.328287 c 1.67919,0.04777 1.55436,0.15906 1.00434,0.279605 l -0.0264,0.04414 -0.33173,0.02923 0.35608,-0.07305 c 0.0816,-0.12016 -0.50125,-0.189502 -1.00407,-0.279578 z m -22.176,11.43964 c -0.0121,0.563025 0.94564,-0.555978 0.25896,0.99116 -1.28131,0.895978 -0.11218,0.367793 -0.25896,-0.99116 z m -1.04475,4.314999 c -0.11275,0.52432 -0.16704,1.068445 -0.46207,1.974312 0.086,-0.709365 -0.35371,-0.931504 0.46207,-1.974312 z m 33.57181,6.298767 c 0.11644,0 0.20068,0.286645 0.14381,1.134689 -0.16988,0.683095 -0.30947,-0.420293 -0.48497,-0.511629 0.0748,-0.323806 0.22479,-0.620199 0.34116,-0.62306 z m 10.30296,2.85805 c -0.25156,1.933502 -0.8527,3.842749 -1.78065,5.587476 0.83991,-1.653457 1.38696,-3.438175 1.64087,-5.24057 z m -10.91052,0.642824 c -0.14525,0.874111 -0.55461,1.718732 -1.11407,2.491083 0.068,-0.665808 -1.56369,0.28813 0.33001,-2.095194 -0.16464,0.671576 -1.76109,2.439083 0,1.330334 0.3182,-0.567229 0.65709,-1.104182 0.78406,-1.726223 z m -3.84149,3.631784 c -0.27492,0.26075 -0.58219,0.530034 -0.92183,0.795226 -1.2299,-0.189119 -2.35119,-0.661618 -1.40913,-0.674622 0.78525,0.0717 1.56494,0.06643 2.33096,-0.120604 z m -11.8891,0.122905 v 0 c 0.217,0.434695 0.41223,0.870338 0.73992,1.232645 l 0.28905,0.854509 c -0.39592,-0.667414 -0.82161,-1.32331 -1.02927,-2.087154 z m -0.7236,1.289932 c 0.77753,1.500997 1.20031,1.960493 1.76918,3.070888 -0.79074,-0.657453 -1.28278,-1.568827 -1.90182,-2.409735 z"
         style="fill:#ce0056;fill-opacity:1;stroke:none;stroke-width:3.07438;stroke-linejoin:round;stroke-miterlimit:4;stroke-dasharray:none;stroke-opacity:1"
         id="path1527"
         sodipodi:nodetypes="ssscccccssssccccssscsccccccccccccccccccccccccccccccccccccccccccccccccccccccccccccccccccccccccccccccccccccccccccccccccccccccccccccccccccccccccccccccccccccccccccccscccccccc" />
    </clipPath>
  </defs>
  <sodipodi:namedview
     inkscape:snap-others="true"
     inkscape:snap-nodes="false"
     inkscape:snap-grids="false"
     inkscape:snap-page="true"
     inkscape:snap-bbox-midpoints="true"
     inkscape:window-maximized="1"
     inkscape:window-y="0"
     inkscape:window-x="2560"
     inkscape:window-height="1438"
     inkscape:window-width="2558"
     inkscape:snap-global="true"
     inkscape:guide-bbox="true"
     showguides="true"
     inkscape:snap-text-baseline="true"
     inkscape:snap-bbox-edge-midpoints="true"
     inkscape:bbox-nodes="true"
     inkscape:bbox-paths="true"
     inkscape:snap-bbox="true"
     showgrid="false"
     inkscape:document-rotation="0"
     inkscape:current-layer="layer1"
     inkscape:document-units="mm"
     inkscape:cy="803.59823"
     inkscape:cx="3415.8468"
     inkscape:zoom="0.12374369"
     inkscape:pageshadow="2"
     inkscape:pageopacity="0.0"
     borderopacity="1.0"
     bordercolor="#666666"
     pagecolor="#ffffff"
     id="base" />
  <metadata
     id="metadata5">
    <rdf:RDF>
      <cc:Work
         rdf:about="">
        <dc:format>image/svg+xml</dc:format>
        <dc:type
           rdf:resource="http://purl.org/dc/dcmitype/StillImage" />
        <dc:title></dc:title>
      </cc:Work>
    </rdf:RDF>
  </metadata>
  <g
     transform="translate(506.07581,562.11432)"
     id="layer1"
     inkscape:groupmode="layer"
     inkscape:label="Layer 1">
    <g
       clip-path="url(#clipPath1525)"
       transform="matrix(7.2778542,0,0,7.2778542,-4381.3819,-758.06691)"
       id="g1523">
      <path
         id="rect1333"
         style="fill:#e50202;fill-opacity:1;stroke-width:1.13509"
         d="M 626.33907,30.321278 V 39.53495 H 515.60639 v -9.213672 z" />
      <path
         id="rect1333-7"
         style="fill:#008026;fill-opacity:1;stroke-width:1.13509"
         d="m 626.33907,57.962294 v 9.213669 H 515.60631 v -9.213669 z" />
      <path
         id="rect1333-6"
         style="fill:#004dff;fill-opacity:1;stroke-width:1.13509"
         d="m 626.33907,67.175963 v 9.213675 H 515.60631 v -9.213675 z" />
      <path
         id="rect1333-5"
         style="fill:#91399f;fill-opacity:1;stroke-width:1.13509"
         d="m 626.33907,76.389638 v 9.213673 H 515.60631 v -9.213673 z" />
      <path
         id="rect1333-5-6"
         style="fill:#ff8c00;fill-opacity:1;stroke-width:1.13509"
         d="m 626.33907,39.53495 v 9.213672 H 515.60631 V 39.53495 Z" />
      <path
         id="rect1333-5-9"
         style="fill:#ffd42a;fill-opacity:1;stroke-width:1.13509"
         d="m 626.33907,48.748622 v 9.213672 H 515.60631 v -9.213672 z" />
      <path
         d="m 626.33907,94.816982 v 9.213668 H 515.60631 v -9.213668 z"
         style="fill:#74d7ee;fill-opacity:1;stroke-width:1.13509"
         id="rect1333-7-6" />
      <path
         d="m 626.33907,104.03065 v 9.21368 H 515.60631 v -9.21368 z"
         style="fill:#603914;fill-opacity:1;stroke-width:1.13509"
         id="rect1333-6-1" />
      <path
         d="M 626.33907,113.24433 V 122.458 H 515.60631 v -9.21367 z"
         style="fill:#010101;fill-opacity:1;stroke-width:1.13509"
         id="rect1333-5-5" />
      <path
         d="m 626.33907,85.603311 v 9.213671 H 515.60631 v -9.213671 z"
         style="fill:#fab0c8;fill-opacity:1;stroke-width:1.13509"
         id="rect1333-5-9-9" />
    </g>
    <g
       id="g942-5-5-1-9"
       transform="matrix(2.642729,0,0,2.642729,4352.2436,-3945.0366)"
       style="fill:#000000;fill-opacity:1">
      <path
         id="path30-6-5-3-6-3-3-2-5"
         d="m -1514.0705,1326.0825 c 0,5.2884 -0.9444,10.1992 -2.6443,14.5432 -1.6998,4.3441 -4.3441,8.3104 -7.7438,11.5212 -3.2108,3.2109 -7.366,5.8551 -11.8988,7.5549 -4.722,1.8887 -9.8215,2.6443 -15.4877,2.6443 h -28.3311 v -72.905 h 28.3311 c 5.6662,0 10.7657,0.9444 15.4877,2.8331 4.7217,1.8887 8.6881,4.3441 11.8988,7.5549 3.3997,3.2109 5.8551,7.1772 7.7438,11.5212 1.8887,4.3442 2.6443,9.4437 2.6443,14.7322 z m -17.3764,0 c 0,-3.5886 -0.3777,-6.7995 -1.3221,-9.8214 -0.9444,-2.8331 -2.2665,-5.2885 -3.9663,-7.3661 -1.6999,-2.0776 -3.9664,-3.5885 -6.4217,-4.7218 -2.4553,-1.1332 -5.4774,-1.6998 -8.6881,-1.6998 h -11.3325 v 46.8404 h 11.3325 c 3.2107,0 6.0438,-0.5666 8.6881,-1.6998 2.4553,-1.1333 4.7218,-2.6442 6.4217,-4.7218 1.6998,-2.0777 3.0219,-4.533 3.9663,-7.3661 0.9444,-2.6442 1.3221,-5.8551 1.3221,-9.4436 z"
         class="st25"
         style="fill:#000000;fill-opacity:1;stroke-width:1.88873" />
      <path
         id="path32-2-9-8-1-5-56-9-0"
         d="m -1483.6923,1309.9252 c 3.3341,0 6.4831,0.5558 9.2617,1.4819 2.7784,1.1114 5.1864,2.5933 7.224,4.6308 2.0375,2.0376 3.5195,4.4456 4.6308,7.4093 1.1115,2.9638 1.6671,6.1127 1.6671,9.8174 0,1.1114 0,2.0375 -0.1851,2.7785 -0.381,2.0826 -1.5174,2.7779 -3.3343,2.7785 h -29.0816 c 0.5557,4.2603 1.8523,7.4093 3.8899,9.2616 2.0377,1.8524 4.8161,2.9637 8.1503,2.9637 1.8524,0 3.3342,-0.1852 4.6309,-0.5557 1.2966,-0.3704 2.408,-0.9261 3.3341,-1.4818 0.9262,-0.5557 1.8523,-0.9262 2.7785,-1.4819 1.8964,-0.7921 4.1892,-0.7026 5.3717,0.741 l 4.4456,5.3717 c -1.4818,1.8523 -3.3341,3.3342 -5.0012,4.4456 -1.6672,1.1114 -3.7047,2.0375 -5.557,2.5932 -1.8523,0.5557 -3.8899,1.1114 -5.7422,1.2967 -1.8523,0.1852 -3.7048,0.3704 -5.5571,0.3704 -3.5194,0 -6.8536,-0.5557 -10.0025,-1.6671 -3.149,-1.1114 -5.9274,-2.9637 -8.1502,-5.1865 -2.4081,-2.2228 -4.2605,-5.1865 -5.5571,-8.5207 -1.2966,-3.3342 -2.0376,-7.4093 -2.0376,-11.8549 0,-3.3342 0.5558,-6.6684 1.6671,-9.6321 1.1115,-2.9637 2.7785,-5.7422 5.0013,-7.965 2.2228,-2.2228 4.8161,-4.0751 7.965,-5.3718 2.7785,-1.667 6.2981,-2.2228 10.1879,-2.2228 z m 0.3705,10.3731 c -2.9638,0 -5.1866,0.7409 -6.8537,2.408 -1.6671,1.6671 -2.7785,4.0751 -3.149,7.2241 h 19.079 c 0,-1.2966 -0.1852,-2.408 -0.5557,-3.5194 -0.3704,-1.1114 -0.7409,-2.2228 -1.4818,-3.149 -0.741,-0.9261 -1.6671,-1.6671 -2.7785,-2.2228 -1.2967,-0.3705 -2.5933,-0.7409 -4.2603,-0.7409 z"
         class="st25"
         style="fill:#000000;fill-opacity:1;stroke-width:1.85233"
         sodipodi:nodetypes="scssscccsssscccssssscsssscsssccsscs" />
      <path
         id="path34-6-4-5-8-6-29-3-4"
         d="m -1455.3518,1361.9194 v -72.4196 h 15.1891 v 26.8523 c 1.8523,-1.8523 4.0751,-3.3342 6.4832,-4.4456 2.408,-1.1114 5.1865,-1.6671 8.5207,-1.6671 2.5932,0 5.1865,0.5557 7.4093,1.6671 2.2228,1.1114 4.2603,2.7785 5.9274,5.0013 1.6671,2.2228 2.9638,5.0013 3.8899,8.1503 0.9262,3.1489 1.4819,6.8536 1.4819,10.9287 0,3.8899 -0.5557,7.4093 -1.6671,10.5583 -1.1114,3.1489 -2.5933,6.1127 -4.4456,8.5207 -1.8523,2.408 -4.2604,4.2603 -6.8536,5.557 -2.5933,1.2966 -5.557,2.0375 -8.8912,2.0375 -2.6844,0.038 -5.2122,-0.5821 -7.4093,-1.6671 -0.9262,-0.5557 -1.8523,-1.1114 -2.7785,-1.8523 -0.9262,-0.7409 -1.6671,-1.4818 -2.408,-2.408 -0.3461,2.7314 -1.5783,5.3095 -4.2604,5.3717 h -10.1878 z m 24.8212,-40.3808 c -1.1114,0 -2.0375,0.1853 -2.9637,0.3705 -0.9262,0.1852 -1.6671,0.5557 -2.5933,0.9262 -0.9261,0.3704 -1.4818,0.9261 -2.2228,1.4818 -0.7409,0.5557 -1.2966,1.2967 -2.0375,2.0376 v 21.6722 c 1.1114,1.2967 2.408,2.2228 3.7046,2.5933 1.2967,0.5557 2.7785,0.7409 4.2604,0.7409 1.4819,0 2.7785,-0.1852 3.8899,-0.9261 1.1114,-0.5557 2.2228,-1.4819 3.1489,-2.5933 0.9262,-1.2966 1.4819,-2.7785 2.0376,-4.816 0.5557,-2.0376 0.7409,-4.2604 0.7409,-7.2241 0,-2.5933 -0.1852,-5.0013 -0.5557,-6.8536 -0.3704,-1.8524 -0.9261,-3.3342 -1.6671,-4.4456 -0.7409,-1.1114 -1.4818,-1.8524 -2.5932,-2.4081 -0.741,-0.1852 -1.8524,-0.5557 -3.149,-0.5557 z"
         class="st25"
         style="fill:#000000;fill-opacity:1;stroke-width:1.85233"
         sodipodi:nodetypes="ccccsssssssssccsccccsssscccsccsssscs" />
    </g>
    <g
       id="g933-9-12-1-8"
       transform="matrix(2.6435228,0,0,2.6435228,4350.1303,-3927.4096)"
       style="fill:#000000;fill-opacity:1">
      <path
         id="path40-7-0-8-0-2-9-9-7"
         d="m -1454.1152,1445.4729 v -50.5686 h 9.4468 c 1.7029,0.01 3.2702,0.7902 3.7047,2.408 l 0.9262,2.9638 c 0.9261,-0.9262 2.0375,-1.8524 2.9637,-2.5933 1.1114,-0.7409 2.2228,-1.4819 3.3342,-2.0376 1.1114,-0.5557 2.408,-0.9261 3.8899,-1.2966 1.4818,-0.3705 2.9637,-0.5557 4.6308,-0.5557 2.7785,0 5.1865,0.5557 7.4093,1.4819 2.2228,0.9261 3.8899,2.2228 5.3718,4.0751 1.4818,1.6671 2.5932,3.7046 3.3342,6.1127 0.7409,2.408 1.1114,5.0013 1.1114,7.7797 v 32.4158 h -15.1891 v -32.2305 c 0,-2.408 -0.5557,-4.4456 -1.6671,-5.7422 -1.1114,-1.4819 -2.7785,-2.0376 -5.0013,-2.0376 -1.6671,0 -3.149,0.3705 -4.6308,1.1114 -1.4819,0.7409 -2.9638,1.6671 -4.2604,2.9637 v 35.9352 h -15.3743 z"
         class="st25"
         style="fill:#000000;fill-opacity:1;stroke-width:1.85233"
         sodipodi:nodetypes="ccccccsssscssccscsscccc" />
      <path
         id="path42-9-9-1-2-7-3-4-17"
         d="m -1395.9575,1405.3489 -3.3342,-0.741 c -2.0177,-0.4047 -3.8661,-1.8559 -3.8899,-3.7046 v -6.1127 h 7.2241 v -2.9637 c 0,-2.9638 0.5557,-5.557 1.4819,-7.965 0.9261,-2.4081 2.2228,-4.4456 4.0751,-6.1127 1.6671,-1.6671 3.8899,-2.9638 6.4831,-3.8899 2.5933,-0.9262 5.3718,-1.2967 8.5207,-1.2967 1.2967,0 2.4081,0 3.5195,0.1853 1.1114,0.1852 2.2228,0.3704 3.3342,0.7409 l -0.3705,7.4093 c -0.095,1.8782 -2.2991,2.9405 -3.7047,2.9638 -1.2966,0 -2.5932,0.1852 -3.5194,0.3704 -1.1114,0.1853 -1.8523,0.741 -2.5933,1.4819 -0.7409,0.7409 -1.2966,1.4818 -1.667,2.5932 -0.3705,1.1114 -0.5557,2.4081 -0.5557,4.0752 v 2.408 h 12.0401 v 10.373 h -11.4844 v 40.3808 h -15.5596 z"
         class="st25"
         style="fill:#000000;fill-opacity:1;stroke-width:1.85233"
         sodipodi:nodetypes="cccccsscsssccccsssccccccc" />
      <g
         id="g4-2-1-0-3-0-6-7-27"
         transform="matrix(0.09876529,0,0,0.09876529,-1510.2382,1394.9043)"
         style="fill:#000000;fill-opacity:1">
        <path
           id="path2-0-0-3-7-9-0-8-2"
           d="M 437.02,74.98 C 388.667,26.628 324.38,0 256,0 187.62,0 123.333,26.628 74.98,74.98 26.627,123.332 0,187.62 0,256 0,324.38 26.628,388.667 74.98,437.02 123.332,485.373 187.62,512 256,512 324.38,512 388.667,485.372 437.02,437.02 485.373,388.668 512,324.38 512,256 512,187.62 485.372,123.333 437.02,74.98 Z m -2.132,315.679 c -15.31,-10.361 -31.336,-19.314 -47.952,-26.789 7.339,-28.617 11.697,-59.688 12.784,-91.87 h 79.702 c -3.144,44.336 -19.244,85.147 -44.534,118.659 z M 32.578,272 h 79.702 c 1.088,32.183 5.446,63.254 12.784,91.87 -16.616,7.475 -32.642,16.427 -47.952,26.789 C 51.822,357.147 35.722,316.336 32.578,272 Z m 44.53,-150.654 c 15.31,10.362 31.336,19.315 47.954,26.79 -7.338,28.615 -11.695,59.683 -12.783,91.864 H 32.578 c 3.144,-44.334 19.243,-85.142 44.53,-118.654 z M 360.627,78.765 c -5.863,-10.992 -12.198,-20.911 -18.935,-29.713 27.069,11.25 51.473,27.658 71.977,47.997 -11.625,7.638 -23.702,14.369 -36.155,20.185 -4.886,-13.664 -10.528,-26.547 -16.887,-38.469 z m -12.965,50.404 C 318.451,138.961 287.623,144 256,144 224.377,144 193.549,138.961 164.338,129.169 184.801,70.916 218.611,32 256,32 c 37.389,0 71.199,38.916 91.662,97.169 z M 144.303,240 c 1.056,-28.342 4.885,-55.421 10.937,-80.116 C 187.376,170.528 221.258,176 256,176 c 34.742,0 68.624,-5.472 100.76,-16.116 6.053,24.695 9.881,51.773 10.937,80.116 z m 223.394,32 c -1.057,28.344 -4.885,55.424 -10.938,80.12 C 324.62,341.474 290.739,336 256,336 c -34.739,0 -68.62,5.474 -100.759,16.12 -6.053,-24.696 -9.882,-51.776 -10.938,-80.12 z M 151.373,78.765 c -6.358,11.922 -12,24.805 -16.887,38.468 -12.452,-5.815 -24.53,-12.547 -36.155,-20.185 20.503,-20.34 44.907,-36.747 71.977,-47.997 -6.737,8.803 -13.073,18.722 -18.935,29.714 z m -16.886,316.008 c 4.886,13.661 10.528,26.542 16.885,38.462 5.863,10.992 12.198,20.911 18.935,29.713 -27.067,-11.25 -51.469,-27.655 -71.971,-47.992 11.625,-7.637 23.701,-14.368 36.151,-20.183 z M 164.34,382.835 C 193.553,373.041 224.38,368 256,368 c 31.62,0 62.447,5.041 91.66,14.835 C 327.197,441.086 293.388,480 256,480 c -37.388,0 -71.197,-38.914 -91.66,-97.165 z m 196.287,50.4 c 6.357,-11.92 11.999,-24.801 16.885,-38.462 12.451,5.815 24.527,12.547 36.151,20.183 -20.502,20.337 -44.904,36.743 -71.971,47.992 6.737,-8.802 13.073,-18.721 18.935,-29.713 z M 399.72,240 c -1.088,-32.18 -5.445,-63.249 -12.783,-91.864 16.618,-7.475 32.645,-16.428 47.954,-26.79 25.287,33.511 41.386,74.319 44.53,118.654 z"
           style="fill:#000000;fill-opacity:1" />
      </g>
      <path
         id="path36-1-9-4-2-1-70-4-2"
         d="m -1523.1029,1426.0792 c 0.3885,0.1777 0.7766,0.3552 1.169,0.7189 l 7.0695,6.7306 c -2.9849,3.7861 -6.5629,6.8409 -10.9347,8.7966 -4.3713,1.9555 -9.7243,3.0024 -15.8666,3.1359 -5.5663,0.1209 -10.7705,-0.6961 -15.2282,-2.4597 -4.458,-1.7637 -8.357,-4.2835 -11.5014,-7.3783 -3.1443,-3.0947 -5.7301,-6.9458 -7.3734,-11.5616 -1.831,-4.4256 -2.7107,-9.2442 -2.8355,-14.6374 -0.1249,-5.3928 0.7228,-10.249 2.5387,-14.7541 1.8159,-4.505 4.4127,-8.4685 7.6025,-11.7011 3.1899,-3.2323 7.3523,-5.9279 12.1078,-7.8917 4.7553,-1.9643 9.9165,-3.0068 15.6748,-3.132 2.6874,-0.059 5.3786,0.069 7.8871,0.5727 2.5081,0.5037 4.8244,1.0115 6.9571,1.8954 2.1329,0.8839 4.074,1.772 6.0194,2.8461 1.7534,1.0782 3.511,2.3425 4.8889,3.8009 l -5.5814,7.7501 c -0.3754,0.3802 -0.7463,0.9465 -1.3134,1.3309 -1.9224,1.0921 -3.846,0.4451 -5.5837,-0.6226 -0.5844,-0.3595 -1.361,-0.7147 -1.9498,-1.2602 -0.7764,-0.3554 -1.557,-0.8967 -2.7172,-1.2433 -0.9686,-0.3511 -2.1286,-0.698 -3.4765,-0.8548 -1.3483,-0.1566 -2.8879,-0.3094 -4.8073,-0.2676 -3.0712,0.067 -5.9373,0.6874 -8.5988,1.8616 -2.6613,1.1743 -4.7383,2.708 -6.6104,4.7953 -1.8718,2.0875 -3.1594,4.5342 -4.2464,7.3489 -0.8953,2.8103 -1.3977,5.9843 -1.316,9.5177 0.087,3.7195 0.7353,6.8684 1.7639,9.823 1.0244,2.7685 2.616,5.1527 4.3909,7.1609 1.7749,2.0081 3.9206,3.4498 6.2456,4.3297 2.3247,0.8798 5.025,1.3791 7.7122,1.3206 1.5355,-0.033 3.0712,-0.066 4.2185,-0.2779 1.3392,-0.2148 2.4865,-0.4259 3.6296,-0.8229 1.1432,-0.3971 2.0942,-0.7897 3.0367,-1.5546 0.9468,-0.5788 1.8892,-1.3435 3.0195,-2.2983 1.0805,-0.8583 2.7176,-1.5861 4.009,-1.0177 z"
         class="st25"
         style="fill:#000000;fill-opacity:1;stroke-width:1.8898"
         sodipodi:nodetypes="cccsssscssssssscccccccsssscscssscsccc" />
    </g>
    <g
       id="g987-3-62-5-6"
       style="fill:#000000;fill-opacity:1"
       transform="matrix(2.6722382,0,0,2.6722382,4397.911,-3742.0225)">
      <path
         style="fill:#000000;fill-opacity:1;stroke-width:1.61614"
         id="path48-6-4-8-2-5-3-6-6-0-1"
         d="m -1553.4728,1377.4313 c 3.5555,0 6.7878,0.4848 9.5352,1.6161 2.9091,0.9697 5.1717,2.4242 7.2727,4.3636 1.9393,1.7778 3.5555,4.0404 4.5252,6.6262 1.1313,2.5858 1.6161,5.3333 1.6161,8.404 0,2.5858 -0.3232,5.01 -1.1313,7.2726 -0.8081,2.2626 -1.7778,4.3636 -3.0707,6.303 -1.2929,1.9393 -2.7474,4.0403 -4.5252,5.8181 -1.6161,1.9394 -3.5555,3.7171 -5.3332,5.6565 l -12.0511,12.7762 c 3.6199,0.099 4.9468,-0.1574 8.3339,-0.1703 h 13.414 c 3.0544,0.024 5.2986,2.1408 5.3333,4.8484 v 8.8888 h -50.2621 v -4.8484 c 0.085,-2.3651 1.0519,-4.5463 2.7475,-5.9797 l 20.6866,-20.8483 c 1.7778,-1.7777 3.2323,-3.3939 4.6868,-5.01 1.2929,-1.6162 2.4242,-3.2323 3.2323,-4.6869 0.8081,-1.6161 1.4545,-3.0706 1.9394,-4.6868 0.4848,-1.6161 0.6464,-3.2323 0.6464,-5.01 0,-2.9091 -0.6464,-5.0101 -2.1009,-6.6262 -1.293,-1.4545 -3.394,-2.2626 -6.1414,-2.2626 -1.1313,0 -2.2626,0.1616 -3.0707,0.4848 -0.9697,0.3233 -1.7777,0.8081 -2.5858,1.293 -0.8081,0.4848 -1.4545,1.2929 -1.9394,1.9393 -0.4848,0.8081 -0.9697,1.6162 -1.2929,2.4242 -1.0199,3.715 -4.3619,4.3983 -7.4343,4.0404 l -8.0807,-1.4545 c 0.4849,-3.5555 1.4546,-6.6262 3.0707,-9.3737 1.4545,-2.5858 3.3939,-4.8484 5.4949,-6.6262 2.2626,-1.7777 4.6868,-3.0706 7.5959,-3.8787 2.5858,-0.9697 5.6565,-1.2929 8.8888,-1.2929 z"
         class="st15"
         sodipodi:nodetypes="scccssscccccccccccccsscscscccccccs" />
      <path
         style="fill:#000000;fill-opacity:1;stroke-width:1.5985"
         id="path50-1-4-9-6-9-6-0-1-3-0"
         d="m -1465.8008,1413.7982 c 0,6.2207 -0.6407,11.4844 -1.9224,16.11 -1.2815,4.4661 -3.2038,8.2942 -5.6068,11.3248 -2.403,3.0307 -5.1263,5.2637 -8.3302,6.6992 -3.204,1.4355 -6.7283,2.2331 -10.5731,2.2331 -3.8447,0 -7.2088,-0.7976 -10.4127,-2.2331 -3.204,-1.4355 -5.9273,-3.6685 -8.3302,-6.6992 -2.4031,-3.0306 -4.1652,-6.6992 -5.4467,-11.3248 -1.2816,-4.4661 -1.9224,-9.8893 -1.9224,-16.11 0,-6.2206 0.6408,-11.4842 1.9224,-16.1098 1.2815,-4.4662 3.2039,-8.2943 5.4467,-11.3249 2.4029,-3.0306 5.1262,-5.1041 8.3302,-6.6992 3.2039,-1.4356 6.7282,-2.233 10.4127,-2.233 3.8448,0 7.2089,0.7974 10.5731,2.233 3.2039,1.4356 6.0874,3.6686 8.3302,6.6992 2.403,3.0306 4.1651,6.6992 5.6068,11.3249 1.2817,4.6256 1.9224,9.8892 1.9224,16.1098 z m -15.5391,0 c 0,-4.9446 -0.3203,-8.9322 -0.9612,-11.9627 -0.6407,-3.1901 -1.4417,-5.5827 -2.4029,-7.3373 -0.9612,-1.7546 -2.2428,-3.0306 -3.5243,-3.6686 -1.2816,-0.638 -2.5631,-0.957 -4.005,-0.957 -1.2815,0 -2.5631,0.319 -3.8447,0.957 -1.2815,0.638 -2.4029,1.914 -3.3641,3.6686 -0.9612,1.7546 -1.7622,4.3066 -2.4029,7.3373 -0.6409,3.19 -0.9612,7.1776 -0.9612,11.9627 0,4.9448 0.3203,8.9323 0.9612,11.9629 0.6407,3.0306 1.4417,5.5827 2.4029,7.3372 0.9612,1.7545 2.0826,3.0307 3.3641,3.6686 1.2816,0.638 2.5632,0.9571 3.8447,0.9571 1.2817,0 2.7234,-0.3191 4.005,-0.9571 1.2815,-0.6379 2.4029,-1.9141 3.5243,-3.6686 0.9612,-1.7545 1.9224,-4.3066 2.4029,-7.3372 0.6409,-3.0306 0.9612,-7.0181 0.9612,-11.9629 z"
         class="st15" />
    </g>
  </g>
</svg>
