<?xml version="1.0" encoding="UTF-8" standalone="no"?>
<svg
   xmlns:dc="http://purl.org/dc/elements/1.1/"
   xmlns:cc="http://creativecommons.org/ns#"
   xmlns:rdf="http://www.w3.org/1999/02/22-rdf-syntax-ns#"
   xmlns:svg="http://www.w3.org/2000/svg"
   xmlns="http://www.w3.org/2000/svg"
   xmlns:xlink="http://www.w3.org/1999/xlink"
   xmlns:sodipodi="http://sodipodi.sourceforge.net/DTD/sodipodi-0.dtd"
   xmlns:inkscape="http://www.inkscape.org/namespaces/inkscape"
   width="1280"
   height="720"
   viewBox="0 0 338.6667 190.5"
   version="1.1"
   id="svg8"
   inkscape:version="1.0.2 (e86c870879, 2021-01-15)"
   sodipodi:docname="debconf21.svg"
   inkscape:export-filename="debconf21.png"
   inkscape:export-xdpi="96"
   inkscape:export-ydpi="96">
  <defs
     id="defs2">
    <linearGradient
       inkscape:collect="always"
       id="linearGradient1247">
      <stop
         style="stop-color:#ffffff;stop-opacity:1"
         offset="0"
         id="stop1243" />
      <stop
         style="stop-color:#ffffff;stop-opacity:1"
         offset="0.88957912"
         id="stop1268" />
      <stop
         style="stop-color:#ffffff;stop-opacity:0.33333337"
         offset="0.9419651"
         id="stop1284" />
      <stop
         style="stop-color:#ffffff;stop-opacity:0"
         offset="1"
         id="stop1245" />
    </linearGradient>
    <radialGradient
       inkscape:collect="always"
       xlink:href="#linearGradient1247"
       id="radialGradient1146"
       gradientUnits="userSpaceOnUse"
       gradientTransform="matrix(2.3151581,0,0,2.3085818,-83.511993,-1289.4384)"
       cx="63.499577"
       cy="629.97839"
       fx="63.499577"
       fy="629.97839"
       r="55.38266" />
    <radialGradient
       inkscape:collect="always"
       xlink:href="#linearGradient1247"
       id="radialGradient1341"
       gradientUnits="userSpaceOnUse"
       gradientTransform="matrix(1.4874715,-0.01696199,0.01517196,1.3304958,-37.296411,-657.54098)"
       cx="63.499577"
       cy="629.97839"
       fx="63.499577"
       fy="629.97839"
       r="55.38266" />
    <radialGradient
       inkscape:collect="always"
       xlink:href="#linearGradient1247"
       id="radialGradient1359"
       gradientUnits="userSpaceOnUse"
       gradientTransform="matrix(2.5807871,-0.02942933,0.0263236,2.3084318,-116.96262,-1287.4751)"
       cx="63.499577"
       cy="629.97839"
       fx="63.499577"
       fy="629.97839"
       r="55.38266" />
    <clipPath
       clipPathUnits="userSpaceOnUse"
       id="clipPath3657">
      <path
         style="color:#000000;font-style:normal;font-variant:normal;font-weight:normal;font-stretch:normal;font-size:medium;line-height:normal;font-family:sans-serif;font-variant-ligatures:normal;font-variant-position:normal;font-variant-caps:normal;font-variant-numeric:normal;font-variant-alternates:normal;font-variant-east-asian:normal;font-feature-settings:normal;font-variation-settings:normal;text-indent:0;text-align:start;text-decoration:none;text-decoration-line:none;text-decoration-style:solid;text-decoration-color:#000000;letter-spacing:normal;word-spacing:normal;text-transform:none;writing-mode:lr-tb;direction:ltr;text-orientation:mixed;dominant-baseline:auto;baseline-shift:baseline;text-anchor:start;white-space:normal;shape-padding:0;shape-margin:0;inline-size:0;clip-rule:nonzero;display:inline;overflow:visible;visibility:visible;isolation:auto;mix-blend-mode:normal;color-interpolation:sRGB;color-interpolation-filters:linearRGB;solid-color:#000000;solid-opacity:1;vector-effect:none;fill:#a80030;fill-opacity:1;fill-rule:evenodd;stroke:none;stroke-width:0.98184;stroke-linecap:round;stroke-linejoin:miter;stroke-miterlimit:4;stroke-dasharray:none;stroke-dashoffset:0;stroke-opacity:1;color-rendering:auto;image-rendering:auto;shape-rendering:auto;text-rendering:auto;enable-background:accumulate;stop-color:#000000"
         d="m 66.669816,63.68587 c -17.477285,0.006 -34.496929,3.50002 -48.637471,10.010158 a 1.1690022,1.1690022 0 0 0 -0.57338,1.549459 1.1690022,1.1690022 0 0 0 1.549465,0.573361 c 13.781009,-6.344602 30.495724,-9.787623 47.661386,-9.793463 h 0.0441 c 17.180617,8e-6 33.912484,3.443331 47.705484,9.793463 a 1.1690022,1.1690022 0 0 0 1.54948,-0.573361 1.1690022,1.1690022 0 0 0 -0.57339,-1.549459 C 101.24263,67.18022 84.206429,63.685878 66.713922,63.68587 Z"
         id="path3659"
         inkscape:transform-center-x="-0.078431219"
         inkscape:transform-center-y="-109.9706" />
    </clipPath>
    <clipPath
       clipPathUnits="userSpaceOnUse"
       id="clipPath3657-3">
      <path
         inkscape:connector-curvature="0"
         style="color:#000000;font-style:normal;font-variant:normal;font-weight:normal;font-stretch:normal;font-size:medium;line-height:normal;font-family:sans-serif;font-variant-ligatures:normal;font-variant-position:normal;font-variant-caps:normal;font-variant-numeric:normal;font-variant-alternates:normal;font-feature-settings:normal;text-indent:0;text-align:start;text-decoration:none;text-decoration-line:none;text-decoration-style:solid;text-decoration-color:#000000;letter-spacing:normal;word-spacing:normal;text-transform:none;writing-mode:lr-tb;direction:ltr;text-orientation:mixed;dominant-baseline:auto;baseline-shift:baseline;text-anchor:start;white-space:normal;shape-padding:0;clip-rule:nonzero;display:inline;overflow:visible;visibility:visible;isolation:auto;mix-blend-mode:normal;color-interpolation:sRGB;color-interpolation-filters:linearRGB;solid-color:#000000;solid-opacity:1;vector-effect:none;fill:#a80030;fill-opacity:1;fill-rule:evenodd;stroke:none;stroke-width:0.98184;stroke-linecap:round;stroke-linejoin:miter;stroke-miterlimit:4;stroke-dasharray:none;stroke-dashoffset:0;stroke-opacity:1;color-rendering:auto;image-rendering:auto;shape-rendering:auto;text-rendering:auto;enable-background:accumulate"
         d="m 66.669816,63.68587 c -17.477285,0.006 -34.496929,3.50002 -48.637471,10.010158 a 1.1690022,1.1690022 0 0 0 -0.57338,1.549459 1.1690022,1.1690022 0 0 0 1.549465,0.573361 c 13.781009,-6.344602 30.495724,-9.787623 47.661386,-9.793463 h 0.0441 c 17.180617,8e-6 33.912484,3.443331 47.705484,9.793463 a 1.1690022,1.1690022 0 0 0 1.54948,-0.573361 1.1690022,1.1690022 0 0 0 -0.57339,-1.549459 C 101.24263,67.18022 84.206429,63.685878 66.713922,63.68587 Z"
         id="path3659-6"
         inkscape:transform-center-x="-0.078431219"
         inkscape:transform-center-y="-109.9706" />
    </clipPath>
  </defs>
  <sodipodi:namedview
     id="base"
     pagecolor="#ffffff"
     bordercolor="#666666"
     borderopacity="1.0"
     inkscape:pageopacity="1"
     inkscape:pageshadow="2"
     inkscape:zoom="1"
     inkscape:cx="307"
     inkscape:cy="328.82969"
     inkscape:document-units="mm"
     inkscape:current-layer="layer1"
     inkscape:document-rotation="0"
     showgrid="false"
     units="px"
     showguides="true"
     inkscape:snap-page="false"
     inkscape:window-width="1920"
     inkscape:window-height="1056"
     inkscape:window-x="0"
     inkscape:window-y="24"
     inkscape:window-maximized="1"
     inkscape:object-paths="true"
     inkscape:snap-intersection-paths="true"
     inkscape:snap-smooth-nodes="true"
     inkscape:snap-midpoints="true"
     inkscape:guide-bbox="true"
     inkscape:snap-global="false"
     fit-margin-top="25"
     fit-margin-left="50"
     fit-margin-right="50"
     fit-margin-bottom="25">
    <inkscape:grid
       type="xygrid"
       id="grid1063"
       originx="-0.51598189"
       originy="3.7103715" />
  </sodipodi:namedview>
  <metadata
     id="metadata5">
    <rdf:RDF>
      <cc:Work
         rdf:about="">
        <dc:format>image/svg+xml</dc:format>
        <dc:type
           rdf:resource="http://purl.org/dc/dcmitype/StillImage" />
        <dc:title></dc:title>
      </cc:Work>
    </rdf:RDF>
  </metadata>
  <g
     inkscape:label="monotone_debian_red"
     inkscape:groupmode="layer"
     id="layer1"
     transform="translate(-0.51598156,3.7103713)"
     style="display:inline">
    <g
       id="g1156"
       transform="matrix(2.6366788,0,0,2.6366788,-6.0594389,-58.051828)"
       mask="none"
       clip-path="url(#clipPath3657)"
       inkscape:transform-center-y="-153.92254"
       inkscape:transform-center-x="-9.1932068e-06"
       style="fill:#a80030;fill-opacity:1;stroke:none;stroke-opacity:1">
      <path
         id="path878"
         style="fill:#a80030;fill-opacity:1;stroke:none;stroke-width:1.37794;stroke-linecap:round;stroke-linejoin:round;stroke-opacity:1"
         d="M 17.843939,72.87564 A 120.15814,116.78972 0 0 1 35.06533,66.903313 L 66.716654,179.56836 Z"
         inkscape:connector-curvature="0" />
      <path
         id="path878-6"
         style="fill:#a80030;fill-opacity:1;stroke:none;stroke-width:1.37794;stroke-linecap:round;stroke-linejoin:round;stroke-opacity:1"
         d="M 26.337586,69.57062 A 120.15814,116.78972 0 0 1 43.976562,64.889186 L 66.716654,179.56836 Z"
         inkscape:connector-curvature="0" />
      <path
         id="path878-6-7"
         style="fill:#a80030;fill-opacity:1;stroke:none;stroke-width:1.37794;stroke-linecap:round;stroke-linejoin:round;stroke-opacity:1"
         d="M 35.065179,66.903353 A 120.15814,116.78972 0 0 1 53.019653,63.539907 L 66.716654,179.56836 Z"
         inkscape:connector-curvature="0" />
      <path
         id="path878-6-7-6"
         style="fill:#a80030;fill-opacity:1;stroke:none;stroke-width:1.37794;stroke-linecap:round;stroke-linejoin:round;stroke-opacity:1"
         d="M 43.976573,64.889183 A 120.15814,116.78972 0 0 1 62.142152,62.863307 L 66.716654,179.56836 Z"
         inkscape:connector-curvature="0" />
      <path
         id="path878-6-7-6-2"
         style="fill:#a80030;fill-opacity:1;stroke:none;stroke-width:1.37794;stroke-linecap:round;stroke-linejoin:round;stroke-opacity:1"
         d="M 53.019653,63.539907 A 120.15814,116.78972 0 0 1 71.291161,62.863308 L 66.716654,179.56836 Z"
         inkscape:connector-curvature="0" />
      <path
         id="path878-6-7-6-2-93"
         style="fill:#a80030;fill-opacity:1;stroke:none;stroke-width:1.37794;stroke-linecap:round;stroke-linejoin:round;stroke-opacity:1"
         d="M 80.412412,63.537191 A 120.15814,116.78972 0 0 0 62.140904,62.860592 l 4.574507,116.705058 z"
         inkscape:connector-curvature="0" />
      <path
         id="path878-6-7-6-0"
         style="fill:#a80030;fill-opacity:1;stroke:none;stroke-width:1.37794;stroke-linecap:round;stroke-linejoin:round;stroke-opacity:1"
         d="M 89.455492,64.886467 A 120.15814,116.78972 0 0 0 71.289913,62.860591 L 66.715411,179.56565 Z"
         inkscape:connector-curvature="0" />
      <path
         id="path878-6-7-7"
         style="fill:#a80030;fill-opacity:1;stroke:none;stroke-width:1.37794;stroke-linecap:round;stroke-linejoin:round;stroke-opacity:1"
         d="M 98.366886,66.900637 A 120.15814,116.78972 0 0 0 80.412412,63.537191 L 66.715411,179.56565 Z"
         inkscape:connector-curvature="0" />
      <path
         id="path878-6-2"
         style="fill:#a80030;fill-opacity:1;stroke:none;stroke-width:1.37794;stroke-linecap:round;stroke-linejoin:round;stroke-opacity:1"
         d="M 107.09448,69.567904 A 120.15814,116.78972 0 0 0 89.455503,64.88647 L 66.715411,179.56565 Z"
         inkscape:connector-curvature="0" />
      <path
         id="path878-1"
         style="fill:#a80030;fill-opacity:1;stroke:none;stroke-width:1.37794;stroke-linecap:round;stroke-linejoin:round;stroke-opacity:1"
         d="M 115.58813,72.872924 A 120.15814,116.78972 0 0 0 98.366735,66.900597 L 66.715411,179.56565 Z"
         inkscape:connector-curvature="0" />
      <path
         id="path878-1-0"
         style="fill:#a80030;fill-opacity:1;stroke:none;stroke-width:1.37794;stroke-linecap:round;stroke-linejoin:round;stroke-opacity:1"
         d="m 115.58813,72.87294 a 120.15814,116.78972 0 0 0 -8.49365,-3.305021 L 66.715411,179.56566 Z"
         inkscape:connector-curvature="0" />
    </g>
    <g
       id="path238"
       mask="none"
       style="opacity:1"
       transform="matrix(2.5898642,0,0,2.5898642,5.3912311,-11.715526)">
      <path
         style="color:#000000;font-style:normal;font-variant:normal;font-weight:normal;font-stretch:normal;font-size:medium;line-height:normal;font-family:sans-serif;font-variant-ligatures:normal;font-variant-position:normal;font-variant-caps:normal;font-variant-numeric:normal;font-variant-alternates:normal;font-feature-settings:normal;text-indent:0;text-align:start;text-decoration:none;text-decoration-line:none;text-decoration-style:solid;text-decoration-color:#000000;letter-spacing:normal;word-spacing:normal;text-transform:none;writing-mode:lr-tb;direction:ltr;text-orientation:mixed;dominant-baseline:auto;baseline-shift:baseline;text-anchor:start;white-space:normal;shape-padding:0;clip-rule:nonzero;display:inline;overflow:visible;visibility:visible;isolation:auto;mix-blend-mode:normal;color-interpolation:sRGB;color-interpolation-filters:linearRGB;solid-color:#000000;solid-opacity:1;vector-effect:none;fill:#000000;fill-opacity:0;fill-rule:evenodd;stroke:none;stroke-width:2.38125;stroke-linecap:round;stroke-linejoin:miter;stroke-miterlimit:4;stroke-dasharray:none;stroke-dashoffset:0;stroke-opacity:1;color-rendering:auto;image-rendering:auto;shape-rendering:auto;text-rendering:auto;enable-background:accumulate"
         d="M 112.58486,58.169058 C 98.353467,51.617104 81.157233,48.083898 63.5,48.083887 h -0.04496 c -17.641865,0.006 -34.820897,3.538919 -49.039901,10.085171"
         id="path2331"
         inkscape:connector-curvature="0" />
    </g>
    <g
       id="g888"
       transform="matrix(2.5898642,0,0,2.5898642,21.084725,-15.826935)"
       style="fill:#a80030">
      <path
         d="m 36.750772,57.478157 q 0.99483,0 1.703911,0.497415 0.719664,0.486832 1.09008,1.333496 0.380998,0.836081 0.380998,1.873244 0,1.037163 -0.380998,1.883827 -0.370416,0.836081 -1.09008,1.333496 -0.709081,0.486832 -1.703911,0.486832 h -2.529409 q -0.275166,0 -0.465665,-0.179916 -0.179916,-0.1905 -0.179916,-0.465665 v -6.117147 q 0,-0.275166 0.179916,-0.455082 0.190499,-0.1905 0.465665,-0.1905 z m -0.105833,6.191231 q 0.952497,0 1.428745,-0.698498 0.476249,-0.709081 0.476249,-1.788578 0,-1.079496 -0.486832,-1.777994 -0.476249,-0.709081 -1.418162,-0.709081 h -1.746245 v 4.974151 z"
         style="font-style:normal;font-variant:normal;font-weight:bold;font-stretch:normal;font-size:10.5833px;line-height:1.25;font-family:Quicksand;-inkscape-font-specification:'Quicksand Bold';text-align:center;text-anchor:middle;fill:#a80030;fill-opacity:1;stroke:none;stroke-width:0.264583"
         id="path2698"
         inkscape:connector-curvature="0" />
      <path
         d="m 45.333809,63.669388 q 0.275166,0 0.455082,0.190499 0.190499,0.179916 0.190499,0.423332 0,0.264582 -0.190499,0.433915 -0.179916,0.169333 -0.455082,0.169333 h -3.545406 q -0.275165,0 -0.465665,-0.179916 -0.179916,-0.1905 -0.179916,-0.465665 v -6.117147 q 0,-0.275166 0.179916,-0.455082 0.1905,-0.1905 0.465665,-0.1905 h 3.545406 q 0.275166,0 0.455082,0.179916 0.190499,0.169333 0.190499,0.444499 0,0.264582 -0.179916,0.433915 -0.179916,0.15875 -0.465665,0.15875 h -2.868074 v 1.799161 h 2.391825 q 0.275166,0 0.455082,0.179916 0.1905,0.169333 0.1905,0.444498 0,0.264583 -0.179917,0.433916 -0.179916,0.158749 -0.465665,0.158749 h -2.391825 v 1.957911 z"
         style="font-style:normal;font-variant:normal;font-weight:bold;font-stretch:normal;font-size:10.5833px;line-height:1.25;font-family:Quicksand;-inkscape-font-specification:'Quicksand Bold';text-align:center;text-anchor:middle;fill:#a80030;fill-opacity:1;stroke:none;stroke-width:0.264583"
         id="path2700"
         inkscape:connector-curvature="0" />
      <path
         d="m 51.641441,60.780147 q 0.560915,0.222249 0.910163,0.677331 0.359833,0.455082 0.359833,1.174746 0,1.259413 -0.719665,1.756828 -0.719664,0.497415 -1.714494,0.497415 h -2.635242 q -0.275166,0 -0.465665,-0.179916 -0.179916,-0.1905 -0.179916,-0.465665 v -6.117147 q 0,-0.275166 0.179916,-0.455082 0.190499,-0.1905 0.465665,-0.1905 h 2.666992 q 2.010827,0 2.010827,1.883828 0,0.476248 -0.232833,0.846664 -0.222249,0.359832 -0.645581,0.571498 z m -0.497415,-1.18533 q 0,-0.433915 -0.22225,-0.645581 -0.211666,-0.222249 -0.603248,-0.222249 h -1.746244 v 1.650994 h 1.777994 q 0.317499,0 0.550332,-0.211666 0.243416,-0.211666 0.243416,-0.571498 z m -0.666748,4.074571 q 0.497415,0 0.772581,-0.264583 0.285749,-0.264582 0.285749,-0.772581 0,-0.624415 -0.328083,-0.814914 -0.328082,-0.190499 -0.80433,-0.190499 h -1.830911 v 2.042577 z"
         style="font-style:normal;font-variant:normal;font-weight:bold;font-stretch:normal;font-size:10.5833px;line-height:1.25;font-family:Quicksand;-inkscape-font-specification:'Quicksand Bold';text-align:center;text-anchor:middle;fill:#a80030;fill-opacity:1;stroke:none;stroke-width:0.264583"
         id="path2702"
         inkscape:connector-curvature="0" />
      <path
         d="m 59.31432,57.837989 q 0.328082,0.169333 0.328082,0.539749 0,0.222249 -0.15875,0.433915 -0.169332,0.222249 -0.433915,0.222249 -0.179916,0 -0.359832,-0.09525 -0.518582,-0.243416 -1.12183,-0.243416 -0.740831,0 -1.291162,0.317499 -0.550332,0.306915 -0.846664,0.878414 -0.296333,0.560914 -0.296333,1.291162 0,1.248829 0.666748,1.894411 0.677331,0.645581 1.767411,0.645581 0.645581,0 1.12183,-0.243416 0.190499,-0.08467 0.338665,-0.08467 0.275166,0 0.465666,0.232832 0.158749,0.201083 0.158749,0.433916 0,0.169332 -0.08467,0.306915 -0.08467,0.137583 -0.243416,0.211666 -0.825498,0.412749 -1.756828,0.412749 -1.037163,0 -1.904994,-0.433915 -0.86783,-0.444499 -1.386412,-1.301746 -0.518582,-0.857247 -0.518582,-2.074327 0,-1.079496 0.486832,-1.936744 0.497415,-0.857247 1.365246,-1.333495 0.86783,-0.486832 1.95791,-0.486832 0.941914,0 1.746245,0.412748 z"
         style="font-style:normal;font-variant:normal;font-weight:bold;font-stretch:normal;font-size:10.5833px;line-height:1.25;font-family:Quicksand;-inkscape-font-specification:'Quicksand Bold';text-align:center;text-anchor:middle;fill:#a80030;fill-opacity:1;stroke:none;stroke-width:0.264583"
         id="path2704"
         inkscape:connector-curvature="0" />
      <path
         d="m 67.579865,61.182312 q 0,1.047747 -0.465665,1.926161 -0.465665,0.86783 -1.291163,1.375829 -0.814914,0.507998 -1.841494,0.507998 -1.02658,0 -1.852077,-0.507998 -0.814914,-0.507999 -1.28058,-1.375829 -0.455081,-0.878414 -0.455081,-1.926161 0,-1.047747 0.455081,-1.915577 0.465666,-0.878414 1.28058,-1.386412 0.825497,-0.507999 1.852077,-0.507999 1.02658,0 1.841494,0.507999 0.825498,0.507998 1.291163,1.386412 0.465665,0.86783 0.465665,1.915577 z m -1.375829,0 q 0,-0.709081 -0.285749,-1.280579 -0.285749,-0.582082 -0.793747,-0.920747 -0.507999,-0.338666 -1.142997,-0.338666 -0.645581,0 -1.153579,0.338666 -0.497416,0.328082 -0.783165,0.910164 -0.275165,0.582081 -0.275165,1.291162 0,0.709081 0.275165,1.291163 0.285749,0.582081 0.783165,0.920747 0.507998,0.328082 1.153579,0.328082 0.634998,0 1.142997,-0.338666 0.507998,-0.338665 0.793747,-0.910163 0.285749,-0.582082 0.285749,-1.291163 z"
         style="font-style:normal;font-variant:normal;font-weight:bold;font-stretch:normal;font-size:10.5833px;line-height:1.25;font-family:Quicksand;-inkscape-font-specification:'Quicksand Bold';text-align:center;text-anchor:middle;fill:#a80030;fill-opacity:1;stroke:none;stroke-width:0.264583"
         id="path2706"
         inkscape:connector-curvature="0" />
      <path
         d="m 74.416667,57.478157 q 0.253999,0 0.412749,0.169333 0.158749,0.169333 0.158749,0.423332 v 6.170064 q 0,0.275165 -0.190499,0.465665 -0.179916,0.179916 -0.455082,0.179916 -0.148166,0 -0.296332,-0.04233 -0.137583,-0.05292 -0.201083,-0.137583 l -3.884071,-4.931818 v 4.519069 q 0,0.253999 -0.169333,0.423332 -0.158749,0.169333 -0.423332,0.169333 -0.253999,0 -0.412749,-0.169333 -0.158749,-0.169333 -0.158749,-0.423332 v -6.170063 q 0,-0.275166 0.179916,-0.455082 0.190499,-0.1905 0.465665,-0.1905 0.15875,0 0.306916,0.0635 0.158749,0.0635 0.232833,0.169333 l 3.852321,4.910651 v -4.550819 q 0,-0.253999 0.158749,-0.423332 0.169333,-0.169333 0.423332,-0.169333 z"
         style="font-style:normal;font-variant:normal;font-weight:bold;font-stretch:normal;font-size:10.5833px;line-height:1.25;font-family:Quicksand;-inkscape-font-specification:'Quicksand Bold';text-align:center;text-anchor:middle;fill:#a80030;fill-opacity:1;stroke:none;stroke-width:0.264583"
         id="path2708"
         inkscape:connector-curvature="0" />
      <path
         d="m 77.898557,58.695237 v 1.86266 h 2.285993 q 0.275165,0 0.455081,0.179917 0.1905,0.169332 0.1905,0.444498 0,0.232833 -0.1905,0.412749 -0.179916,0.179916 -0.455081,0.179916 h -2.285993 v 2.465909 q 0,0.275165 -0.201083,0.465665 -0.190499,0.179916 -0.455082,0.179916 -0.296332,0 -0.486832,-0.179916 -0.179916,-0.179916 -0.179916,-0.465665 v -6.117147 q 0,-0.275166 0.179916,-0.455082 0.1905,-0.1905 0.465666,-0.1905 h 3.439572 q 0.275166,0 0.455082,0.179916 0.190499,0.169333 0.190499,0.444499 0,0.232833 -0.190499,0.412749 -0.179916,0.179916 -0.455082,0.179916 z"
         style="font-style:normal;font-variant:normal;font-weight:bold;font-stretch:normal;font-size:10.5833px;line-height:1.25;font-family:Quicksand;-inkscape-font-specification:'Quicksand Bold';text-align:center;text-anchor:middle;fill:#a80030;fill-opacity:1;stroke:none;stroke-width:0.264583"
         id="path2710"
         inkscape:connector-curvature="0" />
    </g>
    <g
       id="g879"
       transform="matrix(2.5898642,0,0,2.5898642,12.542628,-22.679284)"
       style="fill:#a80030">
      <path
         d="m 49.097761,74.411437 q 0,1.047746 -0.465666,1.92616 -0.465665,0.867831 -1.291162,1.375829 -0.814914,0.507999 -1.841494,0.507999 -1.02658,0 -1.852078,-0.507999 -0.814914,-0.507998 -1.280579,-1.375829 -0.455082,-0.878414 -0.455082,-1.92616 0,-1.047747 0.455082,-1.915578 0.465665,-0.878413 1.280579,-1.386412 0.825498,-0.507998 1.852078,-0.507998 1.02658,0 1.841494,0.507998 0.825497,0.507999 1.291162,1.386412 0.465666,0.867831 0.465666,1.915578 z m -1.375829,0 q 0,-0.709081 -0.285749,-1.28058 -0.28575,-0.582081 -0.793748,-0.920747 -0.507998,-0.338665 -1.142996,-0.338665 -0.645582,0 -1.15358,0.338665 -0.497415,0.328083 -0.783164,0.910164 -0.275166,0.582082 -0.275166,1.291163 0,0.709081 0.275166,1.291162 0.285749,0.582082 0.783164,0.920747 0.507998,0.328083 1.15358,0.328083 0.634998,0 1.142996,-0.338666 0.507998,-0.338666 0.793748,-0.910164 0.285749,-0.582081 0.285749,-1.291162 z"
         style="font-style:normal;font-variant:normal;font-weight:bold;font-stretch:normal;font-size:10.5833px;line-height:1.25;font-family:Quicksand;-inkscape-font-specification:'Quicksand Bold';text-align:center;text-anchor:middle;fill:#a80030;fill-opacity:1;stroke:none;stroke-width:0.264583"
         id="path2716"
         inkscape:connector-curvature="0" />
      <path
         d="m 55.934561,70.707282 q 0.253999,0 0.412748,0.169333 0.15875,0.169332 0.15875,0.423332 v 6.170063 q 0,0.275166 -0.1905,0.465665 -0.179916,0.179917 -0.455081,0.179917 -0.148167,0 -0.296333,-0.04233 -0.137583,-0.05292 -0.201083,-0.137583 l -3.884071,-4.931817 v 4.519069 q 0,0.253999 -0.169332,0.423332 -0.15875,0.169333 -0.423332,0.169333 -0.253999,0 -0.412749,-0.169333 -0.158749,-0.169333 -0.158749,-0.423332 v -6.170064 q 0,-0.275166 0.179916,-0.455082 0.190499,-0.190499 0.465665,-0.190499 0.158749,0 0.306915,0.0635 0.15875,0.0635 0.232833,0.169332 l 3.852321,4.910651 v -4.550818 q 0,-0.254 0.15875,-0.423332 0.169332,-0.169333 0.423332,-0.169333 z"
         style="font-style:normal;font-variant:normal;font-weight:bold;font-stretch:normal;font-size:10.5833px;line-height:1.25;font-family:Quicksand;-inkscape-font-specification:'Quicksand Bold';text-align:center;text-anchor:middle;fill:#a80030;fill-opacity:1;stroke:none;stroke-width:0.264583"
         id="path2718"
         inkscape:connector-curvature="0" />
      <path
         d="m 62.178694,76.877345 q 0.275165,0 0.455081,0.179917 0.1905,0.169332 0.1905,0.444498 0,0.264583 -0.1905,0.444499 -0.179916,0.169333 -0.455081,0.169333 h -3.439573 q -0.275166,0 -0.465665,-0.179917 Q 58.09354,77.745176 58.09354,77.47001 v -6.117147 q 0,-0.275166 0.190499,-0.455082 0.1905,-0.190499 0.486832,-0.190499 0.264583,0 0.455082,0.190499 0.190499,0.179916 0.190499,0.455082 v 5.524482 z"
         style="font-style:normal;font-variant:normal;font-weight:bold;font-stretch:normal;font-size:10.5833px;line-height:1.25;font-family:Quicksand;-inkscape-font-specification:'Quicksand Bold';text-align:center;text-anchor:middle;fill:#a80030;fill-opacity:1;stroke:none;stroke-width:0.264583"
         id="path2720"
         inkscape:connector-curvature="0" />
      <path
         d="m 65.36425,77.47001 q 0,0.275166 -0.201083,0.465665 -0.201082,0.179917 -0.465665,0.179917 -0.285749,0 -0.476248,-0.179917 -0.179916,-0.190499 -0.179916,-0.465665 v -6.117147 q 0,-0.275166 0.190499,-0.455082 0.190499,-0.190499 0.486832,-0.190499 0.264582,0 0.455082,0.190499 0.190499,0.179916 0.190499,0.455082 z"
         style="font-style:normal;font-variant:normal;font-weight:bold;font-stretch:normal;font-size:10.5833px;line-height:1.25;font-family:Quicksand;-inkscape-font-specification:'Quicksand Bold';text-align:center;text-anchor:middle;fill:#a80030;fill-opacity:1;stroke:none;stroke-width:0.264583"
         id="path2722"
         inkscape:connector-curvature="0" />
      <path
         d="m 72.571472,70.707282 q 0.253999,0 0.412749,0.169333 0.158749,0.169332 0.158749,0.423332 v 6.170063 q 0,0.275166 -0.190499,0.465665 -0.179916,0.179917 -0.455082,0.179917 -0.148166,0 -0.296332,-0.04233 -0.137583,-0.05292 -0.201083,-0.137583 l -3.884071,-4.931817 v 4.519069 q 0,0.253999 -0.169333,0.423332 -0.158749,0.169333 -0.423332,0.169333 -0.253999,0 -0.412749,-0.169333 Q 66.95174,77.77693 66.95174,77.522931 v -6.170064 q 0,-0.275166 0.179916,-0.455082 0.190499,-0.190499 0.465665,-0.190499 0.15875,0 0.306916,0.0635 0.158749,0.0635 0.232832,0.169332 l 3.852322,4.910651 v -4.550818 q 0,-0.254 0.158749,-0.423332 0.169333,-0.169333 0.423332,-0.169333 z"
         style="font-style:normal;font-variant:normal;font-weight:bold;font-stretch:normal;font-size:10.5833px;line-height:1.25;font-family:Quicksand;-inkscape-font-specification:'Quicksand Bold';text-align:center;text-anchor:middle;fill:#a80030;fill-opacity:1;stroke:none;stroke-width:0.264583"
         id="path2724"
         inkscape:connector-curvature="0" />
      <path
         d="m 78.92144,76.898512 q 0.275166,0 0.455082,0.190499 0.190499,0.179917 0.190499,0.423332 0,0.264583 -0.190499,0.433916 -0.179916,0.169333 -0.455082,0.169333 h -3.545406 q -0.275165,0 -0.465665,-0.179917 -0.179916,-0.190499 -0.179916,-0.465665 v -6.117147 q 0,-0.275166 0.179916,-0.455082 0.1905,-0.190499 0.465665,-0.190499 h 3.545406 q 0.275166,0 0.455082,0.179916 0.190499,0.169333 0.190499,0.444498 0,0.264583 -0.179916,0.433916 -0.179916,0.158749 -0.465665,0.158749 h -2.868074 v 1.799161 h 2.391825 q 0.275166,0 0.455082,0.179916 0.1905,0.169333 0.1905,0.444499 0,0.264582 -0.179916,0.433915 -0.179917,0.15875 -0.465666,0.15875 h -2.391825 v 1.95791 z"
         style="font-style:normal;font-variant:normal;font-weight:bold;font-stretch:normal;font-size:10.5833px;line-height:1.25;font-family:Quicksand;-inkscape-font-specification:'Quicksand Bold';text-align:center;text-anchor:middle;fill:#a80030;fill-opacity:1;stroke:none;stroke-width:0.264583"
         id="path2726"
         inkscape:connector-curvature="0" />
    </g>
    <path
       id="path1067"
       style="color:#000000;font-style:normal;font-variant:normal;font-weight:normal;font-stretch:normal;font-size:medium;line-height:normal;font-family:sans-serif;font-variant-ligatures:normal;font-variant-position:normal;font-variant-caps:normal;font-variant-numeric:normal;font-variant-alternates:normal;font-feature-settings:normal;text-indent:0;text-align:start;text-decoration:none;text-decoration-line:none;text-decoration-style:solid;text-decoration-color:#000000;letter-spacing:normal;word-spacing:normal;text-transform:none;writing-mode:lr-tb;direction:ltr;text-orientation:mixed;dominant-baseline:auto;baseline-shift:baseline;text-anchor:start;white-space:normal;shape-padding:0;clip-rule:nonzero;display:inline;overflow:visible;visibility:visible;opacity:1;isolation:auto;mix-blend-mode:normal;color-interpolation:sRGB;color-interpolation-filters:linearRGB;solid-color:#000000;solid-opacity:1;vector-effect:none;fill:#a80030;fill-opacity:1;fill-rule:nonzero;stroke:none;stroke-width:7.08054;stroke-linecap:round;stroke-linejoin:round;stroke-miterlimit:4;stroke-dasharray:none;stroke-dashoffset:0;stroke-opacity:1;paint-order:markers stroke fill;color-rendering:auto;image-rendering:auto;shape-rendering:auto;text-rendering:auto;enable-background:accumulate"
       d="m 256.72185,5.9827978 c -1.45036,-0.04848 -2.30987,0.592 -3.24452,1.607307 -0.31263,0.351033 -0.82693,0.90424 -1.53305,1.611944 -1.41226,1.4154112 -3.59372,3.4387342 -6.50301,5.7020232 -5.81859,4.526587 -14.54907,10.006691 -25.9221,13.57774 -1.67844,0.527533 -2.61162,2.315635 -2.08453,3.994209 0.52753,1.678435 2.31564,2.611621 3.9942,2.084527 12.25941,-3.849361 21.63492,-9.732626 27.92331,-14.624706 0.82573,-0.642376 1.1456,-1.036512 1.86464,-1.638217 l -17.71863,86.328165 c -8.66359,-1.49263 -17.45972,-2.66731 -26.34867,-3.50433 -0.0818,-0.007 -0.16379,-0.0111 -0.24589,-0.0124 -1.66381,-0.0268 -3.0681,1.23118 -3.22368,2.88793 -0.16415,1.75218 1.12334,3.30563 2.87555,3.46956 18.79404,1.76974 37.16165,5.05115 54.65925,9.74476 1.6983,0.45585 3.44483,-0.55029 3.90242,-2.2481 0.45673,-1.69873 -0.54957,-3.4462 -2.24805,-3.90382 -7.55609,-2.02687 -15.26877,-3.79217 -23.10079,-5.29417 L 259.44506,9.7876318 c 0.5153,-2.493624 -1.01498,-3.75149 -2.72321,-3.804857 z"
       sodipodi:nodetypes="ccsscccsccccccccccccc"
       inkscape:transform-center-x="-59.441032"
       inkscape:transform-center-y="-357.8469"
       inkscape:connector-curvature="0" />
    <path
       id="path848"
       style="color:#000000;font-style:normal;font-variant:normal;font-weight:normal;font-stretch:normal;font-size:medium;line-height:normal;font-family:sans-serif;text-indent:0;text-align:start;text-decoration:none;text-decoration-line:none;text-decoration-style:solid;text-decoration-color:#000000;letter-spacing:normal;word-spacing:normal;text-transform:none;writing-mode:lr-tb;direction:ltr;baseline-shift:baseline;text-anchor:start;white-space:normal;clip-rule:nonzero;display:inline;overflow:visible;visibility:visible;isolation:auto;mix-blend-mode:normal;color-interpolation:sRGB;color-interpolation-filters:linearRGB;solid-color:#000000;solid-opacity:1;fill:#a80030;fill-opacity:1;fill-rule:evenodd;stroke:none;stroke-width:1.5875;stroke-linecap:round;stroke-linejoin:round;stroke-miterlimit:4;stroke-dasharray:none;stroke-dashoffset:0;stroke-opacity:1;paint-order:markers stroke fill;color-rendering:auto;image-rendering:auto;shape-rendering:auto;text-rendering:auto;enable-background:accumulate"
       sodipodi:type="inkscape:offset"
       inkscape:radius="0"
       inkscape:original="M 59.478516 5.7519531 C 55.568621 5.6626511 52.27033 8.370341 50.167969 10.128906 C 49.710136 10.428343 49.579934 11.006234 49.857422 11.550781 C 50.111458 12.049305 50.826806 12.332201 51.302734 12.121094 C 53.322092 10.592418 56.120622 7.8506041 59.361328 7.9277344 C 62.433888 8.0008624 64.862603 9.3145974 67 11.675781 C 70.472856 15.508862 70.610578 20.231668 70.146484 23.433594 C 69.42927 28.381889 66.704323 30.449474 63.181641 34.056641 C 59.175188 38.159179 54.330044 42.141232 51.525391 43.533203 C 50.884883 43.856 50.289687 44.206191 50.396484 44.974609 C 50.572996 45.927721 51.215718 45.925394 51.861328 45.898438 C 57.985906 45.415078 59.431726 45.310804 64.392578 45.316406 C 67.310623 45.323106 70.213607 45.427457 73.089844 45.626953 C 74.109969 45.717783 74.784179 45.336392 74.839844 44.511719 C 74.895514 43.687046 74.178862 43.301843 73.310547 43.275391 C 69.005532 43.018836 64.949682 42.882318 61.142578 42.966797 C 58.667909 43.115622 57.892178 43.10757 56.492188 43.236328 C 59.07033 41.217099 62.373244 38.698753 65.029297 35.898438 C 68.71068 32.0171 71.823821 29.362589 72.625 23.984375 C 73.344082 19.157303 72.751045 14.53056 69.046875 10.169922 C 66.550662 7.3643801 63.38841 5.8412546 59.478516 5.7519531 z "
       d="m 59.478516,5.7519531 c -3.909895,-0.089302 -7.208186,2.6183879 -9.310547,4.3769529 -0.457833,0.299437 -0.588035,0.877328 -0.310547,1.421875 0.254036,0.498524 0.969384,0.78142 1.445312,0.570313 2.019358,-1.528676 4.817888,-4.2704899 8.058594,-4.1933596 3.07256,0.073128 5.501275,1.386863 7.638672,3.7480466 3.472856,3.833081 3.610578,8.555887 3.146484,11.757813 -0.717214,4.948295 -3.442161,7.01588 -6.964843,10.623047 -4.006453,4.102538 -8.851597,8.084591 -11.65625,9.476562 -0.640508,0.322797 -1.235704,0.672988 -1.128907,1.441406 0.176512,0.953112 0.819234,0.950785 1.464844,0.923829 6.124578,-0.48336 7.570398,-0.587634 12.53125,-0.582032 2.918045,0.0067 5.821029,0.111051 8.697266,0.310547 1.020125,0.09083 1.694335,-0.290561 1.75,-1.115234 0.05567,-0.824673 -0.660982,-1.209876 -1.529297,-1.236328 -4.305015,-0.256555 -8.360865,-0.393073 -12.167969,-0.308594 -2.474669,0.148825 -3.2504,0.140773 -4.65039,0.269531 2.578142,-2.019229 5.881056,-4.537575 8.537109,-7.33789 C 68.71068,32.0171 71.823821,29.362589 72.625,23.984375 73.344082,19.157303 72.751045,14.53056 69.046875,10.169922 66.550662,7.3643801 63.38841,5.8412546 59.478516,5.7519531 Z"
       transform="matrix(2.5898642,0,0,2.5898642,5.3912311,-11.715526)" />
    <path
       style="color:#000000;font-style:normal;font-variant:normal;font-weight:normal;font-stretch:normal;font-size:medium;line-height:normal;font-family:sans-serif;text-indent:0;text-align:start;text-decoration:none;text-decoration-line:none;text-decoration-style:solid;text-decoration-color:#000000;letter-spacing:normal;word-spacing:normal;text-transform:none;writing-mode:lr-tb;direction:ltr;baseline-shift:baseline;text-anchor:start;white-space:normal;clip-rule:nonzero;display:inline;overflow:visible;visibility:visible;isolation:auto;mix-blend-mode:normal;color-interpolation:sRGB;color-interpolation-filters:linearRGB;solid-color:#000000;solid-opacity:1;fill:#a80030;fill-opacity:1;fill-rule:evenodd;stroke:none;stroke-width:4.11141;stroke-linecap:round;stroke-linejoin:round;stroke-miterlimit:4;stroke-dasharray:none;stroke-dashoffset:0;stroke-opacity:1;paint-order:markers stroke fill;color-rendering:auto;image-rendering:auto;shape-rendering:auto;text-rendering:auto;enable-background:accumulate"
       d="M 128.43745,101.972 C 116.10657,100.22078 102.1398,97.764544 89.904707,90.381334 78.732698,83.639624 66.672536,74.458368 63.014676,61.933006 59.703918,50.596208 61.139915,37.277874 69.670523,27.132767 74.979115,20.819583 82.372124,16.197553 90.363792,14.485551 c 7.977087,-1.70887 16.646778,-0.455117 23.631408,3.614736 7.3163,4.263059 12.83389,11.80572 14.30356,20.05181 0.73721,4.136849 0.49981,8.457563 -0.71202,12.454967 -1.21112,3.995306 -3.41465,7.711828 -6.36239,10.632962 -2.29351,2.272873 -5.05245,4.072481 -8.01794,5.153045 -2.95824,1.080765 -6.17609,1.436484 -9.21763,0.963567 -4.361491,-0.678239 -8.51015,-3.216609 -10.974238,-6.801186 -2.453514,-3.569265 -3.300737,-8.351398 -2.118521,-12.452715 0.905783,-3.142238 3.014239,-6.00888 5.732092,-7.827415 2.717833,-1.818621 6.158537,-2.67265 9.408607,-2.311633 4.30033,0.71069 5.04256,-5.899435 0.69169,-6.160037 -4.74617,-0.527567 -9.59616,0.658911 -13.565128,3.314592 -3.968975,2.655714 -6.905618,6.67997 -8.228354,11.268645 -1.735898,6.02185 -0.545818,12.590653 2.968683,17.703326 3.503919,5.097283 9.090906,8.470636 15.139549,9.411181 4.16312,0.64743 8.40397,0.142513 12.29527,-1.275943 3.88477,-1.416506 7.36153,-3.721097 10.24698,-6.580542 3.70809,-3.674639 6.44229,-8.266046 7.94957,-13.238226 1.50665,-4.969923 1.78293,-10.260392 0.87608,-15.348647 C 132.59247,26.854107 126.01631,17.906262 117.1401,12.734249 110.29426,8.7453438 102.28242,7.0559328 94.443903,7.6495418 c -1.808891,0.136971 -3.607982,0.395632 -5.382246,0.775704 -9.448161,2.0239822 -17.9719,7.3893562 -24.141935,14.7269772 -9.91499,11.791504 -11.57879,26.846785 -8.010742,39.952229 3.931929,14.441995 17.105617,25.806722 29.928127,33.527752 13.479853,8.116846 32.086393,10.882266 41.787983,11.016166 1.88268,0.0548 3.23407,-0.61339 3.32829,-2.46147 0.0942,-1.84809 -1.57785,-3.12665 -3.51593,-3.2149 z"
       id="path1498-1-2"
       sodipodi:nodetypes="csscscccccccccccccsccccscsccssczc"
       inkscape:connector-curvature="0" />
  </g>
</svg>
