<?xml version="1.0" encoding="UTF-8" standalone="no"?>
<!-- Generator: Adobe Illustrator 17.0.0, SVG Export Plug-In . SVG Version: 6.00 Build 0)  -->

<svg
   xmlns:i="&amp;ns_ai;"
   xmlns:dc="http://purl.org/dc/elements/1.1/"
   xmlns:cc="http://creativecommons.org/ns#"
   xmlns:rdf="http://www.w3.org/1999/02/22-rdf-syntax-ns#"
   xmlns:svg="http://www.w3.org/2000/svg"
   xmlns="http://www.w3.org/2000/svg"
   xmlns:sodipodi="http://sodipodi.sourceforge.net/DTD/sodipodi-0.dtd"
   xmlns:inkscape="http://www.inkscape.org/namespaces/inkscape"
   version="1.1"
   id="Layer_1"
   x="0px"
   y="0px"
   width="1280"
   height="720"
   viewBox="0 0 1280 719.99996"
   enable-background="new 0 0 196.102 139.098"
   xml:space="preserve"
   sodipodi:docname="debconf16.svg"
   inkscape:version="0.92.4 (5da689c313, 2019-01-14)"
   inkscape:export-filename="debconf16.png"
   inkscape:export-xdpi="96"
   inkscape:export-ydpi="96"><metadata
   id="metadata63"><rdf:RDF><cc:Work
       rdf:about=""><dc:format>image/svg+xml</dc:format><dc:type
         rdf:resource="http://purl.org/dc/dcmitype/StillImage" /><dc:title></dc:title></cc:Work></rdf:RDF></metadata><defs
   id="defs61" /><sodipodi:namedview
   pagecolor="#ffffff"
   bordercolor="#666666"
   borderopacity="1"
   objecttolerance="10"
   gridtolerance="10"
   guidetolerance="10"
   inkscape:pageopacity="1"
   inkscape:pageshadow="2"
   inkscape:window-width="2558"
   inkscape:window-height="1413"
   id="namedview59"
   showgrid="false"
   inkscape:zoom="1.4023438"
   inkscape:cx="640"
   inkscape:cy="360"
   inkscape:window-x="0"
   inkscape:window-y="25"
   inkscape:window-maximized="0"
   inkscape:current-layer="Layer_1" />
<switch
   id="switch56"
   transform="matrix(5.6710209,0,0,5.6710209,83.959236,-34.41468)">
	<foreignObject
   requiredExtensions="http://ns.adobe.com/AdobeIllustrator/10.0/"
   x="0"
   y="0"
   width="1"
   height="1">
		
	</foreignObject>
	<g
   i:extraneous="self"
   id="g54">
		<g
   id="g52">
			<g
   id="g8"
   style="opacity:0.4">
				<g
   id="g4">
					<path
   d="m 70.624,28.978 c 1.872,-0.506 2.976,-2.414 2.45,-4.256 -0.52,-1.839 -2.45,-2.918 -4.328,-2.411 -1.858,0.509 -2.973,2.417 -2.456,4.25 0.529,1.844 2.464,2.917 4.334,2.417 z m -3.584,4.438 c -0.501,-1.8 -2.387,-2.84 -4.22,-2.345 -1.822,0.49 -2.887,2.342 -2.384,4.134 0.495,1.797 2.389,2.84 4.212,2.348 1.828,-0.492 2.89,-2.348 2.392,-4.137 z m -4.328,9.452 c -0.498,-1.739 -2.334,-2.763 -4.107,-2.281 -1.776,0.475 -2.818,2.278 -2.323,4.021 0.486,1.756 2.325,2.779 4.098,2.295 1.776,-0.481 2.819,-2.295 2.332,-4.035 z m -1.571,10.426 c -0.473,-1.695 -2.265,-2.696 -3.991,-2.226 -1.726,0.476 -2.732,2.232 -2.262,3.927 0.475,1.692 2.259,2.69 3.996,2.22 1.721,-0.47 2.739,-2.226 2.257,-3.921 z m 1.151,11.152 c -0.464,-1.645 -2.204,-2.616 -3.885,-2.162 -1.679,0.453 -2.671,2.162 -2.204,3.822 0.465,1.643 2.204,2.613 3.885,2.154 1.681,-0.445 2.666,-2.157 2.204,-3.814 z m 2.995,10.653 c -0.462,-1.601 -2.149,-2.539 -3.769,-2.102 -1.64,0.448 -2.597,2.104 -2.143,3.706 0.454,1.607 2.135,2.555 3.769,2.107 1.642,-0.445 2.588,-2.104 2.143,-3.711 z m 4.704,8.73 c -0.445,-1.56 -2.082,-2.47 -3.67,-2.041 -1.579,0.42 -2.514,2.035 -2.074,3.592 0.434,1.557 2.074,2.467 3.661,2.044 1.582,-0.434 2.503,-2.043 2.083,-3.595 z m 6.526,7.24 c -0.426,-1.504 -2.016,-2.398 -3.559,-1.98 -1.532,0.415 -2.436,1.98 -2.01,3.487 0.431,1.51 2.01,2.387 3.553,1.977 1.529,-0.414 2.436,-1.985 2.016,-3.484 z m 7.027,6.366 c -0.409,-1.458 -1.941,-2.312 -3.435,-1.914 -1.499,0.404 -2.367,1.919 -1.955,3.379 0.406,1.463 1.955,2.334 3.449,1.922 1.482,-0.4 2.353,-1.924 1.941,-3.387 z m 7.358,4.823 c -0.412,-1.41 -1.9,-2.237 -3.343,-1.856 -1.438,0.393 -2.287,1.864 -1.878,3.272 0.384,1.413 1.883,2.243 3.321,1.853 1.444,-0.39 2.285,-1.85 1.9,-3.269 z m 7.813,2.97 c -0.384,-1.366 -1.825,-2.171 -3.208,-1.786 -1.402,0.37 -2.221,1.797 -1.836,3.158 0.387,1.366 1.831,2.174 3.219,1.795 1.396,-0.374 2.206,-1.795 1.825,-3.167 z m 5.813,2.044 c -0.374,-1.316 -1.756,-2.096 -3.106,-1.729 -1.35,0.374 -2.132,1.729 -1.764,3.05 0.374,1.319 1.764,2.091 3.1,1.739 1.349,-0.367 2.14,-1.738 1.77,-3.06 z m 5.956,0.78 c -0.354,-1.272 -1.701,-2.016 -2.995,-1.668 -1.297,0.362 -2.055,1.676 -1.695,2.942 0.36,1.275 1.695,2.019 3.001,1.676 1.288,-0.354 2.046,-1.676 1.689,-2.95 z m 6.532,0.138 c -0.359,-1.222 -1.637,-1.947 -2.884,-1.61 -1.25,0.34 -1.983,1.612 -1.64,2.832 0.348,1.231 1.637,1.952 2.879,1.612 1.258,-0.34 1.985,-1.601 1.645,-2.834 z m 6.632,-0.382 c -0.332,-1.178 -1.579,-1.864 -2.779,-1.546 -1.2,0.326 -1.906,1.546 -1.571,2.73 0.332,1.181 1.576,1.875 2.771,1.538 1.197,-0.33 1.908,-1.538 1.579,-2.722 z m 6.363,-1.291 c -0.315,-1.134 -1.502,-1.8 -2.655,-1.491 -1.153,0.318 -1.825,1.491 -1.513,2.63 0.313,1.128 1.513,1.787 2.666,1.477 1.156,-0.31 1.831,-1.485 1.502,-2.616 z m -51.05,-83.95 c 1.925,-0.523 3.042,-2.478 2.517,-4.361 -0.531,-1.883 -2.517,-2.989 -4.436,-2.472 -1.933,0.52 -3.053,2.472 -2.525,4.361 0.529,1.892 2.525,2.995 4.444,2.472 z m 4.387,-7.099 c 0.52,1.842 2.453,2.926 4.331,2.406 1.872,-0.503 2.973,-2.409 2.458,-4.248 -0.517,-1.836 -2.458,-2.909 -4.325,-2.412 -1.886,0.505 -2.979,2.416 -2.464,4.254 z m 10.071,-2.87 c 0.501,1.789 2.395,2.848 4.217,2.348 1.817,-0.498 2.895,-2.348 2.392,-4.145 -0.503,-1.797 -2.389,-2.84 -4.22,-2.348 -1.83,0.489 -2.889,2.35 -2.389,4.145 z m 10.406,0.083 c 0.492,1.75 2.334,2.771 4.104,2.292 1.778,-0.486 2.824,-2.292 2.331,-4.035 -0.49,-1.745 -2.331,-2.768 -4.101,-2.284 -1.775,0.485 -2.826,2.288 -2.334,4.027 z m 16.161,1.477 c -0.475,-1.701 -2.256,-2.691 -3.999,-2.218 -1.723,0.47 -2.743,2.218 -2.259,3.921 0.478,1.701 2.262,2.696 4.002,2.229 1.714,-0.47 2.74,-2.237 2.256,-3.932 z m 8.725,6.313 c -0.467,-1.642 -2.21,-2.613 -3.885,-2.162 -1.687,0.459 -2.666,2.16 -2.198,3.819 0.462,1.654 2.198,2.619 3.888,2.16 1.672,-0.46 2.657,-2.16 2.195,-3.817 z m 0.711,9.347 c 0.451,1.604 2.146,2.539 3.78,2.096 1.634,-0.434 2.586,-2.099 2.138,-3.703 -0.456,-1.606 -2.14,-2.544 -3.783,-2.104 -1.624,0.445 -2.583,2.102 -2.135,3.711 z m 10.055,7.918 c -0.437,-1.557 -2.082,-2.475 -3.659,-2.038 -1.59,0.423 -2.514,2.038 -2.077,3.584 0.431,1.563 2.071,2.475 3.656,2.049 1.579,-0.429 2.511,-2.05 2.08,-3.595 z m 0.91,10.021 c -0.423,-1.51 -2.013,-2.398 -3.559,-1.98 -1.532,0.417 -2.434,1.988 -2.013,3.495 0.428,1.507 2.019,2.392 3.559,1.969 1.531,-0.414 2.441,-1.979 2.013,-3.484 z m -8.462,11.098 c 0.412,1.463 1.949,2.315 3.44,1.911 1.485,-0.404 2.359,-1.916 1.955,-3.376 -0.417,-1.46 -1.958,-2.32 -3.44,-1.911 -1.499,0.401 -2.367,1.921 -1.955,3.376 z m -4.096,4.209 c -1.438,0.395 -2.284,1.864 -1.894,3.28 0.398,1.407 1.892,2.234 3.335,1.847 1.441,-0.393 2.298,-1.856 1.889,-3.274 -0.393,-1.408 -1.889,-2.238 -3.33,-1.853 z m -4.889,7.373 c -0.39,-1.366 -1.831,-2.165 -3.222,-1.789 -1.394,0.382 -2.21,1.789 -1.82,3.169 0.382,1.361 1.814,2.154 3.211,1.781 1.399,-0.382 2.212,-1.793 1.831,-3.161 z m -8.534,2.657 c -0.368,-1.325 -1.753,-2.094 -3.1,-1.731 -1.344,0.365 -2.14,1.737 -1.764,3.05 0.376,1.327 1.764,2.099 3.111,1.734 1.343,-0.368 2.129,-1.737 1.753,-3.053 z m -10.738,2.428 c 1.303,-0.349 2.063,-1.662 1.698,-2.945 -0.351,-1.264 -1.698,-2.013 -2.99,-1.656 -1.297,0.354 -2.055,1.665 -1.704,2.942 0.369,1.272 1.699,2.013 2.996,1.659 z m -9.975,-5.307 c 0.343,1.236 1.632,1.944 2.876,1.612 1.253,-0.343 1.991,-1.612 1.637,-2.843 -0.343,-1.214 -1.637,-1.936 -2.881,-1.601 -1.25,0.335 -1.981,1.607 -1.632,2.832 z M 92.91,63.172 c -0.329,-1.181 -1.571,-1.858 -2.768,-1.543 -1.206,0.327 -1.905,1.543 -1.579,2.721 0.329,1.183 1.579,1.875 2.774,1.546 1.205,-0.321 1.911,-1.546 1.573,-2.724 z m -4.848,-3.363 c 1.156,-0.307 1.831,-1.474 1.513,-2.613 -0.326,-1.131 -1.513,-1.798 -2.66,-1.491 -1.158,0.313 -1.828,1.491 -1.521,2.613 0.326,1.137 1.515,1.804 2.668,1.491 z"
   id="path2"
   inkscape:connector-curvature="0"
   style="fill:#555d9c" />
				</g>
				<path
   d="m 99.439,21.826 c -1.048,-0.573 -2.37,-0.194 -2.951,0.835 -0.573,1.026 -0.202,2.326 0.86,2.898 1.04,0.575 2.37,0.199 2.951,-0.838 0.578,-1.028 0.194,-2.328 -0.86,-2.895 z m -6.462,1.35 c -1.023,-0.558 -2.306,-0.191 -2.873,0.813 -0.57,1.004 -0.196,2.273 0.83,2.829 1.023,0.55 2.312,0.182 2.873,-0.821 0.563,-1.004 0.196,-2.257 -0.83,-2.821 z m -5.235,5.168 c 0.553,-0.984 0.191,-2.218 -0.799,-2.754 -1.007,-0.534 -2.257,-0.185 -2.81,0.799 -0.556,0.973 -0.18,2.204 0.808,2.741 0.995,0.542 2.248,0.19 2.801,-0.786 z m -5.265,3.933 c 0.539,-0.949 0.18,-2.146 -0.791,-2.669 -0.968,-0.525 -2.193,-0.191 -2.724,0.772 -0.528,0.943 -0.185,2.146 0.783,2.666 0.973,0.536 2.189,0.185 2.732,-0.769 z m -5.161,2.815 c -0.951,-0.52 -2.129,-0.174 -2.649,0.744 -0.528,0.932 -0.188,2.094 0.761,2.605 0.946,0.509 2.124,0.174 2.644,-0.76 0.527,-0.922 0.179,-2.089 -0.756,-2.589 z m -2.613,8.57 c 0.517,-0.896 0.188,-2.016 -0.733,-2.525 -0.918,-0.495 -2.063,-0.174 -2.566,0.725 -0.512,0.904 -0.174,2.032 0.741,2.533 0.91,0.492 2.071,0.163 2.558,-0.733 z m -2.47,3.388 c -0.888,-0.484 -2.005,-0.161 -2.495,0.716 -0.489,0.874 -0.166,1.975 0.725,2.445 0.882,0.484 2.002,0.166 2.494,-0.705 0.493,-0.872 0.172,-1.973 -0.724,-2.456 z m -2.002,9.114 c 0.874,0.462 1.955,0.15 2.431,-0.697 0.468,-0.843 0.166,-1.911 -0.705,-2.375 -0.857,-0.465 -1.944,-0.158 -2.425,0.686 -0.471,0.846 -0.161,1.902 0.699,2.386 z m 0.385,5.763 c 0.835,0.456 1.889,0.16 2.342,-0.661 0.465,-0.821 0.163,-1.853 -0.672,-2.304 -0.838,-0.453 -1.88,-0.155 -2.345,0.661 -0.467,0.822 -0.16,1.842 0.675,2.304 z m 1.205,5.227 c 0.807,0.434 1.817,0.147 2.265,-0.647 0.451,-0.794 0.157,-1.795 -0.653,-2.235 -0.81,-0.434 -1.823,-0.144 -2.273,0.645 -0.447,0.796 -0.146,1.794 0.661,2.237 z m 4.408,3.979 c 0.44,-0.766 0.152,-1.731 -0.628,-2.16 -0.78,-0.421 -1.762,-0.141 -2.196,0.622 -0.42,0.772 -0.146,1.737 0.633,2.16 0.784,0.426 1.765,0.147 2.191,-0.622 z m 1.668,3.363 c 0.42,-0.727 0.152,-1.673 -0.606,-2.071 -0.752,-0.415 -1.701,-0.146 -2.118,0.6 -0.412,0.744 -0.144,1.67 0.611,2.069 0.755,0.422 1.698,0.149 2.113,-0.598 z m 2.29,2.881 c 0.409,-0.716 0.144,-1.626 -0.586,-2.01 -0.716,-0.393 -1.643,-0.133 -2.046,0.581 -0.401,0.719 -0.125,1.612 0.6,2.005 0.715,0.395 1.639,0.135 2.032,-0.576 z m 2.829,2.824 c 0.384,-0.688 0.127,-1.549 -0.573,-1.922 -0.699,-0.395 -1.573,-0.146 -1.969,0.545 -0.381,0.689 -0.127,1.562 0.573,1.933 0.697,0.382 1.584,0.13 1.969,-0.556 z m 2.547,0.78 c -0.675,-0.359 -1.513,-0.116 -1.892,0.545 -0.37,0.653 -0.127,1.488 0.548,1.853 0.669,0.362 1.524,0.124 1.886,-0.539 0.376,-0.662 0.132,-1.491 -0.542,-1.859 z m 2.115,4.513 c 0.639,0.343 1.452,0.116 1.814,-0.517 0.357,-0.636 0.127,-1.435 -0.528,-1.783 -0.642,-0.357 -1.466,-0.125 -1.814,0.509 -0.36,0.632 -0.122,1.434 0.528,1.791 z m 18.313,-63.059 c -1.084,-0.583 -2.428,-0.205 -3.028,0.855 -0.592,1.062 -0.207,2.395 0.874,2.975 1.079,0.584 2.428,0.199 3.031,-0.86 0.588,-1.048 0.204,-2.39 -0.877,-2.97 z m 5.854,1.725 c -1.051,-0.57 -2.378,-0.199 -2.939,0.832 -0.586,1.032 -0.205,2.331 0.843,2.898 1.043,0.572 2.37,0.199 2.951,-0.835 0.583,-1.031 0.199,-2.333 -0.855,-2.895 z m 6.465,5.846 c 0.556,-1.006 0.188,-2.279 -0.827,-2.818 -1.026,-0.561 -2.32,-0.204 -2.879,0.808 -0.567,1.006 -0.194,2.276 0.829,2.818 1.025,0.567 2.305,0.196 2.877,-0.808 z m 1.652,5.191 c 1.006,0.539 2.259,0.188 2.798,-0.799 0.559,-0.971 0.191,-2.207 -0.796,-2.749 -1.001,-0.539 -2.259,-0.174 -2.81,0.794 -0.55,0.984 -0.185,2.22 0.808,2.754 z m 2.958,5.528 c 0.965,0.52 2.185,0.182 2.727,-0.772 0.534,-0.951 0.18,-2.154 -0.788,-2.682 -0.965,-0.523 -2.187,-0.177 -2.724,0.771 -0.539,0.96 -0.177,2.16 0.785,2.683 z m 1.151,6.454 c 0.943,0.512 2.121,0.182 2.655,-0.744 0.515,-0.929 0.174,-2.094 -0.769,-2.608 -0.934,-0.503 -2.126,-0.166 -2.641,0.755 -0.523,0.922 -0.185,2.091 0.755,2.597 z m -0.398,6.209 c 0.918,0.498 2.066,0.177 2.572,-0.725 0.509,-0.904 0.177,-2.038 -0.738,-2.53 -0.921,-0.495 -2.071,-0.172 -2.577,0.727 -0.502,0.899 -0.17,2.03 0.743,2.528 z m -2.279,5.94 c 0.888,0.481 2.011,0.163 2.492,-0.708 0.498,-0.882 0.174,-1.974 -0.719,-2.456 -0.877,-0.484 -2,-0.166 -2.495,0.708 -0.489,0.874 -0.168,1.966 0.722,2.456 z m -3.927,4.784 c 0.857,0.464 1.941,0.166 2.423,-0.683 0.473,-0.844 0.163,-1.911 -0.705,-2.373 -0.86,-0.476 -1.938,-0.163 -2.422,0.677 -0.477,0.852 -0.159,1.912 0.704,2.379 z m -5.52,2.937 c 0.838,0.445 1.883,0.144 2.351,-0.669 0.451,-0.83 0.152,-1.853 -0.678,-2.298 -0.841,-0.456 -1.881,-0.157 -2.345,0.658 -0.459,0.827 -0.16,1.844 0.672,2.309 z m -5.931,0.691 c 0.796,0.434 1.808,0.15 2.259,-0.652 0.437,-0.774 0.147,-1.784 -0.658,-2.226 -0.808,-0.434 -1.828,-0.146 -2.268,0.642 -0.451,0.793 -0.16,1.799 0.667,2.236 z m -5.988,-1.081 c 0.774,0.434 1.753,0.152 2.182,-0.622 0.44,-0.758 0.158,-1.723 -0.625,-2.149 -0.777,-0.423 -1.767,-0.144 -2.196,0.625 -0.439,0.76 -0.149,1.726 0.639,2.146 z M 95.17,64.203 c 0.752,0.404 1.698,0.133 2.121,-0.595 0.404,-0.746 0.138,-1.681 -0.611,-2.085 -0.758,-0.409 -1.698,-0.138 -2.121,0.603 -0.418,0.73 -0.144,1.668 0.611,2.077 z m -2.238,-6.667 c -0.733,-0.395 -1.648,-0.13 -2.038,0.581 -0.404,0.719 -0.141,1.612 0.581,2.005 0.73,0.398 1.643,0.136 2.044,-0.578 0.401,-0.708 0.141,-1.613 -0.587,-2.008 z m -2.967,-2.049 c 0.711,0.365 1.585,0.119 1.966,-0.564 0.396,-0.692 0.136,-1.552 -0.564,-1.93 -0.705,-0.387 -1.582,-0.133 -1.969,0.556 -0.379,0.682 -0.13,1.553 0.567,1.938 z m 0.293,-4.848 c 0.675,0.368 1.524,0.124 1.9,-0.534 0.365,-0.658 0.133,-1.496 -0.548,-1.861 -0.677,-0.36 -1.521,-0.122 -1.9,0.539 -0.373,0.661 -0.118,1.496 0.548,1.856 z m 3.05,-4.585 c 0.357,-0.641 0.125,-1.435 -0.522,-1.789 -0.65,-0.346 -1.466,-0.125 -1.817,0.517 -0.362,0.631 -0.119,1.427 0.525,1.784 0.645,0.345 1.455,0.116 1.814,-0.512 z m 3.037,-3.078 c 0.351,-0.636 0.122,-1.435 -0.517,-1.789 -0.658,-0.349 -1.474,-0.125 -1.825,0.52 -0.362,0.633 -0.116,1.432 0.522,1.781 0.659,0.348 1.455,0.113 1.82,-0.512 z m 5.008,-0.442 c 0.359,-0.645 0.121,-1.446 -0.526,-1.792 -0.652,-0.354 -1.463,-0.121 -1.82,0.515 -0.354,0.633 -0.116,1.43 0.526,1.778 0.653,0.35 1.452,0.126 1.82,-0.501 z m 5.918,0.893 c 0.351,-0.647 0.119,-1.441 -0.52,-1.787 -0.655,-0.357 -1.471,-0.127 -1.822,0.512 -0.36,0.628 -0.119,1.427 0.522,1.784 0.647,0.348 1.461,0.119 1.82,-0.509 z m 4.029,4.023 c 0.359,-0.644 0.121,-1.441 -0.52,-1.789 -0.65,-0.357 -1.463,-0.119 -1.825,0.514 -0.348,0.631 -0.113,1.427 0.537,1.787 0.641,0.343 1.443,0.116 1.808,-0.512 z m -8.199,9.328 c 0.359,-0.644 0.127,-1.441 -0.517,-1.789 -0.65,-0.354 -1.465,-0.122 -1.825,0.514 -0.351,0.631 -0.119,1.43 0.528,1.784 0.652,0.349 1.454,0.119 1.814,-0.509 z m 5.008,-1.344 c 0.357,-0.641 0.125,-1.441 -0.52,-1.792 -0.65,-0.343 -1.463,-0.119 -1.82,0.523 -0.357,0.628 -0.121,1.427 0.528,1.778 0.648,0.349 1.45,0.122 1.812,-0.509 z M 111.3,52.37 c 0.359,-0.644 0.121,-1.444 -0.52,-1.789 -0.65,-0.354 -1.463,-0.125 -1.825,0.511 -0.348,0.633 -0.113,1.43 0.537,1.787 0.641,0.348 1.443,0.119 1.808,-0.509 z m -11.382,0.384 c 0.357,-0.641 0.122,-1.441 -0.528,-1.789 -0.644,-0.354 -1.466,-0.124 -1.817,0.509 -0.354,0.639 -0.116,1.43 0.526,1.789 0.646,0.346 1.457,0.119 1.819,-0.509 z m 2.732,-4.474 c 0.351,-0.639 0.124,-1.438 -0.526,-1.787 -0.65,-0.351 -1.466,-0.13 -1.82,0.512 -0.354,0.636 -0.113,1.435 0.523,1.786 0.648,0.349 1.458,0.114 1.823,-0.511 z m 4.101,2.743 c 0.351,-0.639 0.119,-1.435 -0.523,-1.781 -0.652,-0.357 -1.465,-0.127 -1.817,0.512 -0.365,0.63 -0.121,1.427 0.52,1.781 0.648,0.351 1.461,0.122 1.82,-0.512 z"
   id="path6"
   inkscape:connector-curvature="0"
   style="fill:#555d9c" />
			</g>
			<g
   id="g14">
				<path
   d="m 88.125,68.491 h -5.617 l 5.151,-29.024 h -3.706 l 0.466,-2.138 c 2.147,0 5.19,-0.279 9.909,-3.628 z"
   id="path10"
   inkscape:connector-curvature="0"
   style="fill:#9e1f63" />
				<path
   d="m 102.051,51.606 c 0,-2.698 2.535,-4.65 5.501,-4.65 3.706,0 5.265,4.047 5.265,7.675 0,7.952 -4.838,14.093 -10.533,14.093 -6.242,0 -7.606,-4.28 -7.606,-9.209 0,-0.558 0,-1.118 0.039,-1.722 0.78,-14.001 5.265,-24.187 13.926,-24.187 2.926,0 4.488,2 4.488,3.814 0,1.582 -1.093,3.025 -3.473,3.164 0.43,-0.466 0.624,-1.07 0.624,-1.676 0,-1.255 -0.818,-2.51 -1.95,-2.51 -1.015,0 -6.594,0.743 -8.231,20.092 -0.119,1.443 -0.197,2.606 -0.197,3.628 0,4.698 1.326,5.535 3.24,5.535 2.497,0 5.188,-5.396 5.188,-10.373 0,-1.907 -0.391,-4.511 -2.067,-4.511 -1.445,0 -2.538,1.349 -3.434,3.535 -0.547,-0.93 -0.78,-1.861 -0.78,-2.698 z"
   id="path12"
   inkscape:connector-curvature="0"
   style="fill:#9e1f63" />
			</g>
			<g
   id="g32">
				<g
   id="g28">
					<path
   d="m 20.283,80.272 c 2.064,0 3.955,0.454 5.67,1.358 1.715,0.906 3.145,2.12 4.288,3.645 V 68.933 h 2.478 v 23.822 c 0,1.716 -0.326,3.328 -0.977,4.837 -0.651,1.508 -1.541,2.828 -2.668,3.955 -1.128,1.129 -2.446,2.018 -3.954,2.668 -1.508,0.65 -3.121,0.977 -4.836,0.977 -1.715,0 -3.327,-0.326 -4.836,-0.977 -1.508,-0.65 -2.827,-1.54 -3.955,-2.668 C 10.365,100.42 9.476,99.101 8.825,97.592 8.174,96.084 7.848,94.471 7.848,92.755 c 0,-1.714 0.325,-3.334 0.977,-4.859 0.65,-1.525 1.54,-2.85 2.668,-3.979 1.128,-1.127 2.446,-2.016 3.955,-2.668 1.508,-0.651 3.12,-0.977 4.835,-0.977 z m 0,2.526 c -1.366,0 -2.652,0.261 -3.859,0.786 -1.207,0.524 -2.263,1.232 -3.168,2.12 -0.905,0.889 -1.621,1.946 -2.144,3.169 -0.524,1.223 -0.787,2.518 -0.787,3.882 0,1.368 0.262,2.654 0.787,3.86 0.523,1.208 1.239,2.263 2.144,3.169 0.905,0.904 1.961,1.62 3.168,2.144 1.207,0.524 2.493,0.786 3.859,0.786 1.366,0 2.652,-0.261 3.859,-0.786 1.207,-0.524 2.264,-1.24 3.169,-2.144 0.905,-0.906 1.62,-1.961 2.144,-3.169 0.523,-1.206 0.786,-2.492 0.786,-3.86 0,-1.364 -0.262,-2.659 -0.786,-3.882 -0.524,-1.223 -1.239,-2.279 -2.144,-3.169 -0.905,-0.888 -1.962,-1.595 -3.169,-2.12 -1.207,-0.525 -2.493,-0.786 -3.859,-0.786 z"
   id="path16"
   inkscape:connector-curvature="0"
   style="fill:#555d9c" />
					<path
   d="m 47.535,105.333 c -1.715,0 -3.336,-0.326 -4.86,-0.977 -1.525,-0.65 -2.851,-1.54 -3.979,-2.668 -1.128,-1.127 -2.017,-2.446 -2.668,-3.955 -0.651,-1.508 -0.977,-3.121 -0.977,-4.835 0,-1.716 0.325,-3.336 0.977,-4.861 0.65,-1.525 1.54,-2.85 2.668,-3.979 1.128,-1.127 2.454,-2.016 3.979,-2.667 1.524,-0.652 3.145,-0.977 4.86,-0.977 1.715,0 3.326,0.324 4.836,0.977 1.508,0.65 2.827,1.54 3.955,2.667 1.127,1.129 2.016,2.454 2.668,3.979 0.652,1.525 0.977,3.145 0.977,4.861 0,0.222 0,0.428 0,0.619 0,0.191 -0.016,0.396 -0.047,0.619 H 59.35 37.624 c 0.158,1.24 0.524,2.383 1.096,3.43 0.572,1.049 1.293,1.97 2.168,2.763 0.873,0.795 1.882,1.414 3.025,1.859 1.143,0.445 2.35,0.667 3.621,0.667 0.921,0 1.794,-0.174 2.62,-0.524 0.826,-0.348 1.556,-0.841 2.191,-1.477 l 1.763,1.762 c -0.827,0.826 -1.803,1.486 -2.931,1.977 -1.126,0.494 -2.34,0.74 -3.642,0.74 z m 9.862,-13.674 c -0.159,-1.238 -0.524,-2.381 -1.096,-3.43 -0.572,-1.049 -1.294,-1.97 -2.168,-2.763 -0.874,-0.793 -1.874,-1.414 -3.001,-1.859 -1.128,-0.445 -2.328,-0.667 -3.597,-0.667 -1.271,0 -2.478,0.222 -3.621,0.667 -1.143,0.445 -2.152,1.065 -3.025,1.859 -0.875,0.793 -1.597,1.714 -2.168,2.763 -0.572,1.049 -0.938,2.192 -1.096,3.43 z"
   id="path18"
   inkscape:connector-curvature="0"
   style="fill:#555d9c" />
					<path
   d="m 75.406,80.368 c 1.715,0 3.335,0.326 4.86,0.977 1.524,0.65 2.85,1.54 3.978,2.668 1.128,1.127 2.017,2.453 2.668,3.977 0.65,1.525 0.977,3.145 0.977,4.861 0,1.714 -0.326,3.328 -0.977,4.835 -0.651,1.51 -1.541,2.828 -2.668,3.955 -1.128,1.129 -2.454,2.018 -3.978,2.668 -1.525,0.65 -3.145,0.977 -4.86,0.977 -1.715,0 -3.328,-0.326 -4.836,-0.977 -1.509,-0.65 -2.828,-1.54 -3.954,-2.668 -1.129,-1.127 -2.018,-2.444 -2.668,-3.955 -0.651,-1.506 -0.977,-3.121 -0.977,-4.835 V 69.029 h 2.478 V 85.37 c 1.143,-1.523 2.58,-2.739 4.311,-3.643 1.731,-0.907 3.614,-1.359 5.646,-1.359 z m 0,2.524 c -1.367,0 -2.653,0.263 -3.859,0.788 -1.208,0.523 -2.264,1.23 -3.169,2.12 -0.905,0.889 -1.62,1.946 -2.144,3.169 -0.523,1.223 -0.786,2.517 -0.786,3.882 0,1.366 0.262,2.652 0.786,3.858 0.524,1.208 1.239,2.265 2.144,3.169 0.905,0.906 1.961,1.62 3.169,2.144 1.206,0.524 2.492,0.786 3.859,0.786 1.365,0 2.659,-0.261 3.883,-0.786 1.222,-0.524 2.278,-1.238 3.168,-2.144 0.889,-0.904 1.596,-1.961 2.12,-3.169 0.524,-1.206 0.787,-2.492 0.787,-3.858 0,-1.366 -0.262,-2.659 -0.787,-3.882 -0.523,-1.223 -1.231,-2.279 -2.12,-3.169 -0.889,-0.889 -1.946,-1.597 -3.168,-2.12 -1.223,-0.525 -2.518,-0.788 -3.883,-0.788 z"
   id="path20"
   inkscape:connector-curvature="0"
   style="fill:#555d9c" />
					<path
   d="m 103.802,105.094 c -1.715,0 -3.327,-0.326 -4.836,-0.977 -1.509,-0.65 -2.828,-1.54 -3.955,-2.667 -1.128,-1.129 -2.017,-2.446 -2.668,-3.955 -0.651,-1.508 -0.977,-3.121 -0.977,-4.837 0,-1.716 0.325,-3.336 0.977,-4.859 0.651,-1.525 1.541,-2.852 2.668,-3.979 1.127,-1.127 2.445,-2.016 3.955,-2.668 1.508,-0.65 3.121,-0.977 4.836,-0.977 1.302,0 2.517,0.246 3.645,0.738 1.127,0.493 2.12,1.167 2.978,2.025 l -1.763,1.762 c -0.636,-0.634 -1.366,-1.127 -2.191,-1.477 -0.826,-0.348 -1.716,-0.523 -2.668,-0.523 -1.366,0 -2.653,0.261 -3.859,0.786 -1.207,0.524 -2.263,1.23 -3.168,2.12 -0.905,0.889 -1.621,1.946 -2.144,3.169 -0.524,1.223 -0.787,2.516 -0.787,3.882 0,1.366 0.262,2.652 0.787,3.86 0.524,1.206 1.239,2.263 2.144,3.167 0.905,0.906 1.961,1.62 3.168,2.144 1.206,0.524 2.493,0.786 3.859,0.786 0.952,0 1.842,-0.174 2.668,-0.523 0.826,-0.35 1.556,-0.841 2.191,-1.477 l 1.763,1.762 c -0.858,0.826 -1.851,1.484 -2.978,1.977 -1.128,0.495 -2.344,0.741 -3.645,0.741 z"
   id="path22"
   inkscape:connector-curvature="0"
   style="fill:#555d9c" />
					<path
   d="m 157.571,80.32 c 1.715,0 3.326,0.326 4.836,0.977 1.508,0.652 2.827,1.542 3.955,2.668 1.127,1.129 2.016,2.453 2.668,3.979 0.651,1.523 0.977,3.145 0.977,4.859 v 11.912 H 167.53 V 92.803 c 0,-1.366 -0.262,-2.659 -0.787,-3.882 -0.523,-1.223 -1.231,-2.279 -2.12,-3.169 -0.889,-0.889 -1.946,-1.595 -3.168,-2.12 -1.224,-0.524 -2.518,-0.786 -3.883,-0.786 -1.367,0 -2.653,0.261 -3.859,0.786 -1.208,0.524 -2.264,1.23 -3.169,2.12 -0.905,0.889 -1.62,1.946 -2.144,3.169 -0.523,1.223 -0.786,2.516 -0.786,3.882 v 11.912 h -2.478 V 92.803 c 0,-1.714 0.325,-3.336 0.977,-4.859 0.65,-1.525 1.54,-2.85 2.668,-3.979 1.127,-1.127 2.445,-2.016 3.955,-2.668 1.507,-0.651 3.12,-0.977 4.835,-0.977 z"
   id="path24"
   inkscape:connector-curvature="0"
   style="fill:#555d9c" />
					<path
   d="m 175.771,74.221 c 0,-0.858 0.167,-1.659 0.5,-2.405 0.334,-0.747 0.777,-1.406 1.333,-1.977 0.556,-0.573 1.216,-1.017 1.977,-1.334 0.763,-0.317 1.572,-0.476 2.43,-0.476 0.857,0 1.668,0.159 2.429,0.476 0.763,0.317 1.421,0.762 1.977,1.334 0.556,0.571 1.001,1.23 1.334,1.977 0.333,0.747 0.5,1.547 0.5,2.405 h -2.525 c 0,-1.015 -0.366,-1.888 -1.096,-2.62 -0.731,-0.73 -1.604,-1.095 -2.62,-1.095 -1.017,0 -1.89,0.365 -2.62,1.095 -0.731,0.732 -1.096,1.605 -1.096,2.62 v 14.817 h 8.957 v 2.526 h -8.957 v 13.15 h -2.525 V 91.564 89.038 74.221 Z"
   id="path26"
   inkscape:connector-curvature="0"
   style="fill:#555d9c" />
				</g>
				<path
   d="m 127.319,79.713 c 1.716,0 3.327,0.326 4.837,0.977 1.508,0.652 2.826,1.542 3.955,2.668 1.127,1.128 2.016,2.453 2.668,3.979 0.65,1.523 0.977,3.145 0.977,4.859 0,1.716 -0.326,3.328 -0.977,4.837 -0.651,1.508 -1.541,2.828 -2.668,3.954 -1.129,1.127 -2.447,2.016 -3.955,2.668 -1.509,0.65 -3.121,0.977 -4.837,0.977 -1.715,0 -3.327,-0.326 -4.836,-0.977 -1.508,-0.652 -2.827,-1.542 -3.955,-2.668 -1.128,-1.127 -2.017,-2.446 -2.668,-3.954 -0.651,-1.508 -0.977,-3.121 -0.977,-4.837 0,-1.714 0.325,-3.336 0.977,-4.859 0.65,-1.525 1.54,-2.85 2.668,-3.979 1.128,-1.127 2.446,-2.016 3.955,-2.668 1.509,-0.651 3.121,-0.977 4.836,-0.977 z m 0,2.526 c -1.397,0 -2.7,0.261 -3.906,0.786 -1.207,0.524 -2.255,1.23 -3.145,2.12 -0.89,0.89 -1.595,1.946 -2.12,3.169 -0.524,1.223 -0.786,2.517 -0.786,3.882 0,1.366 0.261,2.654 0.786,3.86 0.524,1.206 1.23,2.263 2.12,3.167 0.889,0.906 1.937,1.621 3.145,2.144 1.206,0.524 2.509,0.788 3.906,0.788 1.366,0 2.652,-0.263 3.86,-0.788 1.206,-0.523 2.263,-1.238 3.168,-2.144 0.905,-0.904 1.62,-1.961 2.144,-3.167 0.524,-1.206 0.786,-2.494 0.786,-3.86 0,-1.366 -0.261,-2.659 -0.786,-3.882 -0.524,-1.223 -1.239,-2.279 -2.144,-3.169 -0.905,-0.89 -1.962,-1.596 -3.168,-2.12 -1.208,-0.525 -2.494,-0.786 -3.86,-0.786 z"
   id="path30"
   inkscape:connector-curvature="0"
   style="fill:#555d9c" />
			</g>
			<g
   id="g50">
				<path
   d="m 72.66,124.31 c -0.985,2.245 -3.455,2.706 -5.202,2.706 -1.894,0 -4.068,-0.769 -4.068,-3.921 0,-3.351 1.318,-7.702 6.26,-7.702 1.727,0 3.232,0.569 3.232,2.06 0,0.815 -0.353,1.415 -1.3,1.415 -0.297,0 -0.706,-0.061 -1.059,-0.4 0.464,-0.107 0.817,-0.876 0.817,-1.26 0,-0.246 -0.093,-1.091 -1.281,-1.091 -2.285,0 -3.753,3.904 -3.753,6.642 0,2.014 0.447,2.875 2.453,2.875 1.43,0 2.786,-0.492 3.473,-1.476 z"
   id="path34"
   inkscape:connector-curvature="0"
   style="fill:#555d9c" />
				<path
   d="m 80.736,119.237 -1.338,5.228 c -0.037,0.17 -0.074,0.338 -0.074,0.476 0,0.338 0.186,0.585 0.928,0.585 0.743,0 1.709,-0.861 2.453,-1.353 h 0.631 c -0.854,0.707 -2.953,2.752 -4.402,2.752 -1.207,0 -2.025,-0.369 -2.266,-1.168 -0.557,0.63 -1.393,1.261 -2.526,1.261 -1.784,0 -2.303,-1.046 -2.303,-1.953 0,-2.644 1.152,-5.811 4.866,-5.811 0.447,0 0.911,0.154 1.245,0.385 l 0.111,-0.4 h 2.675 z m -6.391,5.411 c 0,0.923 0.613,1.091 1.078,1.091 0.427,0 0.836,-0.338 1.189,-0.768 0.019,-0.154 0.056,-0.323 0.111,-0.508 l 1.041,-4.074 c -0.297,-0.216 -0.65,-0.277 -0.91,-0.277 -1.394,0.001 -2.509,2.445 -2.509,4.536 z"
   id="path36"
   inkscape:connector-curvature="0"
   style="fill:#555d9c" />
				<path
   d="m 85.357,119.237 -0.074,0.292 c 0.39,-0.169 0.836,-0.276 1.3,-0.276 1.932,0 2.842,0.569 2.842,2.152 0,0.322 -0.037,0.676 -0.111,1.076 -0.576,3.306 -2.174,4.428 -4.068,4.428 -0.612,0 -1.189,-0.169 -1.746,-0.461 l -0.965,3.766 -2.806,0.553 2.954,-11.531 h 2.674 z m 1.579,3.429 c 0.167,-0.677 0.241,-1.184 0.241,-1.553 0,-0.923 -0.446,-1.107 -1.04,-1.107 -0.353,0 -0.706,0.123 -1.059,0.322 l -1.337,5.166 c 0.446,0.276 0.91,0.276 1.207,0.276 0.929,0.001 1.375,-0.66 1.988,-3.104 z"
   id="path38"
   inkscape:connector-curvature="0"
   style="fill:#555d9c" />
				<path
   d="m 89.478,124.48 c 0,-1.953 1.003,-5.381 4.384,-5.381 1.523,0 2.378,0.523 2.378,1.599 0,1.875 -2.433,2.952 -4.198,3.136 -0.037,0.246 -0.056,0.476 -0.056,0.661 0,1.015 0.613,1.322 1.337,1.322 0.874,0 1.617,-0.415 2.378,-0.984 0,1.66 -1.616,2.091 -3.473,2.091 -1.785,0 -2.75,-1.122 -2.75,-2.444 z m 4.996,-4.567 c -1.04,0 -1.894,1.737 -2.284,3.183 1.709,-0.015 2.916,-1.23 2.934,-2.321 0,-0.324 -0.093,-0.862 -0.65,-0.862 z"
   id="path40"
   inkscape:connector-curvature="0"
   style="fill:#555d9c" />
				<path
   d="m 108.754,117.023 -2.564,9.901 h -2.675 l 2.638,-10.162 c -2.08,0 -3.715,0.492 -3.715,3.09 0,0.784 0.241,0.907 0.259,1.045 -1.281,0 -1.987,-0.385 -1.987,-1.491 0,-2.045 1.747,-3.998 6.334,-3.998 0.762,0 2.954,0.261 4.774,0.261 0.854,0 1.634,-0.061 2.137,-0.231 -0.26,0.646 -0.279,1.984 -1.765,1.984 -0.985,0 -2.192,-0.215 -3.436,-0.399 z"
   id="path42"
   inkscape:connector-curvature="0"
   style="fill:#555d9c" />
				<path
   d="m 116.533,121.343 c 0.111,0.093 0.278,0.139 0.538,0.139 0.873,0 1.263,-0.523 1.95,-0.753 l 0.074,0.322 c -0.575,0.599 -1.542,1.107 -2.618,1.353 -0.353,3.091 -2.378,4.613 -4.235,4.613 -1.987,0 -2.842,-0.692 -2.842,-2.522 0,-3.782 2.322,-5.412 4.885,-5.412 1.764,0 2.211,1.137 2.248,2.26 z m -1.431,1.214 c -0.538,0 -0.78,-0.322 -0.78,-0.691 0,-0.447 0.316,-0.923 0.817,-1.077 -0.056,-0.508 -0.259,-0.8 -0.78,-0.8 -1.746,0 -2.489,3.136 -2.489,4.367 0,0.922 0.52,1.168 1.244,1.168 1.134,0.001 1.766,-1.475 1.988,-2.967 z"
   id="path44"
   inkscape:connector-curvature="0"
   style="fill:#555d9c" />
				<path
   d="m 129.476,120.313 c 0,2.398 -1.468,6.611 -5.219,6.611 -1.264,0 -2.081,-0.399 -2.266,-1.276 -0.873,0.661 -1.876,1.276 -2.656,1.276 -1.43,0 -2.322,-0.523 -2.322,-1.676 0,-0.231 0.037,-0.492 0.112,-0.784 l 1.337,-5.228 h 2.675 l -1.338,5.228 c -0.037,0.17 -0.074,0.338 -0.074,0.476 0,0.338 0.186,0.585 0.928,0.585 0.39,0 0.855,-0.231 1.301,-0.538 0,-0.154 0.037,-0.338 0.093,-0.523 l 1.337,-5.228 h 2.675 l -1.337,5.228 c -0.056,0.215 -0.093,0.399 -0.093,0.569 0,0.292 0.167,0.492 0.705,0.492 1.821,0 3.065,-3.367 3.065,-5.043 -0.111,0.031 -0.279,0.062 -0.39,0.062 -0.538,0 -0.78,-0.431 -0.78,-0.862 0,-0.322 0.446,-0.753 1.059,-0.753 0.798,0 1.188,0.585 1.188,1.384 z"
   id="path46"
   inkscape:connector-curvature="0"
   style="fill:#555d9c" />
				<path
   d="m 136.381,126.924 c -1.207,0 -1.895,-0.523 -1.895,-1.676 0,-0.246 0.037,-0.492 0.111,-0.784 l 0.706,-2.768 c 0.037,-0.138 0.056,-0.277 0.056,-0.399 0,-0.554 -0.353,-0.907 -0.854,-0.907 -0.446,0 -0.78,0.107 -1.17,0.322 l -1.579,6.212 h -2.675 l 1.969,-7.688 h 2.675 l -0.223,0.83 c 0.762,-0.461 1.617,-0.83 2.434,-0.83 1.021,0 2.136,0.892 2.136,1.937 0,0.123 -0.019,0.231 -0.037,0.354 -0.093,0.507 -0.891,3.213 -0.891,3.551 0,0.261 0.148,0.476 0.687,0.476 0.131,0 0.334,0 0.484,-0.046 -0.523,1.323 -1.303,1.416 -1.934,1.416 z"
   id="path48"
   inkscape:connector-curvature="0"
   style="fill:#555d9c" />
			</g>
		</g>
	</g>
</switch>

</svg>