<?xml version="1.0" encoding="UTF-8" standalone="no"?>
<!-- Generator: Adobe Illustrator 17.0.0, SVG Export Plug-In . SVG Version: 6.00 Build 0)  -->

<svg
   xmlns:dc="http://purl.org/dc/elements/1.1/"
   xmlns:cc="http://creativecommons.org/ns#"
   xmlns:rdf="http://www.w3.org/1999/02/22-rdf-syntax-ns#"
   xmlns:svg="http://www.w3.org/2000/svg"
   xmlns="http://www.w3.org/2000/svg"
   xmlns:sodipodi="http://sodipodi.sourceforge.net/DTD/sodipodi-0.dtd"
   xmlns:inkscape="http://www.inkscape.org/namespaces/inkscape"
   version="1.1"
   id="Layer_1"
   x="0px"
   y="0px"
   width="100"
   height="100"
   viewBox="0 0 99.999997 99.99999"
   enable-background="new 0 0 196.102 139.098"
   xml:space="preserve"
   sodipodi:docname="debconf16.svg"
   inkscape:version="0.92.4 (5da689c313, 2019-01-14)"
   inkscape:export-filename="debconf16.png"
   inkscape:export-xdpi="153.60001"
   inkscape:export-ydpi="153.60001"><metadata
   id="metadata63"><rdf:RDF><cc:Work
       rdf:about=""><dc:format>image/svg+xml</dc:format><dc:type
         rdf:resource="http://purl.org/dc/dcmitype/StillImage" /><dc:title></dc:title></cc:Work></rdf:RDF></metadata><defs
   id="defs61">
	
	

		
	
			
			
			
			
		</defs><sodipodi:namedview
   pagecolor="#ffffff"
   bordercolor="#666666"
   borderopacity="1"
   objecttolerance="10"
   gridtolerance="10"
   guidetolerance="10"
   inkscape:pageopacity="0"
   inkscape:pageshadow="2"
   inkscape:window-width="2558"
   inkscape:window-height="1413"
   id="namedview59"
   showgrid="false"
   fit-margin-top="0"
   fit-margin-left="0"
   fit-margin-right="0"
   fit-margin-bottom="0"
   inkscape:zoom="1.6369032"
   inkscape:cx="-139.38349"
   inkscape:cy="41.559133"
   inkscape:window-x="0"
   inkscape:window-y="25"
   inkscape:window-maximized="0"
   inkscape:current-layer="Layer_1" />
<g
   style="opacity:0.4"
   id="g8"
   transform="matrix(0.89079357,0,0,0.89079357,-36.970546,-3.1979404)">
				<g
   id="g4">
					<path
   style="fill:#555d9c"
   inkscape:connector-curvature="0"
   id="path2"
   d="m 70.624,28.978 c 1.872,-0.506 2.976,-2.414 2.45,-4.256 -0.52,-1.839 -2.45,-2.918 -4.328,-2.411 -1.858,0.509 -2.973,2.417 -2.456,4.25 0.529,1.844 2.464,2.917 4.334,2.417 z m -3.584,4.438 c -0.501,-1.8 -2.387,-2.84 -4.22,-2.345 -1.822,0.49 -2.887,2.342 -2.384,4.134 0.495,1.797 2.389,2.84 4.212,2.348 1.828,-0.492 2.89,-2.348 2.392,-4.137 z m -4.328,9.452 c -0.498,-1.739 -2.334,-2.763 -4.107,-2.281 -1.776,0.475 -2.818,2.278 -2.323,4.021 0.486,1.756 2.325,2.779 4.098,2.295 1.776,-0.481 2.819,-2.295 2.332,-4.035 z m -1.571,10.426 c -0.473,-1.695 -2.265,-2.696 -3.991,-2.226 -1.726,0.476 -2.732,2.232 -2.262,3.927 0.475,1.692 2.259,2.69 3.996,2.22 1.721,-0.47 2.739,-2.226 2.257,-3.921 z m 1.151,11.152 c -0.464,-1.645 -2.204,-2.616 -3.885,-2.162 -1.679,0.453 -2.671,2.162 -2.204,3.822 0.465,1.643 2.204,2.613 3.885,2.154 1.681,-0.445 2.666,-2.157 2.204,-3.814 z m 2.995,10.653 c -0.462,-1.601 -2.149,-2.539 -3.769,-2.102 -1.64,0.448 -2.597,2.104 -2.143,3.706 0.454,1.607 2.135,2.555 3.769,2.107 1.642,-0.445 2.588,-2.104 2.143,-3.711 z m 4.704,8.73 c -0.445,-1.56 -2.082,-2.47 -3.67,-2.041 -1.579,0.42 -2.514,2.035 -2.074,3.592 0.434,1.557 2.074,2.467 3.661,2.044 1.582,-0.434 2.503,-2.043 2.083,-3.595 z m 6.526,7.24 c -0.426,-1.504 -2.016,-2.398 -3.559,-1.98 -1.532,0.415 -2.436,1.98 -2.01,3.487 0.431,1.51 2.01,2.387 3.553,1.977 1.529,-0.414 2.436,-1.985 2.016,-3.484 z m 7.027,6.366 c -0.409,-1.458 -1.941,-2.312 -3.435,-1.914 -1.499,0.404 -2.367,1.919 -1.955,3.379 0.406,1.463 1.955,2.334 3.449,1.922 1.482,-0.4 2.353,-1.924 1.941,-3.387 z m 7.358,4.823 c -0.412,-1.41 -1.9,-2.237 -3.343,-1.856 -1.438,0.393 -2.287,1.864 -1.878,3.272 0.384,1.413 1.883,2.243 3.321,1.853 1.444,-0.39 2.285,-1.85 1.9,-3.269 z m 7.813,2.97 c -0.384,-1.366 -1.825,-2.171 -3.208,-1.786 -1.402,0.37 -2.221,1.797 -1.836,3.158 0.387,1.366 1.831,2.174 3.219,1.795 1.396,-0.374 2.206,-1.795 1.825,-3.167 z m 5.813,2.044 c -0.374,-1.316 -1.756,-2.096 -3.106,-1.729 -1.35,0.374 -2.132,1.729 -1.764,3.05 0.374,1.319 1.764,2.091 3.1,1.739 1.349,-0.367 2.14,-1.738 1.77,-3.06 z m 5.956,0.78 c -0.354,-1.272 -1.701,-2.016 -2.995,-1.668 -1.297,0.362 -2.055,1.676 -1.695,2.942 0.36,1.275 1.695,2.019 3.001,1.676 1.288,-0.354 2.046,-1.676 1.689,-2.95 z m 6.532,0.138 c -0.359,-1.222 -1.637,-1.947 -2.884,-1.61 -1.25,0.34 -1.983,1.612 -1.64,2.832 0.348,1.231 1.637,1.952 2.879,1.612 1.258,-0.34 1.985,-1.601 1.645,-2.834 z m 6.632,-0.382 c -0.332,-1.178 -1.579,-1.864 -2.779,-1.546 -1.2,0.326 -1.906,1.546 -1.571,2.73 0.332,1.181 1.576,1.875 2.771,1.538 1.197,-0.33 1.908,-1.538 1.579,-2.722 z m 6.363,-1.291 c -0.315,-1.134 -1.502,-1.8 -2.655,-1.491 -1.153,0.318 -1.825,1.491 -1.513,2.63 0.313,1.128 1.513,1.787 2.666,1.477 1.156,-0.31 1.831,-1.485 1.502,-2.616 z m -51.05,-83.95 c 1.925,-0.523 3.042,-2.478 2.517,-4.361 -0.531,-1.883 -2.517,-2.989 -4.436,-2.472 -1.933,0.52 -3.053,2.472 -2.525,4.361 0.529,1.892 2.525,2.995 4.444,2.472 z m 4.387,-7.099 c 0.52,1.842 2.453,2.926 4.331,2.406 1.872,-0.503 2.973,-2.409 2.458,-4.248 -0.517,-1.836 -2.458,-2.909 -4.325,-2.412 -1.886,0.505 -2.979,2.416 -2.464,4.254 z m 10.071,-2.87 c 0.501,1.789 2.395,2.848 4.217,2.348 1.817,-0.498 2.895,-2.348 2.392,-4.145 -0.503,-1.797 -2.389,-2.84 -4.22,-2.348 -1.83,0.489 -2.889,2.35 -2.389,4.145 z m 10.406,0.083 c 0.492,1.75 2.334,2.771 4.104,2.292 1.778,-0.486 2.824,-2.292 2.331,-4.035 -0.49,-1.745 -2.331,-2.768 -4.101,-2.284 -1.775,0.485 -2.826,2.288 -2.334,4.027 z m 16.161,1.477 c -0.475,-1.701 -2.256,-2.691 -3.999,-2.218 -1.723,0.47 -2.743,2.218 -2.259,3.921 0.478,1.701 2.262,2.696 4.002,2.229 1.714,-0.47 2.74,-2.237 2.256,-3.932 z m 8.725,6.313 c -0.467,-1.642 -2.21,-2.613 -3.885,-2.162 -1.687,0.459 -2.666,2.16 -2.198,3.819 0.462,1.654 2.198,2.619 3.888,2.16 1.672,-0.46 2.657,-2.16 2.195,-3.817 z m 0.711,9.347 c 0.451,1.604 2.146,2.539 3.78,2.096 1.634,-0.434 2.586,-2.099 2.138,-3.703 -0.456,-1.606 -2.14,-2.544 -3.783,-2.104 -1.624,0.445 -2.583,2.102 -2.135,3.711 z m 10.055,7.918 c -0.437,-1.557 -2.082,-2.475 -3.659,-2.038 -1.59,0.423 -2.514,2.038 -2.077,3.584 0.431,1.563 2.071,2.475 3.656,2.049 1.579,-0.429 2.511,-2.05 2.08,-3.595 z m 0.91,10.021 c -0.423,-1.51 -2.013,-2.398 -3.559,-1.98 -1.532,0.417 -2.434,1.988 -2.013,3.495 0.428,1.507 2.019,2.392 3.559,1.969 1.531,-0.414 2.441,-1.979 2.013,-3.484 z m -8.462,11.098 c 0.412,1.463 1.949,2.315 3.44,1.911 1.485,-0.404 2.359,-1.916 1.955,-3.376 -0.417,-1.46 -1.958,-2.32 -3.44,-1.911 -1.499,0.401 -2.367,1.921 -1.955,3.376 z m -4.096,4.209 c -1.438,0.395 -2.284,1.864 -1.894,3.28 0.398,1.407 1.892,2.234 3.335,1.847 1.441,-0.393 2.298,-1.856 1.889,-3.274 -0.393,-1.408 -1.889,-2.238 -3.33,-1.853 z m -4.889,7.373 c -0.39,-1.366 -1.831,-2.165 -3.222,-1.789 -1.394,0.382 -2.21,1.789 -1.82,3.169 0.382,1.361 1.814,2.154 3.211,1.781 1.399,-0.382 2.212,-1.793 1.831,-3.161 z m -8.534,2.657 c -0.368,-1.325 -1.753,-2.094 -3.1,-1.731 -1.344,0.365 -2.14,1.737 -1.764,3.05 0.376,1.327 1.764,2.099 3.111,1.734 1.343,-0.368 2.129,-1.737 1.753,-3.053 z m -10.738,2.428 c 1.303,-0.349 2.063,-1.662 1.698,-2.945 -0.351,-1.264 -1.698,-2.013 -2.99,-1.656 -1.297,0.354 -2.055,1.665 -1.704,2.942 0.369,1.272 1.699,2.013 2.996,1.659 z m -9.975,-5.307 c 0.343,1.236 1.632,1.944 2.876,1.612 1.253,-0.343 1.991,-1.612 1.637,-2.843 -0.343,-1.214 -1.637,-1.936 -2.881,-1.601 -1.25,0.335 -1.981,1.607 -1.632,2.832 z M 92.91,63.172 c -0.329,-1.181 -1.571,-1.858 -2.768,-1.543 -1.206,0.327 -1.905,1.543 -1.579,2.721 0.329,1.183 1.579,1.875 2.774,1.546 1.205,-0.321 1.911,-1.546 1.573,-2.724 z m -4.848,-3.363 c 1.156,-0.307 1.831,-1.474 1.513,-2.613 -0.326,-1.131 -1.513,-1.798 -2.66,-1.491 -1.158,0.313 -1.828,1.491 -1.521,2.613 0.326,1.137 1.515,1.804 2.668,1.491 z" />
				</g>
				<path
   style="fill:#555d9c"
   inkscape:connector-curvature="0"
   id="path6"
   d="m 99.439,21.826 c -1.048,-0.573 -2.37,-0.194 -2.951,0.835 -0.573,1.026 -0.202,2.326 0.86,2.898 1.04,0.575 2.37,0.199 2.951,-0.838 0.578,-1.028 0.194,-2.328 -0.86,-2.895 z m -6.462,1.35 c -1.023,-0.558 -2.306,-0.191 -2.873,0.813 -0.57,1.004 -0.196,2.273 0.83,2.829 1.023,0.55 2.312,0.182 2.873,-0.821 0.563,-1.004 0.196,-2.257 -0.83,-2.821 z m -5.235,5.168 c 0.553,-0.984 0.191,-2.218 -0.799,-2.754 -1.007,-0.534 -2.257,-0.185 -2.81,0.799 -0.556,0.973 -0.18,2.204 0.808,2.741 0.995,0.542 2.248,0.19 2.801,-0.786 z m -5.265,3.933 c 0.539,-0.949 0.18,-2.146 -0.791,-2.669 -0.968,-0.525 -2.193,-0.191 -2.724,0.772 -0.528,0.943 -0.185,2.146 0.783,2.666 0.973,0.536 2.189,0.185 2.732,-0.769 z m -5.161,2.815 c -0.951,-0.52 -2.129,-0.174 -2.649,0.744 -0.528,0.932 -0.188,2.094 0.761,2.605 0.946,0.509 2.124,0.174 2.644,-0.76 0.527,-0.922 0.179,-2.089 -0.756,-2.589 z m -2.613,8.57 c 0.517,-0.896 0.188,-2.016 -0.733,-2.525 -0.918,-0.495 -2.063,-0.174 -2.566,0.725 -0.512,0.904 -0.174,2.032 0.741,2.533 0.91,0.492 2.071,0.163 2.558,-0.733 z m -2.47,3.388 c -0.888,-0.484 -2.005,-0.161 -2.495,0.716 -0.489,0.874 -0.166,1.975 0.725,2.445 0.882,0.484 2.002,0.166 2.494,-0.705 0.493,-0.872 0.172,-1.973 -0.724,-2.456 z m -2.002,9.114 c 0.874,0.462 1.955,0.15 2.431,-0.697 0.468,-0.843 0.166,-1.911 -0.705,-2.375 -0.857,-0.465 -1.944,-0.158 -2.425,0.686 -0.471,0.846 -0.161,1.902 0.699,2.386 z m 0.385,5.763 c 0.835,0.456 1.889,0.16 2.342,-0.661 0.465,-0.821 0.163,-1.853 -0.672,-2.304 -0.838,-0.453 -1.88,-0.155 -2.345,0.661 -0.467,0.822 -0.16,1.842 0.675,2.304 z m 1.205,5.227 c 0.807,0.434 1.817,0.147 2.265,-0.647 0.451,-0.794 0.157,-1.795 -0.653,-2.235 -0.81,-0.434 -1.823,-0.144 -2.273,0.645 -0.447,0.796 -0.146,1.794 0.661,2.237 z m 4.408,3.979 c 0.44,-0.766 0.152,-1.731 -0.628,-2.16 -0.78,-0.421 -1.762,-0.141 -2.196,0.622 -0.42,0.772 -0.146,1.737 0.633,2.16 0.784,0.426 1.765,0.147 2.191,-0.622 z m 1.668,3.363 c 0.42,-0.727 0.152,-1.673 -0.606,-2.071 -0.752,-0.415 -1.701,-0.146 -2.118,0.6 -0.412,0.744 -0.144,1.67 0.611,2.069 0.755,0.422 1.698,0.149 2.113,-0.598 z m 2.29,2.881 c 0.409,-0.716 0.144,-1.626 -0.586,-2.01 -0.716,-0.393 -1.643,-0.133 -2.046,0.581 -0.401,0.719 -0.125,1.612 0.6,2.005 0.715,0.395 1.639,0.135 2.032,-0.576 z m 2.829,2.824 c 0.384,-0.688 0.127,-1.549 -0.573,-1.922 -0.699,-0.395 -1.573,-0.146 -1.969,0.545 -0.381,0.689 -0.127,1.562 0.573,1.933 0.697,0.382 1.584,0.13 1.969,-0.556 z m 2.547,0.78 c -0.675,-0.359 -1.513,-0.116 -1.892,0.545 -0.37,0.653 -0.127,1.488 0.548,1.853 0.669,0.362 1.524,0.124 1.886,-0.539 0.376,-0.662 0.132,-1.491 -0.542,-1.859 z m 2.115,4.513 c 0.639,0.343 1.452,0.116 1.814,-0.517 0.357,-0.636 0.127,-1.435 -0.528,-1.783 -0.642,-0.357 -1.466,-0.125 -1.814,0.509 -0.36,0.632 -0.122,1.434 0.528,1.791 z m 18.313,-63.059 c -1.084,-0.583 -2.428,-0.205 -3.028,0.855 -0.592,1.062 -0.207,2.395 0.874,2.975 1.079,0.584 2.428,0.199 3.031,-0.86 0.588,-1.048 0.204,-2.39 -0.877,-2.97 z m 5.854,1.725 c -1.051,-0.57 -2.378,-0.199 -2.939,0.832 -0.586,1.032 -0.205,2.331 0.843,2.898 1.043,0.572 2.37,0.199 2.951,-0.835 0.583,-1.031 0.199,-2.333 -0.855,-2.895 z m 6.465,5.846 c 0.556,-1.006 0.188,-2.279 -0.827,-2.818 -1.026,-0.561 -2.32,-0.204 -2.879,0.808 -0.567,1.006 -0.194,2.276 0.829,2.818 1.025,0.567 2.305,0.196 2.877,-0.808 z m 1.652,5.191 c 1.006,0.539 2.259,0.188 2.798,-0.799 0.559,-0.971 0.191,-2.207 -0.796,-2.749 -1.001,-0.539 -2.259,-0.174 -2.81,0.794 -0.55,0.984 -0.185,2.22 0.808,2.754 z m 2.958,5.528 c 0.965,0.52 2.185,0.182 2.727,-0.772 0.534,-0.951 0.18,-2.154 -0.788,-2.682 -0.965,-0.523 -2.187,-0.177 -2.724,0.771 -0.539,0.96 -0.177,2.16 0.785,2.683 z m 1.151,6.454 c 0.943,0.512 2.121,0.182 2.655,-0.744 0.515,-0.929 0.174,-2.094 -0.769,-2.608 -0.934,-0.503 -2.126,-0.166 -2.641,0.755 -0.523,0.922 -0.185,2.091 0.755,2.597 z m -0.398,6.209 c 0.918,0.498 2.066,0.177 2.572,-0.725 0.509,-0.904 0.177,-2.038 -0.738,-2.53 -0.921,-0.495 -2.071,-0.172 -2.577,0.727 -0.502,0.899 -0.17,2.03 0.743,2.528 z m -2.279,5.94 c 0.888,0.481 2.011,0.163 2.492,-0.708 0.498,-0.882 0.174,-1.974 -0.719,-2.456 -0.877,-0.484 -2,-0.166 -2.495,0.708 -0.489,0.874 -0.168,1.966 0.722,2.456 z m -3.927,4.784 c 0.857,0.464 1.941,0.166 2.423,-0.683 0.473,-0.844 0.163,-1.911 -0.705,-2.373 -0.86,-0.476 -1.938,-0.163 -2.422,0.677 -0.477,0.852 -0.159,1.912 0.704,2.379 z m -5.52,2.937 c 0.838,0.445 1.883,0.144 2.351,-0.669 0.451,-0.83 0.152,-1.853 -0.678,-2.298 -0.841,-0.456 -1.881,-0.157 -2.345,0.658 -0.459,0.827 -0.16,1.844 0.672,2.309 z m -5.931,0.691 c 0.796,0.434 1.808,0.15 2.259,-0.652 0.437,-0.774 0.147,-1.784 -0.658,-2.226 -0.808,-0.434 -1.828,-0.146 -2.268,0.642 -0.451,0.793 -0.16,1.799 0.667,2.236 z m -5.988,-1.081 c 0.774,0.434 1.753,0.152 2.182,-0.622 0.44,-0.758 0.158,-1.723 -0.625,-2.149 -0.777,-0.423 -1.767,-0.144 -2.196,0.625 -0.439,0.76 -0.149,1.726 0.639,2.146 z M 95.17,64.203 c 0.752,0.404 1.698,0.133 2.121,-0.595 0.404,-0.746 0.138,-1.681 -0.611,-2.085 -0.758,-0.409 -1.698,-0.138 -2.121,0.603 -0.418,0.73 -0.144,1.668 0.611,2.077 z m -2.238,-6.667 c -0.733,-0.395 -1.648,-0.13 -2.038,0.581 -0.404,0.719 -0.141,1.612 0.581,2.005 0.73,0.398 1.643,0.136 2.044,-0.578 0.401,-0.708 0.141,-1.613 -0.587,-2.008 z m -2.967,-2.049 c 0.711,0.365 1.585,0.119 1.966,-0.564 0.396,-0.692 0.136,-1.552 -0.564,-1.93 -0.705,-0.387 -1.582,-0.133 -1.969,0.556 -0.379,0.682 -0.13,1.553 0.567,1.938 z m 0.293,-4.848 c 0.675,0.368 1.524,0.124 1.9,-0.534 0.365,-0.658 0.133,-1.496 -0.548,-1.861 -0.677,-0.36 -1.521,-0.122 -1.9,0.539 -0.373,0.661 -0.118,1.496 0.548,1.856 z m 3.05,-4.585 c 0.357,-0.641 0.125,-1.435 -0.522,-1.789 -0.65,-0.346 -1.466,-0.125 -1.817,0.517 -0.362,0.631 -0.119,1.427 0.525,1.784 0.645,0.345 1.455,0.116 1.814,-0.512 z m 3.037,-3.078 c 0.351,-0.636 0.122,-1.435 -0.517,-1.789 -0.658,-0.349 -1.474,-0.125 -1.825,0.52 -0.362,0.633 -0.116,1.432 0.522,1.781 0.659,0.348 1.455,0.113 1.82,-0.512 z m 5.008,-0.442 c 0.359,-0.645 0.121,-1.446 -0.526,-1.792 -0.652,-0.354 -1.463,-0.121 -1.82,0.515 -0.354,0.633 -0.116,1.43 0.526,1.778 0.653,0.35 1.452,0.126 1.82,-0.501 z m 5.918,0.893 c 0.351,-0.647 0.119,-1.441 -0.52,-1.787 -0.655,-0.357 -1.471,-0.127 -1.822,0.512 -0.36,0.628 -0.119,1.427 0.522,1.784 0.647,0.348 1.461,0.119 1.82,-0.509 z m 4.029,4.023 c 0.359,-0.644 0.121,-1.441 -0.52,-1.789 -0.65,-0.357 -1.463,-0.119 -1.825,0.514 -0.348,0.631 -0.113,1.427 0.537,1.787 0.641,0.343 1.443,0.116 1.808,-0.512 z m -8.199,9.328 c 0.359,-0.644 0.127,-1.441 -0.517,-1.789 -0.65,-0.354 -1.465,-0.122 -1.825,0.514 -0.351,0.631 -0.119,1.43 0.528,1.784 0.652,0.349 1.454,0.119 1.814,-0.509 z m 5.008,-1.344 c 0.357,-0.641 0.125,-1.441 -0.52,-1.792 -0.65,-0.343 -1.463,-0.119 -1.82,0.523 -0.357,0.628 -0.121,1.427 0.528,1.778 0.648,0.349 1.45,0.122 1.812,-0.509 z M 111.3,52.37 c 0.359,-0.644 0.121,-1.444 -0.52,-1.789 -0.65,-0.354 -1.463,-0.125 -1.825,0.511 -0.348,0.633 -0.113,1.43 0.537,1.787 0.641,0.348 1.443,0.119 1.808,-0.509 z m -11.382,0.384 c 0.357,-0.641 0.122,-1.441 -0.528,-1.789 -0.644,-0.354 -1.466,-0.124 -1.817,0.509 -0.354,0.639 -0.116,1.43 0.526,1.789 0.646,0.346 1.457,0.119 1.819,-0.509 z m 2.732,-4.474 c 0.351,-0.639 0.124,-1.438 -0.526,-1.787 -0.65,-0.351 -1.466,-0.13 -1.82,0.512 -0.354,0.636 -0.113,1.435 0.523,1.786 0.648,0.349 1.458,0.114 1.823,-0.511 z m 4.101,2.743 c 0.351,-0.639 0.119,-1.435 -0.523,-1.781 -0.652,-0.357 -1.465,-0.127 -1.817,0.512 -0.365,0.63 -0.121,1.427 0.52,1.781 0.648,0.351 1.461,0.122 1.82,-0.512 z" />
			</g><g
   id="g14"
   transform="matrix(0.89079357,0,0,0.89079357,-36.970546,-3.1979404)">
				<path
   style="fill:#9e1f63"
   inkscape:connector-curvature="0"
   id="path10"
   d="m 88.125,68.491 h -5.617 l 5.151,-29.024 h -3.706 l 0.466,-2.138 c 2.147,0 5.19,-0.279 9.909,-3.628 z" />
				<path
   style="fill:#9e1f63"
   inkscape:connector-curvature="0"
   id="path12"
   d="m 102.051,51.606 c 0,-2.698 2.535,-4.65 5.501,-4.65 3.706,0 5.265,4.047 5.265,7.675 0,7.952 -4.838,14.093 -10.533,14.093 -6.242,0 -7.606,-4.28 -7.606,-9.209 0,-0.558 0,-1.118 0.039,-1.722 0.78,-14.001 5.265,-24.187 13.926,-24.187 2.926,0 4.488,2 4.488,3.814 0,1.582 -1.093,3.025 -3.473,3.164 0.43,-0.466 0.624,-1.07 0.624,-1.676 0,-1.255 -0.818,-2.51 -1.95,-2.51 -1.015,0 -6.594,0.743 -8.231,20.092 -0.119,1.443 -0.197,2.606 -0.197,3.628 0,4.698 1.326,5.535 3.24,5.535 2.497,0 5.188,-5.396 5.188,-10.373 0,-1.907 -0.391,-4.511 -2.067,-4.511 -1.445,0 -2.538,1.349 -3.434,3.535 -0.547,-0.93 -0.78,-1.861 -0.78,-2.698 z" />
			</g>

</svg>