<?xml version="1.0" encoding="UTF-8" standalone="no"?>
<!-- Created with Inkscape (http://www.inkscape.org/) -->

<svg
   xmlns:dc="http://purl.org/dc/elements/1.1/"
   xmlns:cc="http://creativecommons.org/ns#"
   xmlns:rdf="http://www.w3.org/1999/02/22-rdf-syntax-ns#"
   xmlns:svg="http://www.w3.org/2000/svg"
   xmlns="http://www.w3.org/2000/svg"
   xmlns:sodipodi="http://sodipodi.sourceforge.net/DTD/sodipodi-0.dtd"
   xmlns:inkscape="http://www.inkscape.org/namespaces/inkscape"
   width="100mm"
   height="100mm"
   viewBox="0 0 354.33071 354.33071"
   id="svg2"
   version="1.1"
   inkscape:version="0.92.4 (5da689c313, 2019-01-14)"
   sodipodi:docname="debconf19.svg"
   inkscape:export-filename="debconf19.png"
   inkscape:export-xdpi="40.639999"
   inkscape:export-ydpi="40.639999">
  <defs
     id="defs4">
    <inkscape:path-effect
       effect="skeletal"
       id="path-effect5017"
       is_visible="true"
       pattern="m -5,3.5714286 c 0,-2.76000003 2.24,-5 5,-5 2.76,0 5,2.23999997 5,5 0,2.76 -2.24,5 -5,5 -2.76,0 -5,-2.24 -5,-5 z"
       copytype="single_stretched"
       prop_scale="1"
       scale_y_rel="false"
       spacing="0"
       normal_offset="0"
       tang_offset="0"
       prop_units="false"
       vertical_pattern="false"
       fuse_tolerance="0" />
    <inkscape:path-effect
       effect="skeletal"
       id="path-effect5008"
       is_visible="true"
       pattern="m 4.3140888,75.05952 c 0,0 50.1355702,-41.02065 81.7675402,-60.05131 C 96.925569,8.4842 96.289989,7.30372 104.29591,5.09639 113.60347,2.53018 127.72302,0 132.73613,0 H 136.19 l -3.74914,3.75 c -2.06203,2.0625 -4.35356,4.6729 -5.09231,5.80088 -1.31833,2.01296 -1.31749,2.07008 0.0457,3.08907 1.36036,1.01685 3.15778,0.97783 11.05009,-0.23987 1.82714,-0.28191 2.97183,-0.0213 4.17059,0.94935 l 1.65224,1.3379 -5.67236,2.34196 c -3.1198,1.28807 -9.65728,4.62414 -14.52773,7.4135 C 103.99985,35.93547 21.434629,87.16188 21.434629,87.16188 19.437599,87.16488 -10.589901,100.80113 3.9696188,74.4678 Z M 117.95407,9.68448 c 0.21734,-0.56639 1.23059,-1.5772 2.25166,-2.24623 1.59402,-1.04444 2.10641,-1.08266 3.62425,-0.27033 2.03568,1.08946 3.64795,0.11449 2.92522,-1.76894 -1.38137,-3.5998 -8.73184,-2.83476 -11.16228,1.16177 -0.73491,1.20846 -1.16729,2.63738 -0.96085,3.17537 0.49587,1.29222 2.82017,1.25609 3.322,-0.0516 z"
       copytype="single_stretched"
       prop_scale="1"
       scale_y_rel="false"
       spacing="0"
       normal_offset="0"
       tang_offset="0"
       prop_units="false"
       vertical_pattern="false"
       fuse_tolerance="0" />
    <inkscape:path-effect
       effect="skeletal"
       id="path-effect4999"
       is_visible="true"
       pattern="m 4.3140888,75.05952 c 0,0 50.1355702,-41.02065 81.7675402,-60.05131 C 96.925569,8.4842 96.289989,7.30372 104.29591,5.09639 113.60347,2.53018 127.72302,0 132.73613,0 H 136.19 l -3.74914,3.75 c -2.06203,2.0625 -4.35356,4.6729 -5.09231,5.80088 -1.31833,2.01296 -1.31749,2.07008 0.0457,3.08907 1.36036,1.01685 3.15778,0.97783 11.05009,-0.23987 1.82714,-0.28191 2.97183,-0.0213 4.17059,0.94935 l 1.65224,1.3379 -5.67236,2.34196 c -3.1198,1.28807 -9.65728,4.62414 -14.52773,7.4135 C 103.99985,35.93547 21.434629,87.16188 21.434629,87.16188 19.437599,87.16488 -10.589901,100.80113 3.9696188,74.4678 Z M 117.95407,9.68448 c 0.21734,-0.56639 1.23059,-1.5772 2.25166,-2.24623 1.59402,-1.04444 2.10641,-1.08266 3.62425,-0.27033 2.03568,1.08946 3.64795,0.11449 2.92522,-1.76894 -1.38137,-3.5998 -8.73184,-2.83476 -11.16228,1.16177 -0.73491,1.20846 -1.16729,2.63738 -0.96085,3.17537 0.49587,1.29222 2.82017,1.25609 3.322,-0.0516 z"
       copytype="single_stretched"
       prop_scale="1"
       scale_y_rel="false"
       spacing="0"
       normal_offset="0"
       tang_offset="0"
       prop_units="false"
       vertical_pattern="false"
       fuse_tolerance="0" />
    <inkscape:path-effect
       effect="skeletal"
       id="path-effect4990"
       is_visible="true"
       pattern="m 4.3140888,75.05952 c 0,0 50.1355702,-41.02065 81.7675402,-60.05131 C 96.925569,8.4842 96.289989,7.30372 104.29591,5.09639 113.60347,2.53018 127.72302,0 132.73613,0 H 136.19 l -3.74914,3.75 c -2.06203,2.0625 -4.35356,4.6729 -5.09231,5.80088 -1.31833,2.01296 -1.31749,2.07008 0.0457,3.08907 1.36036,1.01685 3.15778,0.97783 11.05009,-0.23987 1.82714,-0.28191 2.97183,-0.0213 4.17059,0.94935 l 1.65224,1.3379 -5.67236,2.34196 c -3.1198,1.28807 -9.65728,4.62414 -14.52773,7.4135 C 103.99985,35.93547 21.434629,87.16188 21.434629,87.16188 19.437599,87.16488 -10.589901,100.80113 3.9696188,74.4678 Z M 117.95407,9.68448 c 0.21734,-0.56639 1.23059,-1.5772 2.25166,-2.24623 1.59402,-1.04444 2.10641,-1.08266 3.62425,-0.27033 2.03568,1.08946 3.64795,0.11449 2.92522,-1.76894 -1.38137,-3.5998 -8.73184,-2.83476 -11.16228,1.16177 -0.73491,1.20846 -1.16729,2.63738 -0.96085,3.17537 0.49587,1.29222 2.82017,1.25609 3.322,-0.0516 z"
       copytype="single_stretched"
       prop_scale="1"
       scale_y_rel="false"
       spacing="0"
       normal_offset="0"
       tang_offset="0"
       prop_units="false"
       vertical_pattern="false"
       fuse_tolerance="0" />
    <inkscape:path-effect
       effect="skeletal"
       id="path-effect4959"
       is_visible="true"
       pattern="M 11.171689,17.495927 C 8.0771941,15.631834 5.0347118,13.585734 2.6196579,10.899052 1.3190385,9.4521486 0.12629261,7.7390229 0.00737277,5.7971168 -0.0729904,4.4848234 0.50948633,3.1767496 1.4673532,2.276159 c 4e-7,-2e-7 8e-7,-4e-7 1.2e-6,-6e-7 C 2.4757138,1.3280945 3.7860613,0.74430786 5.132119,0.42221683 7.4513909,-0.13275071 9.8764795,-0.04918479 12.252293,0.1570265 c 2.686894,0.23321196 5.34973,0.68644232 8.002132,1.1748598 10e-7,3e-7 2e-6,4e-7 3e-6,5e-7 2.314711,0.4262346 4.620094,0.9112919 6.950873,1.2384528 0.821351,0.1152893 1.647686,0.2164269 2.477081,0.2129304 0.511656,-0.00216 1.060345,-0.00844 1.489307,-0.2873432"
       copytype="single_stretched"
       prop_scale="1"
       scale_y_rel="false"
       spacing="0"
       normal_offset="0"
       tang_offset="0"
       prop_units="false"
       vertical_pattern="false"
       fuse_tolerance="0" />
    <inkscape:path-effect
       effect="skeletal"
       id="path-effect4949"
       is_visible="true"
       pattern="M 11.171689,17.495927 C 8.0771941,15.631834 5.0347118,13.585734 2.6196579,10.899052 1.3190385,9.4521486 0.12629261,7.7390229 0.00737277,5.7971168 -0.0729904,4.4848234 0.50948633,3.1767496 1.4673532,2.276159 c 4e-7,-2e-7 8e-7,-4e-7 1.2e-6,-6e-7 C 2.4757138,1.3280945 3.7860613,0.74430786 5.132119,0.42221683 7.4513909,-0.13275071 9.8764795,-0.04918479 12.252293,0.1570265 c 2.686894,0.23321196 5.34973,0.68644232 8.002132,1.1748598 10e-7,3e-7 2e-6,4e-7 3e-6,5e-7 2.314711,0.4262346 4.620094,0.9112919 6.950873,1.2384528 0.821351,0.1152893 1.647686,0.2164269 2.477081,0.2129304 0.511656,-0.00216 1.060345,-0.00844 1.489307,-0.2873432"
       copytype="single_stretched"
       prop_scale="1"
       scale_y_rel="false"
       spacing="0"
       normal_offset="0"
       tang_offset="0"
       prop_units="false"
       vertical_pattern="false"
       fuse_tolerance="0" />
    <inkscape:path-effect
       effect="skeletal"
       id="path-effect4939"
       is_visible="true"
       pattern="M 11.171689,17.495927 C 8.0771941,15.631834 5.0347118,13.585734 2.6196579,10.899052 1.3190385,9.4521486 0.12629261,7.7390229 0.00737277,5.7971168 -0.0729904,4.4848234 0.50948633,3.1767496 1.4673532,2.276159 c 4e-7,-2e-7 8e-7,-4e-7 1.2e-6,-6e-7 C 2.4757138,1.3280945 3.7860613,0.74430786 5.132119,0.42221683 7.4513909,-0.13275071 9.8764795,-0.04918479 12.252293,0.1570265 c 2.686894,0.23321196 5.34973,0.68644232 8.002132,1.1748598 10e-7,3e-7 2e-6,4e-7 3e-6,5e-7 2.314711,0.4262346 4.620094,0.9112919 6.950873,1.2384528 0.821351,0.1152893 1.647686,0.2164269 2.477081,0.2129304 0.511656,-0.00216 1.060345,-0.00844 1.489307,-0.2873432"
       copytype="single_stretched"
       prop_scale="1"
       scale_y_rel="false"
       spacing="0"
       normal_offset="0"
       tang_offset="0"
       prop_units="false"
       vertical_pattern="false"
       fuse_tolerance="0" />
    <inkscape:path-effect
       effect="skeletal"
       id="path-effect4929"
       is_visible="true"
       pattern="M 11.171689,17.495927 C 8.0771941,15.631834 5.0347118,13.585734 2.6196579,10.899052 1.3190385,9.4521486 0.12629261,7.7390229 0.00737277,5.7971168 -0.0729904,4.4848234 0.50948633,3.1767496 1.4673532,2.276159 c 4e-7,-2e-7 8e-7,-4e-7 1.2e-6,-6e-7 C 2.4757138,1.3280945 3.7860613,0.74430786 5.132119,0.42221683 7.4513909,-0.13275071 9.8764795,-0.04918479 12.252293,0.1570265 c 2.686894,0.23321196 5.34973,0.68644232 8.002132,1.1748598 10e-7,3e-7 2e-6,4e-7 3e-6,5e-7 2.314711,0.4262346 4.620094,0.9112919 6.950873,1.2384528 0.821351,0.1152893 1.647686,0.2164269 2.477081,0.2129304 0.511656,-0.00216 1.060345,-0.00844 1.489307,-0.2873432"
       copytype="single_stretched"
       prop_scale="1"
       scale_y_rel="false"
       spacing="0"
       normal_offset="0"
       tang_offset="0"
       prop_units="false"
       vertical_pattern="false"
       fuse_tolerance="0" />
    <inkscape:path-effect
       effect="skeletal"
       id="path-effect4885"
       is_visible="true"
       pattern="M 0,5 C 0,2.24 2.24,0 5,0 7.76,0 10,2.24 10,5 10,7.76 7.76,10 5,10 2.24,10 0,7.76 0,5 Z"
       copytype="single_stretched"
       prop_scale="1"
       scale_y_rel="false"
       spacing="0"
       normal_offset="0"
       tang_offset="0"
       prop_units="false"
       vertical_pattern="false"
       fuse_tolerance="0" />
    <inkscape:path-effect
       effect="skeletal"
       id="path-effect4881"
       is_visible="true"
       pattern="M 0,5 C 0,2.24 2.24,0 5,0 7.76,0 10,2.24 10,5 10,7.76 7.76,10 5,10 2.24,10 0,7.76 0,5 Z"
       copytype="single_stretched"
       prop_scale="1"
       scale_y_rel="false"
       spacing="0"
       normal_offset="0"
       tang_offset="0"
       prop_units="false"
       vertical_pattern="false"
       fuse_tolerance="0" />
    <inkscape:path-effect
       effect="skeletal"
       id="path-effect4829"
       is_visible="true"
       pattern="m -174.42857,126.14286 h 1"
       copytype="single_stretched"
       prop_scale="1"
       scale_y_rel="false"
       spacing="0"
       normal_offset="0"
       tang_offset="0"
       prop_units="false"
       vertical_pattern="false"
       fuse_tolerance="0" />
    <inkscape:path-effect
       effect="skeletal"
       id="path-effect4811"
       is_visible="true"
       pattern="M 0,5 C 0,2.24 2.24,0 5,0 7.76,0 10,2.24 10,5 10,7.76 7.76,10 5,10 2.24,10 0,7.76 0,5 Z"
       copytype="single_stretched"
       prop_scale="1"
       scale_y_rel="false"
       spacing="0"
       normal_offset="0"
       tang_offset="0"
       prop_units="false"
       vertical_pattern="false"
       fuse_tolerance="0" />
    <inkscape:path-effect
       effect="skeletal"
       id="path-effect4803"
       is_visible="true"
       pattern="m -141.42857,95 c 0,-2.76 2.24,-5 5,-5 2.76,0 5,2.24 5,5 0,2.76 -2.24,5 -5,5 -2.76,0 -5,-2.24 -5,-5 z"
       copytype="single_stretched"
       prop_scale="1"
       scale_y_rel="false"
       spacing="0"
       normal_offset="0"
       tang_offset="0"
       prop_units="false"
       vertical_pattern="false"
       fuse_tolerance="0" />
    <inkscape:path-effect
       effect="skeletal"
       id="path-effect4795"
       is_visible="true"
       pattern="m -141.42857,95 c 0,-2.76 2.24,-5 5,-5 2.76,0 5,2.24 5,5 0,2.76 -2.24,5 -5,5 -2.76,0 -5,-2.24 -5,-5 z"
       copytype="single_stretched"
       prop_scale="1"
       scale_y_rel="false"
       spacing="0"
       normal_offset="0"
       tang_offset="0"
       prop_units="false"
       vertical_pattern="false"
       fuse_tolerance="0" />
    <inkscape:path-effect
       effect="skeletal"
       id="path-effect4791"
       is_visible="true"
       pattern="M 0,0 H 1"
       copytype="single_stretched"
       prop_scale="1"
       scale_y_rel="false"
       spacing="0"
       normal_offset="0"
       tang_offset="0"
       prop_units="false"
       vertical_pattern="false"
       fuse_tolerance="0" />
    <inkscape:path-effect
       effect="skeletal"
       id="path-effect4786"
       is_visible="true"
       pattern="M 0,0 H 1"
       copytype="single_stretched"
       prop_scale="1"
       scale_y_rel="false"
       spacing="0"
       normal_offset="0"
       tang_offset="0"
       prop_units="false"
       vertical_pattern="false"
       fuse_tolerance="0" />
    <inkscape:path-effect
       effect="skeletal"
       id="path-effect4782"
       is_visible="true"
       pattern="M 0,0 H 1"
       copytype="single_stretched"
       prop_scale="1"
       scale_y_rel="false"
       spacing="0"
       normal_offset="0"
       tang_offset="0"
       prop_units="false"
       vertical_pattern="false"
       fuse_tolerance="0" />
    <inkscape:path-effect
       effect="skeletal"
       id="path-effect4778"
       is_visible="true"
       pattern="M 0,0 H 1"
       copytype="single_stretched"
       prop_scale="1"
       scale_y_rel="false"
       spacing="0"
       normal_offset="0"
       tang_offset="0"
       prop_units="false"
       vertical_pattern="false"
       fuse_tolerance="0" />
    <inkscape:path-effect
       effect="skeletal"
       id="path-effect4774"
       is_visible="true"
       pattern="M 0,0 H 1"
       copytype="single_stretched"
       prop_scale="1"
       scale_y_rel="false"
       spacing="0"
       normal_offset="0"
       tang_offset="0"
       prop_units="false"
       vertical_pattern="false"
       fuse_tolerance="0" />
    <inkscape:path-effect
       effect="skeletal"
       id="path-effect4770"
       is_visible="true"
       pattern="M 0,0 H 1"
       copytype="single_stretched"
       prop_scale="1"
       scale_y_rel="false"
       spacing="0"
       normal_offset="0"
       tang_offset="0"
       prop_units="false"
       vertical_pattern="false"
       fuse_tolerance="0" />
    <inkscape:path-effect
       effect="skeletal"
       id="path-effect4766"
       is_visible="true"
       pattern="M 0,0 H 1"
       copytype="single_stretched"
       prop_scale="1"
       scale_y_rel="false"
       spacing="0"
       normal_offset="0"
       tang_offset="0"
       prop_units="false"
       vertical_pattern="false"
       fuse_tolerance="0" />
    <inkscape:path-effect
       effect="skeletal"
       id="path-effect4762"
       is_visible="true"
       pattern="M 0,0 H 1"
       copytype="single_stretched"
       prop_scale="1"
       scale_y_rel="false"
       spacing="0"
       normal_offset="0"
       tang_offset="0"
       prop_units="false"
       vertical_pattern="false"
       fuse_tolerance="0" />
    <inkscape:path-effect
       effect="skeletal"
       id="path-effect4758"
       is_visible="true"
       pattern="M 0,0 H 1"
       copytype="single_stretched"
       prop_scale="1"
       scale_y_rel="false"
       spacing="0"
       normal_offset="0"
       tang_offset="0"
       prop_units="false"
       vertical_pattern="false"
       fuse_tolerance="0" />
    <inkscape:path-effect
       effect="skeletal"
       id="path-effect4754"
       is_visible="true"
       pattern="M 0,0 H 1"
       copytype="single_stretched"
       prop_scale="1"
       scale_y_rel="false"
       spacing="0"
       normal_offset="0"
       tang_offset="0"
       prop_units="false"
       vertical_pattern="false"
       fuse_tolerance="0" />
    <inkscape:path-effect
       effect="skeletal"
       id="path-effect4750"
       is_visible="true"
       pattern="M 0,0 H 1"
       copytype="single_stretched"
       prop_scale="1"
       scale_y_rel="false"
       spacing="0"
       normal_offset="0"
       tang_offset="0"
       prop_units="false"
       vertical_pattern="false"
       fuse_tolerance="0" />
    <inkscape:path-effect
       effect="skeletal"
       id="path-effect4746"
       is_visible="true"
       pattern="M 0,0 H 1"
       copytype="single_stretched"
       prop_scale="1"
       scale_y_rel="false"
       spacing="0"
       normal_offset="0"
       tang_offset="0"
       prop_units="false"
       vertical_pattern="false"
       fuse_tolerance="0" />
    <inkscape:path-effect
       effect="skeletal"
       id="path-effect4742"
       is_visible="true"
       pattern="M 0,0 H 1"
       copytype="single_stretched"
       prop_scale="1"
       scale_y_rel="false"
       spacing="0"
       normal_offset="0"
       tang_offset="0"
       prop_units="false"
       vertical_pattern="false"
       fuse_tolerance="0" />
    <inkscape:path-effect
       effect="skeletal"
       id="path-effect4738"
       is_visible="true"
       pattern="M 0,5 C 0,2.24 2.24,0 5,0 7.76,0 10,2.24 10,5 10,7.76 7.76,10 5,10 2.24,10 0,7.76 0,5 Z"
       copytype="single_stretched"
       prop_scale="1"
       scale_y_rel="false"
       spacing="0"
       normal_offset="0"
       tang_offset="0"
       prop_units="false"
       vertical_pattern="false"
       fuse_tolerance="0" />
    <inkscape:path-effect
       effect="skeletal"
       id="path-effect4734"
       is_visible="true"
       pattern="M 0,5 C 0,2.24 2.24,0 5,0 7.76,0 10,2.24 10,5 10,7.76 7.76,10 5,10 2.24,10 0,7.76 0,5 Z"
       copytype="single_stretched"
       prop_scale="1"
       scale_y_rel="false"
       spacing="0"
       normal_offset="0"
       tang_offset="0"
       prop_units="false"
       vertical_pattern="false"
       fuse_tolerance="0" />
    <inkscape:path-effect
       effect="skeletal"
       id="path-effect4730"
       is_visible="true"
       pattern="M 0,5 C 0,2.24 2.24,0 5,0 7.76,0 10,2.24 10,5 10,7.76 7.76,10 5,10 2.24,10 0,7.76 0,5 Z"
       copytype="single_stretched"
       prop_scale="1"
       scale_y_rel="false"
       spacing="0"
       normal_offset="0"
       tang_offset="0"
       prop_units="false"
       vertical_pattern="false"
       fuse_tolerance="0" />
    <inkscape:path-effect
       effect="powerstroke"
       id="path-effect4726"
       is_visible="true"
       offset_points="0,0.5"
       sort_points="true"
       interpolator_type="CubicBezierJohan"
       interpolator_beta="0.2"
       start_linecap_type="zerowidth"
       linejoin_type="round"
       miter_limit="4"
       end_linecap_type="zerowidth"
       cusp_linecap_type="round" />
    <inkscape:path-effect
       effect="powerstroke"
       id="path-effect4722"
       is_visible="true"
       offset_points="0,0.5"
       sort_points="true"
       interpolator_type="CubicBezierJohan"
       interpolator_beta="0.2"
       start_linecap_type="zerowidth"
       linejoin_type="round"
       miter_limit="4"
       end_linecap_type="zerowidth"
       cusp_linecap_type="round" />
    <inkscape:path-effect
       effect="skeletal"
       id="path-effect4714"
       is_visible="true"
       pattern="M 0,5 C 0,2.24 2.24,0 5,0 7.76,0 10,2.24 10,5 10,7.76 7.76,10 5,10 2.24,10 0,7.76 0,5 Z"
       copytype="single_stretched"
       prop_scale="1"
       scale_y_rel="false"
       spacing="0"
       normal_offset="0"
       tang_offset="0"
       prop_units="false"
       vertical_pattern="false"
       fuse_tolerance="0" />
    <inkscape:path-effect
       effect="skeletal"
       id="path-effect4710"
       is_visible="true"
       pattern="M 0,5 C 0,2.24 2.24,0 5,0 7.76,0 10,2.24 10,5 10,7.76 7.76,10 5,10 2.24,10 0,7.76 0,5 Z"
       copytype="single_stretched"
       prop_scale="1"
       scale_y_rel="false"
       spacing="0"
       normal_offset="0"
       tang_offset="0"
       prop_units="false"
       vertical_pattern="false"
       fuse_tolerance="0" />
    <inkscape:path-effect
       effect="skeletal"
       id="path-effect4706"
       is_visible="true"
       pattern="M 0,5 C 0,2.24 2.24,0 5,0 7.76,0 10,2.24 10,5 10,7.76 7.76,10 5,10 2.24,10 0,7.76 0,5 Z"
       copytype="single_stretched"
       prop_scale="1"
       scale_y_rel="false"
       spacing="0"
       normal_offset="0"
       tang_offset="0"
       prop_units="false"
       vertical_pattern="false"
       fuse_tolerance="0" />
    <inkscape:path-effect
       effect="spiro"
       id="path-effect4704"
       is_visible="true" />
    <inkscape:path-effect
       effect="skeletal"
       id="path-effect4694"
       is_visible="true"
       pattern="M 0,5 C 0,2.24 2.24,0 5,0 7.76,0 10,2.24 10,5 10,7.76 7.76,10 5,10 2.24,10 0,7.76 0,5 Z"
       copytype="single_stretched"
       prop_scale="1"
       scale_y_rel="false"
       spacing="0"
       normal_offset="0"
       tang_offset="0"
       prop_units="false"
       vertical_pattern="false"
       fuse_tolerance="0" />
    <inkscape:path-effect
       effect="spiro"
       id="path-effect4692"
       is_visible="true" />
    <inkscape:path-effect
       effect="skeletal"
       id="path-effect4829-3"
       is_visible="true"
       pattern="m -171.00661,161.39989 h 1"
       copytype="single_stretched"
       prop_scale="1"
       scale_y_rel="false"
       spacing="0"
       normal_offset="0"
       tang_offset="0"
       prop_units="false"
       vertical_pattern="false"
       fuse_tolerance="0" />
  </defs>
  <sodipodi:namedview
     id="base"
     pagecolor="#ffffff"
     bordercolor="#666666"
     borderopacity="1.0"
     inkscape:pageopacity="0.0"
     inkscape:pageshadow="2"
     inkscape:zoom="0.79553171"
     inkscape:cx="18.487094"
     inkscape:cy="86.694501"
     inkscape:document-units="px"
     inkscape:current-layer="layer3"
     showgrid="false"
     showguides="true"
     inkscape:window-width="1278"
     inkscape:window-height="718"
     inkscape:window-x="1280"
     inkscape:window-y="0"
     inkscape:window-maximized="0" />
  <metadata
     id="metadata7">
    <rdf:RDF>
      <cc:Work
         rdf:about="">
        <dc:format>image/svg+xml</dc:format>
        <dc:type
           rdf:resource="http://purl.org/dc/dcmitype/StillImage" />
        <dc:title></dc:title>
      </cc:Work>
    </rdf:RDF>
  </metadata>
  <g
     inkscape:groupmode="layer"
     id="layer2"
     inkscape:label="Lingua"
     transform="translate(0,-698.0315)">
    <ellipse
       style="fill:#000000;stroke:#000000;stroke-width:1.60994077;stroke-miterlimit:4;stroke-dasharray:none;stroke-opacity:1"
       id="path4875"
       cx="-324.91199"
       cy="964.97351"
       rx="9.6862574"
       ry="6.9506869"
       transform="matrix(0.84827027,-0.52956354,0.30316937,0.95293669,0,0)" />
    <ellipse
       style="fill:#ffffff;fill-opacity:1;stroke:#ffffff;stroke-width:2.85485983;stroke-miterlimit:4;stroke-dasharray:none;stroke-opacity:1"
       id="path4877"
       cx="-646.49048"
       cy="743.09277"
       rx="2.2356603"
       ry="0.97480303"
       transform="matrix(0.65111862,-0.75897598,0.59285911,0.8053062,0,0)" />
    <path
       style="fill:#cd0000;fill-opacity:1;fill-rule:evenodd;stroke:none;stroke-width:1px;stroke-linecap:butt;stroke-linejoin:miter;stroke-opacity:1"
       d="m 459.28571,315.21935 c -0.4388,-1.13005 30.40828,-10.37528 69.99795,-42.16571 14.66159,-11.77351 30.6972,-27.59443 43.30408,-47.74893 9.04278,-14.44621 16.50433,-31.42396 20.31609,-50.10934 0,-1e-5 0,-1e-5 0,-2e-5 3.09402,-15.1485 3.82977,-31.47083 1.31586,-47.83568 -2.14493,-13.93147 -6.6057,-27.954099 -13.8714,-40.701449 -6.27905,-10.987972 -14.64325,-21.1505 -25.11421,-28.578118 -4.6672,-3.31515 -9.78443,-6.088446 -15.17649,-8.133999 -5.57966,-2.116724 -11.37717,-3.425201 -17.19156,-3.784944 -12.82098,-0.891779 -25.76228,2.886424 -36.92948,9.024102 -11.71369,6.521548 -21.3652,16.053494 -26.72016,27.379412 -8.13636,17.261436 -11.35027,35.880476 -6.67118,52.124436 3.98142,14.20045 14.06514,25.83392 26.11346,31.20561 7.24127,3.23655 14.42002,5.46378 21.54021,5.92246 5.76163,0.37462 11.35401,-0.39592 16.19328,-2.47731 4.6263,-1.94877 8.64404,-5.09651 11.79147,-8.72988 3.4857,-4.01565 6.01222,-8.74084 7.80804,-13.45317 2.64351,-7.00334 3.31694,-14.10256 2.3189,-20.43048 0,0 -10e-6,0 -10e-6,-10e-6 -1.02763,-6.70566 -3.85236,-12.68654 -6.9599,-17.41518 -3.88575,-5.90254 -8.51209,-10.391523 -12.34486,-13.559898 -8.00944,-6.602015 -13.4695,-8.614102 -13.29151,-9.103336 0.10311,-0.283437 6.01132,0.4752 15.08846,6.714139 4.29528,2.944491 9.51074,7.324445 14.09012,13.457875 3.68318,4.92669 7.12262,11.35454 8.6684,18.96242 0,0 10e-6,1e-5 10e-6,1e-5 1.43791,7.22199 1.03669,15.37079 -1.72108,23.46655 -1.79753,5.33317 -4.51191,10.7974 -8.46786,15.69377 -3.61305,4.46287 -8.35704,8.38887 -14.05708,11.00689 -5.98799,2.70688 -12.71702,3.86835 -19.54531,3.53899 -8.32422,-0.40493 -16.50711,-2.67927 -24.40594,-6.092 -14.46857,-6.27397 -26.50362,-19.4901 -31.42458,-36.23141 -5.43016,-18.89207 -2.34444,-39.837507 6.61386,-58.700054 6.33815,-13.383604 17.26732,-24.472068 30.58718,-31.891855 12.4686,-7.025274 27.20535,-11.277854 42.36385,-10.37755 6.86444,0.452349 13.62978,1.96387 20.08878,4.398274 6.24219,2.35269 12.11452,5.535775 17.44419,9.358464 11.84893,8.508939 21.12476,19.766473 27.89687,31.848608 7.85779,13.985913 12.59362,29.159683 14.75211,44.150053 2.54223,17.61566 1.56987,35.02943 -1.94586,51.11429 0,1e-5 0,2e-5 -10e-6,2e-5 -4.34259,19.84675 -12.51226,37.63231 -22.32846,52.61279 -13.69672,20.88819 -30.7195,36.826 -46.22098,48.41916 -42.43243,31.73407 -74.26188,36.20355 -73.90525,37.122 z"
       id="path4879"
       inkscape:path-effect="#path-effect4881"
       inkscape:original-d="m 459.28571,315.21935 c 231.4553,-89.87391 132.90649,-324.8499835 24.2528,-264.340098 -9.80294,5.459317 -21.36509,14.233624 -28.65367,29.635633 -19.45699,41.115935 -5.63191,76.939795 22.12652,89.130765 34.10377,14.97772 54.17432,0.16738 61.90457,-21.44277 11.21868,-31.36219 -15.60258,-55.1524 -33.20164,-61.554963"
       inkscape:connector-curvature="0"
       sodipodi:nodetypes="cssssc"
       transform="translate(-301.68502,705.89581)" />
    <path
       style="fill:#ff9955;fill-opacity:0.99215686;fill-rule:evenodd;stroke:#000000;stroke-width:5.30000019;stroke-linecap:butt;stroke-linejoin:miter;stroke-miterlimit:4;stroke-dasharray:none;stroke-opacity:1"
       d="m 279.85714,392.07649 c -3.09449,-1.86409 -6.13698,-3.91019 -8.55203,-6.59687 -1.30062,-1.44691 -2.49337,-3.16003 -2.61229,-5.10194 -0.0804,-1.31229 0.50212,-2.62037 1.45998,-3.52096 l 10e-6,0 c 1.00835,-0.94806 2.3187,-1.53185 3.66476,-1.85394 2.31927,-0.55497 4.74436,-0.4714 7.12017,-0.26519 2.6869,0.23321 5.34973,0.68644 8.00214,1.17486 l 0,0 c 2.31471,0.42623 4.62009,0.91129 6.95087,1.23845 0.82135,0.11529 1.64769,0.21643 2.47708,0.21293 0.51166,-0.002 1.06035,-0.008 1.48931,-0.28734"
       id="path4827"
       inkscape:path-effect="#path-effect4829"
       inkscape:original-d="m 279.85714,392.07649 c -16.19253,-9.75422 -11.56579,-15.75137 -6.03957,-17.07371 8.04638,-1.92538 23.59992,3.65993 26.03957,2.07371"
       inkscape:connector-curvature="0"
       sodipodi:nodetypes="csc"
       transform="translate(-301.68502,705.89581)" />
  </g>
  <g
     inkscape:groupmode="layer"
     id="layer1"
     inkscape:label="Layer 1"
     transform="translate(0,-698.0315)">
    <path
       style="fill:#000000;fill-rule:evenodd;stroke:none;stroke-width:1px;stroke-linecap:butt;stroke-linejoin:miter;stroke-opacity:1"
       d="m 246.50593,463.53897 c -0.80148,-0.10276 -1.91015,-14.41692 8.22107,-35.95507 4.92348,-10.47654 11.99183,-21.66572 21.90626,-33.37193 0,-1e-5 0,-1e-5 10e-6,-1e-5 14.36052,-16.95728 32.61539,-32.99471 55.25306,-47.86032 3.5996,-2.36378 7.20705,-4.63047 10.805,-6.80398 12.72848,-7.70258 25.31799,-14.17522 37.49679,-19.57142 12.92196,-5.72777 24.95773,-10.06393 36.21516,-13.27353 12.37517,-3.53536 22.65464,-5.39396 31.7398,-6.07887 7.81849,-0.61786 13.39251,-0.25182 17.6907,0.65081 4.05218,0.85097 6.00353,1.97933 5.89811,2.4172 -0.23279,0.96692 -8.56632,-0.25049 -22.90841,2.29015 -8.71503,1.5816 -18.14581,4.04871 -30.08349,8.15661 -10.76768,3.71257 -22.20656,8.36166 -34.67248,14.28858 -11.72175,5.57538 -23.85002,12.0643 -36.19351,19.63059 -3.49074,2.1435 -6.99329,4.36316 -10.49005,6.66167 -22.04123,14.4883 -39.77491,29.43855 -54.1936,45.25084 0,0 -1e-5,1e-5 -1e-5,1e-5 -9.93554,10.89595 -17.17052,21.0141 -22.6217,30.6294 -10.88502,19.21363 -12.8149,33.09925 -14.06271,32.93927 z"
       id="path4793"
       inkscape:path-effect="#path-effect4795"
       inkscape:original-d="M 246.50593,463.53897 C 258.60518,369.16751 422.73598,291.89614 471.73188,303.69185"
       inkscape:connector-curvature="0"
       sodipodi:nodetypes="cc"
       transform="translate(-301.68502,705.89581)" />
    <path
       style="fill:#000000;fill-rule:evenodd;stroke:none;stroke-width:1px;stroke-linecap:butt;stroke-linejoin:miter;stroke-opacity:1"
       d="m 476.26791,319.65737 c 0.50501,0.97651 -6.2698,5.1212 -17.34123,12.95924 -10.83818,7.67292 -26.61724,19.53865 -41.65262,35.92149 -12.18906,13.25582 -23.68265,29.26908 -33.54161,48.25578 -1.04732,2.01697 -2.06021,4.03689 -3.03945,6.05757 -10.07822,20.78109 -16.97061,42.29056 -22.08272,60.31293 -10.69631,37.74544 -15.52376,63.70144 -18.03282,63.20517 -0.86698,-0.17148 -0.45848,-6.79482 1.08987,-18.23521 1.44864,-10.70359 4.30516,-28.46933 8.69288,-47.10726 4.37444,-18.60165 10.90311,-40.73971 21.33579,-62.51225 1.013,-2.11257 2.0656,-4.2232 3.15864,-6.32944 10.28496,-19.81862 22.68063,-36.43201 35.90699,-49.85207 16.41323,-16.62261 33.37277,-27.70785 45.31547,-34.27425 12.15009,-6.68043 19.79148,-9.17385 20.19081,-8.4017 z"
       id="path4801"
       inkscape:path-effect="#path-effect4803"
       inkscape:original-d="M 476.26791,319.65737 C 373.28885,372.91401 357.61469,460.23206 340.57746,546.36954"
       inkscape:connector-curvature="0"
       sodipodi:nodetypes="cc"
       transform="translate(-301.68502,705.89581)" />
    <path
       style="fill:none;fill-rule:evenodd;stroke:#000000;stroke-width:3.08350778;stroke-linecap:round;stroke-linejoin:miter;stroke-miterlimit:4;stroke-dasharray:none;stroke-opacity:1"
       d="m 173.41035,1024.7009 c -2.62788,-7.0252 -11.80708,-1.5467 -16.98812,-2.6864"
       id="path4819"
       inkscape:connector-curvature="0"
       sodipodi:nodetypes="cc" />
    <path
       style="fill:none;fill-rule:evenodd;stroke:#000000;stroke-width:3.08100009;stroke-linecap:round;stroke-linejoin:round;stroke-miterlimit:4;stroke-dasharray:none;stroke-opacity:1"
       d="m 168.76214,1010.4794 c -6.2115,2.2897 -12.43387,11.3291 -12.60615,11.4657"
       id="path4821"
       inkscape:connector-curvature="0"
       sodipodi:nodetypes="cc" />
    <path
       style="fill:#ff9955;fill-opacity:0.99215686;fill-rule:evenodd;stroke:#000000;stroke-width:6.30000019;stroke-linecap:butt;stroke-linejoin:miter;stroke-miterlimit:4;stroke-dasharray:none;stroke-opacity:1"
       d="m 272.25191,421.05289 c -4.14006,-2.98359 -8.14478,-6.26537 -11.21025,-10.34518 -1.76776,-2.3527 -3.27382,-5.06186 -3.42426,-8.00083 -0.10224,-1.99748 0.58487,-4.02678 1.91379,-5.52155 l 0,0 c 1.26006,-1.41732 2.98068,-2.38542 4.8039,-2.90734 1.925,-0.55106 3.94206,-0.70097 5.9429,-0.7781 2.48379,-0.0958 4.97163,-0.0228 7.45314,0.12017 l 10e-6,0 c 4.61937,0.26621 9.22361,0.77387 13.80026,1.45486 0,0 0,0 0,0 0.88111,0.1311 1.76516,0.24123 2.64852,0.35609 0.24137,0.0314 0.48309,0.0616 0.72229,0.10659 0,0 0,0 0,0 0.11416,0.0215 0.24021,0.0293 0.33089,0.10186 0,0 1e-5,0 1e-5,0 0.0446,0.0357 -0.005,0.0987 -0.053,0.12932 -0.13229,0.0839 -0.28278,0.13421 -0.42954,0.18895 -0.64816,0.24176 -1.30724,0.45313 -1.9588,0.68557"
       id="path4827-6"
       inkscape:path-effect="#path-effect4829-3"
       inkscape:original-d="m 272.25191,421.05289 c -21.22563,-15.29651 -15.16078,-24.70122 -7.91682,-26.7749 6.29073,-1.80081 20.36662,-0.2193 27.19631,0.79693 4.6214,0.68764 4.82971,0.295 1.26032,1.56838"
       inkscape:connector-curvature="0"
       sodipodi:nodetypes="cssc"
       transform="translate(-301.68502,705.89581)" />
    <path
       style="fill:none;fill-rule:evenodd;stroke:#000000;stroke-width:3;stroke-linecap:round;stroke-linejoin:round;stroke-miterlimit:4;stroke-dasharray:none;stroke-opacity:1"
       d="m 144.02927,1019.6866 c 2.78519,-5.7622 7.82276,-4.3443 8.92857,-3.2143"
       id="path4887"
       inkscape:connector-curvature="0"
       sodipodi:nodetypes="cc" />
  </g>
  <g
     inkscape:groupmode="layer"
     id="layer3"
     inkscape:label="Tinta"
     transform="translate(0,-698.0315)">
    <path
       style="opacity:0.98999999;fill:#ff9955;fill-opacity:1;stroke:none;stroke-width:0.1;stroke-linecap:round;stroke-linejoin:round;stroke-miterlimit:4;stroke-dasharray:none;stroke-opacity:1"
       d="m 59.78415,1058.2367 c 0,0 17.68369,-23.1131 51.79079,-33.6519 11.55729,-3.5712 14.14027,-7.1584 21.86872,-9.2093 8.98498,-2.3843 22.61518,-4.7351 27.45454,-4.7351 h 3.33417 l -3.6192,3.4842 c -1.99057,1.9163 -4.20268,4.3416 -4.91583,5.3897 -1.27264,1.8702 -1.27182,1.9233 0.0441,2.8701 1.31321,0.9448 3.04834,0.9085 10.66712,-0.2229 1.76381,-0.2619 2.86883,-0.02 4.02604,0.8821 l 1.59498,1.243 -5.47577,2.176 c -3.01167,1.1968 -9.32258,4.2964 -14.02423,6.888 -19.37174,10.6781 -75.50399,48.2735 -75.50399,48.2735 -1.92782,0 -40.20034,9.8153 -26.14542,-14.6515 z m 86.84431,-38.5983 c 0.2098,-0.5262 1.18794,-1.4654 2.17362,-2.087 1.53877,-0.9704 2.03341,-1.0059 3.49864,-0.2512 1.96513,1.0123 3.52152,0.1064 2.82384,-1.6435 -1.3335,-3.3447 -8.42921,-2.6339 -10.77542,1.0794 -0.70944,1.1228 -1.12683,2.4504 -0.92755,2.9503 0.47869,1.2006 2.72243,1.167 3.20687,-0.048 z"
       id="path4969"
       inkscape:connector-curvature="0"
       sodipodi:nodetypes="cssscssssccssccccssssscc" />
    <path
       style="fill:#ff9955;fill-opacity:0.99215686;fill-rule:evenodd;stroke:#ff9955;stroke-width:4.28399992;stroke-linecap:butt;stroke-linejoin:miter;stroke-miterlimit:4;stroke-dasharray:none;stroke-opacity:0.99215686"
       d="m 326.91432,539.00787 c -1.66536,0.47693 -6.15258,-11.12667 -5.09608,-31.31143 0.57444,-11.87878 2.70964,-25.48232 7.11086,-41.02354 0,0 0,-1e-5 0,-1e-5 3.23889,-11.46536 7.59807,-23.52722 13.37924,-35.67111 1.1097,-2.33103 2.25181,-4.62306 3.42463,-6.87559 7.44648,-14.33343 15.85416,-26.46904 25.32878,-36.49216 9.27295,-9.76116 17.05548,-18.9392 23.69232,-25.85089 3.8185,-3.98363 6.89514,-6.89479 10.00418,-9.31436 5.42036,-4.26089 9.19776,-5.12103 9.53554,-4.40015 0.31766,0.67795 -2.47854,2.68699 -6.65783,7.4509 -2.62268,3.02635 -4.7234,5.73348 -8.18309,10.28275 -4.65071,6.12677 -13.88395,18.55642 -21.8209,27.77093 -8.43631,9.79211 -15.94426,21.34443 -23.03646,35.13456 -1.10941,2.16218 -2.19602,4.35941 -3.25893,6.59205 -5.53646,11.62931 -9.91204,23.13117 -13.40408,34.07712 0,0 0,0 0,0 -4.76081,14.95904 -7.53951,27.57951 -9.15623,38.97315 -2.58424,18.83603 -0.55504,30.28351 -1.86195,30.65778 z"
       id="path5015"
       inkscape:path-effect="#path-effect5017"
       inkscape:original-d="m 326.91432,539.00787 c -9.16791,-32.01291 10.73435,-107.80689 47.43254,-148.40425 17.72805,-19.61165 29.6406,-37.70578 39.94692,-42.53499"
       inkscape:connector-curvature="0"
       sodipodi:nodetypes="csc"
       transform="translate(-301.68502,705.89581)" />
  </g>
  <g
     inkscape:groupmode="layer"
     id="layer4"
     inkscape:label="Tipografia"
     transform="translate(0,-698.0315)">
    <g
       aria-label="1"
       transform="translate(-241.50645,705.80652)"
       style="font-style:normal;font-weight:normal;line-height:0.01%;font-family:sans-serif;letter-spacing:0px;word-spacing:0px;fill:#cd0000;fill-opacity:1;stroke:none;stroke-width:1px;stroke-linecap:butt;stroke-linejoin:miter;stroke-opacity:1"
       id="flowRoot4210">
      <path
         d="m 357.4424,59.299232 c -0.20414,-2.960066 -1.8862,-3.903483 -4.23383,-5.638694 -2.65386,-1.735211 -5.52816,-3.25781 -8.38615,-1.522599 -6.83878,3.980779 -13.06512,6.736702 -18.78111,8.471913 -2.34764,0.714499 -3.01745,3.10682 -3.93609,5.148245 -0.91864,1.939354 -0.54722,3.523576 -0.0369,5.667072 0.61243,2.143496 0.19631,3.066372 1.93152,4.189156 1.83729,1.224855 3.98078,1.428997 6.32842,0.714498 3.67456,-1.122783 7.4512,-2.449709 11.22784,-4.18492 0.51035,24.803311 0.71449,59.303387 0.40828,103.296097 l -0.20414,25.82402 -0.10207,25.82403 c -0.10207,19.4956 0,36.64357 0.20414,51.64804 0,2.55178 0.81657,4.49114 2.55178,6.02221 1.53107,1.32692 3.70717,0.75558 5.95274,0.75558 2.1435,0 3.8461,0.57134 5.37717,-0.75558 1.73521,-1.53107 2.55178,-3.47043 2.44971,-6.02221 -0.20414,-15.6169 -0.30622,-33.58143 -0.20414,-54.09775 l 0.20414,-27.04888 0.20414,-27.04888 c 0.30621,-45.4217 0,-81.554923 -0.7145,-108.195516 0,-1.122784 0.26937,-2.127191 -0.24099,-3.045832 z"
         style="font-style:normal;font-variant:normal;font-weight:normal;font-stretch:normal;font-size:209.04190063px;line-height:1.25;font-family:'Papaya Sunrise';-inkscape-font-specification:'Papaya Sunrise';fill:#cd0000;fill-opacity:1"
         id="path3782"
         inkscape:connector-curvature="0"
         sodipodi:nodetypes="ccccccccccccccsccccccc" />
    </g>
    <flowRoot
       xml:space="preserve"
       id="flowRoot4231"
       style="font-style:normal;font-weight:normal;line-height:0.01%;font-family:sans-serif;letter-spacing:0px;word-spacing:0px;fill:#000000;fill-opacity:1;stroke:none;stroke-width:1px;stroke-linecap:butt;stroke-linejoin:miter;stroke-opacity:1"><flowRegion
         id="flowRegion4233"><rect
           id="rect4235"
           width="394.28571"
           height="44.285713"
           x="202.85715"
           y="566.64795" /></flowRegion><flowPara
         id="flowPara4237"
         style="font-size:40px;line-height:1.25">Cu</flowPara></flowRoot>  </g>
</svg>
